EESchema Schematic File Version 2
LIBS:power
LIBS:device
LIBS:transistors
LIBS:conn
LIBS:linear
LIBS:regul
LIBS:74xx
LIBS:cmos4000
LIBS:adc-dac
LIBS:memory
LIBS:xilinx
LIBS:microcontrollers
LIBS:dsp
LIBS:microchip
LIBS:analog_switches
LIBS:motorola
LIBS:texas
LIBS:intel
LIBS:audio
LIBS:interface
LIBS:digital-audio
LIBS:philips
LIBS:display
LIBS:cypress
LIBS:siliconi
LIBS:opto
LIBS:atmel
LIBS:contrib
LIBS:valves
LIBS:Adattatore-cache
EELAYER 25 0
EELAYER END
$Descr A4 11693 8268
encoding utf-8
Sheet 1 1
Title ""
Date ""
Rev ""
Comp ""
Comment1 ""
Comment2 ""
Comment3 ""
Comment4 ""
$EndDescr
$Comp
L TPS61201DRCR U1
U 1 1 5F5C8254
P 4400 3500
F 0 "U1" H 3900 4239 50  0000 L BNN
F 1 "TPS61201DRCR" H 3900 2643 50  0000 L BNN
F 2 "VREG_V62:16624-01YE" H 4400 3500 50  0001 L BNN
F 3 "" H 4400 3500 60  0000 C CNN
	1    4400 3500
	1    0    0    -1  
$EndComp
$Comp
L CONN_01X05 P1
U 1 1 5F5C8328
P 2400 3700
F 0 "P1" H 2400 4000 50  0000 C CNN
F 1 "CONN_01X05" V 2500 3700 50  0000 C CNN
F 2 "Pin_Headers:Pin_Header_Straight_1x05" H 2400 3700 50  0001 C CNN
F 3 "" H 2400 3700 50  0000 C CNN
	1    2400 3700
	-1   0    0    1   
$EndComp
Text Label 2800 3900 0    60   ~ 0
UNO
Text Label 2800 3800 0    60   ~ 0
DUE
Text Label 2800 3700 0    60   ~ 0
TRE
Text Label 2800 3600 0    60   ~ 0
QUATTRO
Text Label 2800 3500 0    60   ~ 0
CINQUE
Text Label 2800 3300 0    60   ~ 0
SEI
Text Label 2800 3200 0    60   ~ 0
SETTE
Text Label 2800 3100 0    60   ~ 0
OTTO
Text Label 2800 3000 0    60   ~ 0
NOVE
Text Label 2800 2900 0    60   ~ 0
DIECI
Text Label 3400 3800 0    60   ~ 0
UNO
Text Label 3400 3400 0    60   ~ 0
CINQUE
Text Label 3400 3300 0    60   ~ 0
SETTE
Text Label 3400 3200 0    60   ~ 0
OTTO
Text Label 3400 3100 0    60   ~ 0
TRE
Text Label 3400 3000 0    60   ~ 0
DIECI
Text Label 3400 2900 0    60   ~ 0
SEI
Text Label 5250 2900 0    60   ~ 0
DUE
Text Label 5200 4000 0    60   ~ 0
QUATTRO
Text Label 5200 4100 0    60   ~ 0
NOVE
$Comp
L CONN_01X05 P2
U 1 1 5F5E5564
P 2400 3100
F 0 "P2" H 2400 3400 50  0000 C CNN
F 1 "CONN_01X05" V 2500 3100 50  0000 C CNN
F 2 "Pin_Headers:Pin_Header_Straight_1x05" H 2400 3100 50  0001 C CNN
F 3 "" H 2400 3100 50  0000 C CNN
	1    2400 3100
	-1   0    0    1   
$EndComp
$Comp
L TPS61201DRCR U2
U 1 1 5F5E5945
P 8400 3050
F 0 "U2" H 7900 3789 50  0000 L BNN
F 1 "TPS61201DRCR" H 7900 2193 50  0000 L BNN
F 2 "VREG_V62:16624-01YE" H 8400 3050 50  0001 L BNN
F 3 "" H 8400 3050 60  0000 C CNN
	1    8400 3050
	1    0    0    -1  
$EndComp
$Comp
L CONN_01X02 P3
U 1 1 5F5E59C8
P 7350 4600
F 0 "P3" H 7350 4750 50  0000 C CNN
F 1 "CONN_01X02" V 7450 4600 50  0000 C CNN
F 2 "Pin_Headers:Pin_Header_Straight_1x02" H 7350 4600 50  0001 C CNN
F 3 "" H 7350 4600 50  0000 C CNN
	1    7350 4600
	-1   0    0    1   
$EndComp
$Comp
L CONN_01X02 P4
U 1 1 5F5E5A3E
P 10100 4550
F 0 "P4" H 10100 4700 50  0000 C CNN
F 1 "CONN_01X02" V 10200 4550 50  0000 C CNN
F 2 "Pin_Headers:Pin_Header_Straight_1x02" H 10100 4550 50  0001 C CNN
F 3 "" H 10100 4550 50  0000 C CNN
	1    10100 4550
	1    0    0    -1  
$EndComp
Text Label 8200 4650 0    60   ~ 0
VIN
Text Label 8200 4550 0    60   ~ 0
GND
Text Label 9350 3650 0    60   ~ 0
GND
Text Label 7450 2950 0    60   ~ 0
VIN
$Comp
L CP1 C2
U 1 1 5F5E5BC8
P 7800 4600
F 0 "C2" H 7825 4700 50  0000 L CNN
F 1 "10uF" H 7825 4500 50  0000 L CNN
F 2 "Capacitors_SMD:C_0805" H 7800 4600 50  0001 C CNN
F 3 "" H 7800 4600 50  0000 C CNN
	1    7800 4600
	-1   0    0    1   
$EndComp
Text Label 6800 2650 0    60   ~ 0
VIN
$Comp
L L_Small L1
U 1 1 5F5E5CE3
P 7150 2650
F 0 "L1" H 7180 2690 50  0000 L CNN
F 1 "2.2uH" H 7180 2610 50  0000 L CNN
F 2 "Inductors_NEOSID:Neosid_Inductor_SM-NE127" H 7150 2650 50  0001 C CNN
F 3 "" H 7150 2650 50  0000 C CNN
	1    7150 2650
	0    1    1    0   
$EndComp
Wire Wire Line
	2800 3900 2600 3900
Wire Wire Line
	2600 2900 2800 2900
Wire Wire Line
	2800 3000 2600 3000
Wire Wire Line
	2600 3100 2800 3100
Wire Wire Line
	2800 3200 2600 3200
Wire Wire Line
	2600 3300 2800 3300
Wire Wire Line
	2800 3500 2600 3500
Wire Wire Line
	2600 3600 2800 3600
Wire Wire Line
	2800 3700 2600 3700
Wire Wire Line
	2600 3800 2800 3800
Wire Wire Line
	3400 3800 3700 3800
Wire Wire Line
	3700 3400 3400 3400
Wire Wire Line
	3400 3300 3700 3300
Wire Wire Line
	3700 3200 3400 3200
Wire Wire Line
	3400 3100 3700 3100
Wire Wire Line
	3700 3000 3400 3000
Wire Wire Line
	3400 2900 3700 2900
Wire Wire Line
	5100 2900 5250 2900
Wire Wire Line
	5100 4000 5200 4000
Wire Wire Line
	5100 4100 5200 4100
Wire Wire Line
	8000 4550 8200 4550
Wire Wire Line
	8200 4650 8000 4650
Wire Wire Line
	9100 3550 9100 3650
Wire Wire Line
	9100 3650 9350 3650
Wire Wire Line
	7700 2950 7450 2950
Wire Wire Line
	7550 4550 7550 4450
Wire Wire Line
	7550 4450 8000 4450
Wire Wire Line
	8000 4450 8000 4550
Connection ~ 7800 4450
Wire Wire Line
	7550 4650 7550 4750
Wire Wire Line
	7550 4750 8000 4750
Wire Wire Line
	8000 4750 8000 4650
Connection ~ 7800 4750
Wire Wire Line
	6800 2650 7050 2650
Wire Wire Line
	7250 2650 7700 2650
Wire Wire Line
	7700 2750 7700 2950
Connection ~ 7700 2850
Text Label 7500 2450 0    60   ~ 0
VIN
Wire Wire Line
	7500 2450 7700 2450
Text Label 9350 2450 0    60   ~ 0
VOUT
Wire Wire Line
	9350 2450 9100 2450
$Comp
L CP1 C1
U 1 1 5F5E62D7
P 7450 3500
F 0 "C1" H 7475 3600 50  0000 L CNN
F 1 "100nF" H 7475 3400 50  0000 L CNN
F 2 "Capacitors_SMD:C_0805" H 7450 3500 50  0001 C CNN
F 3 "" H 7450 3500 50  0000 C CNN
	1    7450 3500
	1    0    0    -1  
$EndComp
Wire Wire Line
	7450 3400 7450 3350
Wire Wire Line
	7450 3350 7700 3350
Wire Wire Line
	7450 3650 7450 4000
Wire Wire Line
	7450 4000 9200 4000
Wire Wire Line
	9200 4000 9200 3650
Connection ~ 9200 3650
Text Label 9000 4650 0    60   ~ 0
VOUT
Text Label 9000 4550 0    60   ~ 0
GND
$Comp
L CP1 C3
U 1 1 5F5E6631
P 9600 4550
F 0 "C3" H 9625 4650 50  0000 L CNN
F 1 "10uF" H 9625 4450 50  0000 L CNN
F 2 "Capacitors_SMD:C_0805" H 9600 4550 50  0001 C CNN
F 3 "" H 9600 4550 50  0000 C CNN
	1    9600 4550
	-1   0    0    1   
$EndComp
Wire Wire Line
	9000 4650 9250 4650
Wire Wire Line
	9250 4650 9250 4700
Wire Wire Line
	9250 4700 9900 4700
Wire Wire Line
	9900 4700 9900 4600
Connection ~ 9600 4700
Wire Wire Line
	9900 4400 9900 4500
Wire Wire Line
	9250 4400 9900 4400
Wire Wire Line
	9250 4400 9250 4550
Wire Wire Line
	9250 4550 9000 4550
Connection ~ 9600 4400
Wire Wire Line
	7700 2550 7400 2550
Wire Wire Line
	7400 2550 7400 2200
Wire Wire Line
	7400 2200 9150 2200
Wire Wire Line
	9150 2200 9150 2450
Connection ~ 9150 2450
$EndSCHEMATC
