EESchema Schematic File Version 2
LIBS:power
LIBS:device
LIBS:transistors
LIBS:conn
LIBS:linear
LIBS:regul
LIBS:74xx
LIBS:cmos4000
LIBS:adc-dac
LIBS:memory
LIBS:xilinx
LIBS:microcontrollers
LIBS:dsp
LIBS:microchip
LIBS:analog_switches
LIBS:motorola
LIBS:texas
LIBS:intel
LIBS:audio
LIBS:interface
LIBS:digital-audio
LIBS:philips
LIBS:display
LIBS:cypress
LIBS:siliconi
LIBS:opto
LIBS:atmel
LIBS:contrib
LIBS:valves
LIBS:ZSPM4523AA1W
LIBS:TPS61201DRCR
LIBS:Scheda-cache
EELAYER 25 0
EELAYER END
$Descr A4 11693 8268
encoding utf-8
Sheet 1 1
Title "Scheda"
Date "2021-01-07"
Rev "0"
Comp ""
Comment1 ""
Comment2 ""
Comment3 ""
Comment4 ""
$EndDescr
$Comp
L ZSPM4523AA1W U1
U 1 1 5FE75B05
P 2100 2650
F 0 "U1" H 1699 3552 50  0000 L BNN
F 1 "ZSPM4523AA1W" H 1700 1549 50  0000 L BNN
F 2 "Libreria:QFN65P400X400X100-17N" H 2100 2650 50  0001 L BNN
F 3 "https://www.mouser.it/datasheet/2/698/IDT_ZSPM4523_DST_20160129_1-1713184.pdf" H 2100 2650 50  0001 L BNN
F 4 "PQFN / 16 / 4X4MM# G1 - TAPE&REE" H 2100 2650 50  0001 L BNN "Packaging"
F 5 "964-ZSPM4523AA1W" H 2100 2650 50  0001 L BNN "Mouser PN"
F 6 "None" H 2100 2650 50  0001 L BNN "Field6"
F 7 "IDT, Integrated" H 2100 2650 50  0001 L BNN "Field7"
F 8 "None" H 2100 2650 50  0001 L BNN "Field8"
F 9 "https://snapeda.com/shop?store=Mouser&id=2656424" H 2100 2650 50  0001 L BNN "Field9"
	1    2100 2650
	1    0    0    -1  
$EndComp
$Comp
L GND #PWR4
U 1 1 5FE75BCD
P 2700 3450
F 0 "#PWR4" H 2700 3200 50  0001 C CNN
F 1 "GND" H 2700 3300 50  0000 C CNN
F 2 "" H 2700 3450 50  0000 C CNN
F 3 "" H 2700 3450 50  0000 C CNN
	1    2700 3450
	1    0    0    -1  
$EndComp
$Comp
L GND #PWR7
U 1 1 5FE75CB5
P 3600 2500
F 0 "#PWR7" H 3600 2250 50  0001 C CNN
F 1 "GND" H 3600 2350 50  0000 C CNN
F 2 "" H 3600 2500 50  0000 C CNN
F 3 "" H 3600 2500 50  0000 C CNN
	1    3600 2500
	1    0    0    -1  
$EndComp
$Comp
L GND #PWR5
U 1 1 5FE75D25
P 3150 1650
F 0 "#PWR5" H 3150 1400 50  0001 C CNN
F 1 "GND" H 3150 1500 50  0000 C CNN
F 2 "" H 3150 1650 50  0000 C CNN
F 3 "" H 3150 1650 50  0000 C CNN
	1    3150 1650
	1    0    0    -1  
$EndComp
$Comp
L INDUCTOR L1
U 1 1 5FE75DD3
P 1000 2000
F 0 "L1" V 950 2000 50  0000 C CNN
F 1 "4,7uH" V 1100 2000 50  0000 C CNN
F 2 "Inductors:INDUCTOR_V" H 1000 2000 50  0001 C CNN
F 3 "https://www.mouser.it/datasheet/2/597/RFC1010-463470.pdf" H 1000 2000 50  0001 C CNN
F 4 "994-RFC1010B-475KE" V 1000 2000 60  0001 C CNN "Mouser PN"
F 5 "https://product.tdk.com/info/en/catalog/datasheets/inductor_automotive_decoupling_klz2012-hr_en.pdf?ref_disty=mouser" V 1000 2000 60  0001 C CNN "Datasheet2"
F 6 "810-KLZ2012MHR4R7HTD" V 1000 2000 60  0001 C CNN "Mouser PN2"
	1    1000 2000
	1    0    0    -1  
$EndComp
$Comp
L R R1
U 1 1 5FE75E62
P 3650 1300
F 0 "R1" H 3730 1300 50  0000 C CNN
F 1 "50m" V 3650 1300 50  0000 C CNN
F 2 "Resistors_SMD:R_0805_HandSoldering" V 3580 1300 50  0001 C CNN
F 3 "Da scegliere smd 0805" H 3650 1300 50  0001 C CNN
	1    3650 1300
	0    1    1    0   
$EndComp
Wire Wire Line
	2700 3350 2700 3450
Wire Wire Line
	2700 2150 3750 2150
Connection ~ 3400 2150
Wire Wire Line
	3750 2450 3400 2450
Wire Wire Line
	3600 2500 3600 2450
Connection ~ 3600 2450
Wire Wire Line
	2700 1950 2700 1550
Wire Wire Line
	2700 1550 2750 1550
Wire Wire Line
	3050 1550 3150 1550
Wire Wire Line
	3150 1550 3150 1650
Wire Wire Line
	1500 2550 1000 2550
Wire Wire Line
	1000 2550 1000 2300
Wire Wire Line
	3300 2050 2700 2050
Wire Wire Line
	3300 1200 3300 2050
Wire Wire Line
	1000 1300 3500 1300
Wire Wire Line
	1000 1300 1000 1700
Connection ~ 3300 1300
Wire Wire Line
	4300 1300 4300 2800
Wire Wire Line
	4300 2800 3000 2800
Wire Wire Line
	3000 2800 3000 2250
Wire Wire Line
	3000 2250 2700 2250
Connection ~ 4050 1300
$Comp
L GND #PWR8
U 1 1 5FE7603D
P 4050 1700
F 0 "#PWR8" H 4050 1450 50  0001 C CNN
F 1 "GND" H 4050 1550 50  0000 C CNN
F 2 "" H 4050 1700 50  0000 C CNN
F 3 "" H 4050 1700 50  0000 C CNN
	1    4050 1700
	1    0    0    -1  
$EndComp
Wire Wire Line
	4050 1700 4050 1600
Connection ~ 4300 1300
$Comp
L CP C1
U 1 1 5FE7615F
P 5900 1900
F 0 "C1" H 5925 2000 50  0000 L CNN
F 1 "100F" H 5925 1800 50  0000 L CNN
F 2 "Connect:AK300-2" H 5938 1750 50  0001 C CNN
F 3 "https://www.masters.com.pl/files/ds/samwha/samwha-green-cap.pdf" H 5900 1900 50  0001 C CNN
F 4 "DB 100F  2,7V" H 5900 1900 60  0001 C CNN "Specifiche"
	1    5900 1900
	1    0    0    -1  
$EndComp
Text Label 5900 1550 0    60   ~ 0
Vcap
Wire Wire Line
	5900 1550 5900 1750
$Comp
L GND #PWR14
U 1 1 5FE761FC
P 5900 2250
F 0 "#PWR14" H 5900 2000 50  0001 C CNN
F 1 "GND" H 5900 2100 50  0000 C CNN
F 2 "" H 5900 2250 50  0000 C CNN
F 3 "" H 5900 2250 50  0000 C CNN
	1    5900 2250
	1    0    0    -1  
$EndComp
Wire Wire Line
	5900 2250 5900 2050
Text Label 3750 2000 0    60   ~ 0
Vin
Wire Wire Line
	3750 2000 3750 2250
Text Label 1500 2650 2    60   ~ 0
Vin
Text Label 1500 3050 2    60   ~ 0
SDA
Text Label 1500 2750 2    60   ~ 0
SCL
$Comp
L TPS61201DRCR U2
U 1 1 5FE7665D
P 9250 2050
F 0 "U2" H 8750 2789 50  0000 L BNN
F 1 "TPS61201DRCR" H 8750 1193 50  0000 L BNN
F 2 "VREG_V62:16624-01YE" H 9250 2050 50  0001 L BNN
F 3 "https://www.ti.com/lit/ds/symlink/tps61201.pdf?HQS=TI-null-null-mousermode-df-pf-null-wwe&ts=1599638950722&ref_url=https%253A%252F%252Fwww.mouser.it%252F" H 9250 2050 60  0001 C CNN
F 4 "661-6941" H 9250 2050 60  0001 C CNN "RS PN"
	1    9250 2050
	1    0    0    -1  
$EndComp
Wire Wire Line
	9950 2550 9950 2650
$Comp
L GND #PWR24
U 1 1 5FE7684B
P 9950 2650
F 0 "#PWR24" H 9950 2400 50  0001 C CNN
F 1 "GND" H 9950 2500 50  0000 C CNN
F 2 "" H 9950 2650 50  0000 C CNN
F 3 "" H 9950 2650 50  0000 C CNN
	1    9950 2650
	1    0    0    -1  
$EndComp
$Comp
L VCC #PWR23
U 1 1 5FE7689E
P 9950 1450
F 0 "#PWR23" H 9950 1300 50  0001 C CNN
F 1 "VCC" H 9950 1600 50  0000 C CNN
F 2 "" H 9950 1450 50  0000 C CNN
F 3 "" H 9950 1450 50  0000 C CNN
	1    9950 1450
	1    0    0    -1  
$EndComp
Wire Wire Line
	8550 1750 8550 1950
Connection ~ 8550 1850
$Comp
L INDUCTOR L2
U 1 1 5FE76A49
P 8150 1650
F 0 "L2" V 8100 1650 50  0000 C CNN
F 1 "2,2uH" V 8250 1650 50  0000 C CNN
F 2 "Inductors:SELF-WE-PD-XXL" H 8150 1650 50  0001 C CNN
F 3 "https://docs.rs-online.com/56b6/0900766b8142f5f1.pdf" H 8150 1650 50  0001 C CNN
F 4 "874-9797" V 8150 1650 60  0001 C CNN "RS PN"
	1    8150 1650
	0    1    1    0   
$EndComp
Wire Wire Line
	8450 1650 8550 1650
Wire Wire Line
	6600 1850 8550 1850
Wire Wire Line
	7600 1250 7600 1850
Wire Wire Line
	7600 1650 7850 1650
Connection ~ 7600 1850
Connection ~ 7600 1650
$Comp
L VCC #PWR19
U 1 1 5FE76B73
P 8400 1550
F 0 "#PWR19" H 8400 1400 50  0001 C CNN
F 1 "VCC" H 8400 1700 50  0000 C CNN
F 2 "" H 8400 1550 50  0000 C CNN
F 3 "" H 8400 1550 50  0000 C CNN
	1    8400 1550
	1    0    0    -1  
$EndComp
Wire Wire Line
	8400 1550 8550 1550
Wire Wire Line
	8550 1450 8550 1250
Wire Wire Line
	8550 1250 7600 1250
Wire Wire Line
	7750 1900 7750 1850
Connection ~ 7750 1850
$Comp
L GND #PWR16
U 1 1 5FE76C82
P 7750 2350
F 0 "#PWR16" H 7750 2100 50  0001 C CNN
F 1 "GND" H 7750 2200 50  0000 C CNN
F 2 "" H 7750 2350 50  0000 C CNN
F 3 "" H 7750 2350 50  0000 C CNN
	1    7750 2350
	1    0    0    -1  
$EndComp
Wire Wire Line
	7750 2350 7750 2200
Wire Wire Line
	10200 1450 9950 1450
$Comp
L GND #PWR25
U 1 1 5FE76D68
P 10200 1950
F 0 "#PWR25" H 10200 1700 50  0001 C CNN
F 1 "GND" H 10200 1800 50  0000 C CNN
F 2 "" H 10200 1950 50  0000 C CNN
F 3 "" H 10200 1950 50  0000 C CNN
	1    10200 1950
	1    0    0    -1  
$EndComp
Wire Wire Line
	10200 1950 10200 1750
Wire Wire Line
	8300 2350 8550 2350
$Comp
L GND #PWR18
U 1 1 5FE76E9F
P 8300 2650
F 0 "#PWR18" H 8300 2400 50  0001 C CNN
F 1 "GND" H 8300 2500 50  0000 C CNN
F 2 "" H 8300 2650 50  0000 C CNN
F 3 "" H 8300 2650 50  0000 C CNN
	1    8300 2650
	1    0    0    -1  
$EndComp
$Comp
L ATMEGA328P-A IC1
U 1 1 5FE77009
P 3000 6050
F 0 "IC1" H 2250 7300 50  0000 L BNN
F 1 "ATMEGA328P-A" H 3400 4650 50  0000 L BNN
F 2 "Housings_QFP:LQFP-32_7x7mm_Pitch0.8mm" H 3000 6050 50  0001 C CIN
F 3 "http://ww1.microchip.com/downloads/en/DeviceDoc/Atmel-7810-Automotive-Microcontrollers-ATmega328P_Datasheet.pdf" H 3000 6050 50  0001 C CNN
	1    3000 6050
	1    0    0    -1  
$EndComp
Wire Wire Line
	2100 7050 2100 7250
Connection ~ 2100 7150
$Comp
L GND #PWR3
U 1 1 5FE77142
P 2100 7250
F 0 "#PWR3" H 2100 7000 50  0001 C CNN
F 1 "GND" H 2100 7100 50  0000 C CNN
F 2 "" H 2100 7250 50  0000 C CNN
F 3 "" H 2100 7250 50  0000 C CNN
	1    2100 7250
	1    0    0    -1  
$EndComp
Wire Wire Line
	2100 5250 2100 4950
Connection ~ 2100 5050
$Comp
L VCC #PWR2
U 1 1 5FE771F4
P 2100 4950
F 0 "#PWR2" H 2100 4800 50  0001 C CNN
F 1 "VCC" H 2100 5100 50  0000 C CNN
F 2 "" H 2100 4950 50  0000 C CNN
F 3 "" H 2100 4950 50  0000 C CNN
	1    2100 4950
	1    0    0    -1  
$EndComp
Text Label 2100 6400 2    60   ~ 0
Vcap
Text Label 2100 6300 2    60   ~ 0
Isense
Text Label 3300 1200 2    60   ~ 0
Isense
Text Label 4500 6200 0    60   ~ 0
SDA
Wire Wire Line
	4000 6200 4500 6200
$Comp
L VCC #PWR9
U 1 1 5FE7769D
P 4450 5850
F 0 "#PWR9" H 4450 5700 50  0001 C CNN
F 1 "VCC" H 4450 6000 50  0000 C CNN
F 2 "" H 4450 5850 50  0000 C CNN
F 3 "" H 4450 5850 50  0000 C CNN
	1    4450 5850
	1    0    0    -1  
$EndComp
$Comp
L R R3
U 1 1 5FE776DB
P 4450 6000
F 0 "R3" V 4530 6000 50  0000 C CNN
F 1 "10k" V 4450 6000 50  0000 C CNN
F 2 "Resistors_SMD:R_0805_HandSoldering" V 4380 6000 50  0001 C CNN
F 3 "https://www.mouser.it/datasheet/2/54/chp-a-1858677.pdf" H 4450 6000 50  0001 C CNN
F 4 "652-CHP0805AFX1002EL" V 4450 6000 60  0001 C CNN "Mouser PN"
	1    4450 6000
	1    0    0    -1  
$EndComp
Wire Wire Line
	4450 6150 4450 6200
Connection ~ 4450 6200
Text Label 5000 6300 0    60   ~ 0
SCL
Wire Wire Line
	5000 6300 4000 6300
$Comp
L R R5
U 1 1 5FE777F1
P 4900 6050
F 0 "R5" V 4980 6050 50  0000 C CNN
F 1 "10k" V 4900 6050 50  0000 C CNN
F 2 "Resistors_SMD:R_0805_HandSoldering" V 4830 6050 50  0001 C CNN
F 3 "https://www.mouser.it/datasheet/2/54/chp-a-1858677.pdf" H 4900 6050 50  0001 C CNN
F 4 "652-CHP0805AFX1002EL" V 4900 6050 60  0001 C CNN "Mouser PN"
	1    4900 6050
	1    0    0    -1  
$EndComp
$Comp
L VCC #PWR11
U 1 1 5FE77836
P 4900 5900
F 0 "#PWR11" H 4900 5750 50  0001 C CNN
F 1 "VCC" H 4900 6050 50  0000 C CNN
F 2 "" H 4900 5900 50  0000 C CNN
F 3 "" H 4900 5900 50  0000 C CNN
	1    4900 5900
	1    0    0    -1  
$EndComp
Wire Wire Line
	4900 6200 4900 6300
Connection ~ 4900 6300
Text Label 4000 5800 0    60   ~ 0
A0
Text Label 4000 5900 0    60   ~ 0
A1
Text Label 4000 6000 0    60   ~ 0
A2
Text Label 4000 6100 0    60   ~ 0
A3
Text Label 4000 6650 0    60   ~ 0
TX
Text Label 4000 6550 0    60   ~ 0
RX
Text Label 4000 6750 0    60   ~ 0
D2
Text Label 4000 6850 0    60   ~ 0
D3
Text Label 4000 6950 0    60   ~ 0
D4
Text Label 4000 7050 0    60   ~ 0
D5
Text Label 4000 7150 0    60   ~ 0
D6
Text Label 4000 7250 0    60   ~ 0
D7
Text Label 4000 4950 0    60   ~ 0
D8
Text Label 4000 5050 0    60   ~ 0
D9
Text Label 4000 5150 0    60   ~ 0
D10
Text Label 4000 5250 0    60   ~ 0
D11
Text Label 4000 5350 0    60   ~ 0
D12
Text Label 4000 5450 0    60   ~ 0
D13
$Comp
L Crystal Y1
U 1 1 5FE77E89
P 4700 5100
F 0 "Y1" H 4700 5250 50  0000 C CNN
F 1 "8MHz" H 4700 4950 50  0000 C CNN
F 2 "Crystals:Crystal_HC49-U_Vertical" H 4700 5100 50  0001 C CNN
F 3 "https://www.mouser.it/datasheet/2/96/008-0309-0-786275.pdf" H 4700 5100 50  0001 C CNN
F 4 "774-ATS08A" H 4700 5100 60  0001 C CNN "Mouser PN"
	1    4700 5100
	1    0    0    -1  
$EndComp
Wire Wire Line
	4400 5550 4000 5550
Wire Wire Line
	4400 5000 4400 5550
Wire Wire Line
	4400 5100 4550 5100
Wire Wire Line
	5000 5650 4000 5650
Wire Wire Line
	5000 5000 5000 5650
Wire Wire Line
	5000 5100 4850 5100
$Comp
L GND #PWR12
U 1 1 5FE78054
P 5350 4600
F 0 "#PWR12" H 5350 4350 50  0001 C CNN
F 1 "GND" H 5350 4450 50  0000 C CNN
F 2 "" H 5350 4600 50  0000 C CNN
F 3 "" H 5350 4600 50  0000 C CNN
	1    5350 4600
	1    0    0    -1  
$EndComp
Wire Wire Line
	4400 4700 5000 4700
Wire Wire Line
	5000 4700 5000 4550
Wire Wire Line
	5000 4550 5350 4550
Wire Wire Line
	5350 4550 5350 4600
Connection ~ 4400 5100
Connection ~ 5000 5100
Text Label 2100 5550 2    60   ~ 0
AREF
$Comp
L VCC #PWR10
U 1 1 5FE784EA
P 4700 6700
F 0 "#PWR10" H 4700 6550 50  0001 C CNN
F 1 "VCC" H 4700 6850 50  0000 C CNN
F 2 "" H 4700 6700 50  0000 C CNN
F 3 "" H 4700 6700 50  0000 C CNN
	1    4700 6700
	1    0    0    -1  
$EndComp
$Comp
L R R4
U 1 1 5FE78524
P 4550 6700
F 0 "R4" V 4630 6700 50  0000 C CNN
F 1 "10k" V 4550 6700 50  0000 C CNN
F 2 "Resistors_SMD:R_0805_HandSoldering" V 4480 6700 50  0001 C CNN
F 3 "https://www.mouser.it/datasheet/2/54/chp-a-1858677.pdf" H 4550 6700 50  0001 C CNN
F 4 "652-CHP0805AFX1002EL" V 4550 6700 60  0001 C CNN "Mouser PN"
	1    4550 6700
	0    1    1    0   
$EndComp
Wire Wire Line
	4400 6400 4400 6700
Wire Wire Line
	4000 6400 5000 6400
Text Label 4400 6400 0    60   ~ 0
RST
$Comp
L CONN_01X06 P2
U 1 1 5FE786F9
P 7150 5750
F 0 "P2" H 7150 6100 50  0000 C CNN
F 1 "FTDI" V 7250 5750 50  0000 C CNN
F 2 "Pin_Headers:Pin_Header_Straight_1x06" H 7150 5750 50  0001 C CNN
F 3 "" H 7150 5750 50  0000 C CNN
	1    7150 5750
	-1   0    0    1   
$EndComp
Wire Wire Line
	7350 5500 7350 5600
$Comp
L GND #PWR17
U 1 1 5FE78964
P 7750 5500
F 0 "#PWR17" H 7750 5250 50  0001 C CNN
F 1 "GND" H 7750 5350 50  0000 C CNN
F 2 "" H 7750 5500 50  0000 C CNN
F 3 "" H 7750 5500 50  0000 C CNN
	1    7750 5500
	1    0    0    -1  
$EndComp
Wire Wire Line
	7350 5500 7750 5500
$Comp
L VCC #PWR15
U 1 1 5FE78A88
P 7450 5700
F 0 "#PWR15" H 7450 5550 50  0001 C CNN
F 1 "VCC" H 7450 5850 50  0000 C CNN
F 2 "" H 7450 5700 50  0000 C CNN
F 3 "" H 7450 5700 50  0000 C CNN
	1    7450 5700
	1    0    0    -1  
$EndComp
Wire Wire Line
	7350 5700 7450 5700
Text Label 7350 5800 0    60   ~ 0
RX
Text Label 7350 5900 0    60   ~ 0
TX
Text Label 7650 6000 0    60   ~ 0
RST
$Comp
L CONN_01X02 P5
U 1 1 5FE78F1D
P 7200 5000
F 0 "P5" H 7200 5150 50  0000 C CNN
F 1 "I2C" V 7300 5000 50  0000 C CNN
F 2 "Pin_Headers:Pin_Header_Straight_1x02" H 7200 5000 50  0001 C CNN
F 3 "" H 7200 5000 50  0000 C CNN
	1    7200 5000
	-1   0    0    1   
$EndComp
Text Label 7400 4950 0    60   ~ 0
SDA
Text Label 7400 5050 0    60   ~ 0
SCL
Text Label 8400 4950 0    60   ~ 0
A0
Text Label 8400 5050 0    60   ~ 0
A1
Text Label 8400 5150 0    60   ~ 0
A2
Text Label 8400 5250 0    60   ~ 0
A3
$Comp
L CONN_01X06 P4
U 1 1 5FE793E6
P 9200 5150
F 0 "P4" H 9200 5500 50  0000 C CNN
F 1 "DIGITAL1" V 9300 5150 50  0000 C CNN
F 2 "Pin_Headers:Pin_Header_Straight_1x06" H 9200 5150 50  0001 C CNN
F 3 "" H 9200 5150 50  0000 C CNN
	1    9200 5150
	-1   0    0    1   
$EndComp
Text Label 9400 4900 0    60   ~ 0
D2
Text Label 9400 5000 0    60   ~ 0
D3
Text Label 9400 5100 0    60   ~ 0
D4
Text Label 9400 5200 0    60   ~ 0
D5
Text Label 9400 5300 0    60   ~ 0
D6
Text Label 9400 5400 0    60   ~ 0
D7
$Comp
L CONN_01X06 P6
U 1 1 5FE79473
P 10150 5050
F 0 "P6" H 10150 5400 50  0000 C CNN
F 1 "DIGITAL2" V 10250 5050 50  0000 C CNN
F 2 "Pin_Headers:Pin_Header_Straight_1x06" H 10150 5050 50  0001 C CNN
F 3 "" H 10150 5050 50  0000 C CNN
	1    10150 5050
	-1   0    0    1   
$EndComp
Text Label 10350 4800 0    60   ~ 0
D8
Text Label 10350 4900 0    60   ~ 0
D9
Text Label 10350 5000 0    60   ~ 0
D10
Text Label 10350 5100 0    60   ~ 0
D11
Text Label 10350 5200 0    60   ~ 0
D12
Text Label 10350 5300 0    60   ~ 0
D13
$Comp
L LED D1
U 1 1 5FE79543
P 3850 4450
F 0 "D1" H 3850 4550 50  0000 C CNN
F 1 "LED" H 3850 4350 50  0000 C CNN
F 2 "LEDs:LED_0805" H 3850 4450 50  0001 C CNN
F 3 "Da scegliere smd 0805 5v" H 3850 4450 50  0001 C CNN
	1    3850 4450
	1    0    0    -1  
$EndComp
$Comp
L R R2
U 1 1 5FE7959C
P 3500 4450
F 0 "R2" V 3580 4450 50  0000 C CNN
F 1 "220" V 3500 4450 50  0000 C CNN
F 2 "Resistors_SMD:R_0805_HandSoldering" V 3430 4450 50  0001 C CNN
F 3 "https://www.mouser.it/datasheet/2/427/crcwce3-1762584.pdf" H 3500 4450 50  0001 C CNN
F 4 "71-CRCW0805220RFKEBC" V 3500 4450 60  0001 C CNN "Mouser PN"
	1    3500 4450
	0    1    1    0   
$EndComp
$Comp
L GND #PWR6
U 1 1 5FE79609
P 3300 4450
F 0 "#PWR6" H 3300 4200 50  0001 C CNN
F 1 "GND" H 3300 4300 50  0000 C CNN
F 2 "" H 3300 4450 50  0000 C CNN
F 3 "" H 3300 4450 50  0000 C CNN
	1    3300 4450
	0    1    1    0   
$EndComp
Wire Wire Line
	3300 4450 3350 4450
$Comp
L CONN_01X05 P1
U 1 1 5FE79923
P 8200 5150
F 0 "P1" H 8200 5450 50  0000 C CNN
F 1 "ANALOG" V 8300 5150 50  0000 C CNN
F 2 "Pin_Headers:Pin_Header_Straight_1x05" H 8200 5150 50  0001 C CNN
F 3 "" H 8200 5150 50  0000 C CNN
	1    8200 5150
	-1   0    0    1   
$EndComp
Text Label 8400 5350 0    60   ~ 0
AREF
$Comp
L CONN_01X04 P3
U 1 1 5FE79B15
P 8750 6050
F 0 "P3" H 8750 6300 50  0000 C CNN
F 1 "POWER" V 8850 6050 50  0000 C CNN
F 2 "Pin_Headers:Pin_Header_Straight_1x04" H 8750 6050 50  0001 C CNN
F 3 "" H 8750 6050 50  0000 C CNN
	1    8750 6050
	-1   0    0    1   
$EndComp
Text Label 8950 6200 0    60   ~ 0
Vcap
$Comp
L VCC #PWR21
U 1 1 5FE79D18
P 8950 5900
F 0 "#PWR21" H 8950 5750 50  0001 C CNN
F 1 "VCC" H 8950 6050 50  0000 C CNN
F 2 "" H 8950 5900 50  0000 C CNN
F 3 "" H 8950 5900 50  0000 C CNN
	1    8950 5900
	1    0    0    -1  
$EndComp
$Comp
L GND #PWR22
U 1 1 5FE79DCC
P 9300 6100
F 0 "#PWR22" H 9300 5850 50  0001 C CNN
F 1 "GND" H 9300 5950 50  0000 C CNN
F 2 "" H 9300 6100 50  0000 C CNN
F 3 "" H 9300 6100 50  0000 C CNN
	1    9300 6100
	1    0    0    -1  
$EndComp
$Comp
L GND #PWR20
U 1 1 5FE8B077
P 8550 2150
F 0 "#PWR20" H 8550 1900 50  0001 C CNN
F 1 "GND" H 8550 2000 50  0000 C CNN
F 2 "" H 8550 2150 50  0000 C CNN
F 3 "" H 8550 2150 50  0000 C CNN
	1    8550 2150
	1    0    0    -1  
$EndComp
Wire Wire Line
	3800 1300 4450 1300
Wire Wire Line
	8950 6000 8950 6100
Wire Wire Line
	8950 6100 9300 6100
$Comp
L C C11
U 1 1 5FF5AAD8
P 7500 6000
F 0 "C11" H 7525 6100 50  0000 L CNN
F 1 "100nF" H 7525 5900 50  0000 L CNN
F 2 "Capacitors_SMD:C_0805_HandSoldering" H 7538 5850 50  0001 C CNN
F 3 "https://www.mouser.it/datasheet/2/212/KEM_C1002_X7R_SMD-1102033.pdf" H 7500 6000 50  0001 C CNN
F 4 "80-C0805C104K5RACLR" H 7500 6000 60  0001 C CNN "Mouser PN"
	1    7500 6000
	0    1    1    0   
$EndComp
$Comp
L CP C10
U 1 1 5FF5AFA6
P 1250 5400
F 0 "C10" H 1275 5500 50  0000 L CNN
F 1 "4,7uF" H 1275 5300 50  0000 L CNN
F 2 "Capacitors_SMD:c_elec_5x5.7" H 1288 5250 50  0001 C CNN
F 3 "https://www.mouser.it/datasheet/2/212/KEM_A4049_EDH-1102962.pdf" H 1250 5400 50  0001 C CNN
F 4 "80-EDH475M035A9BAA" H 1250 5400 60  0001 C CNN "Mouser PN"
	1    1250 5400
	1    0    0    -1  
$EndComp
Wire Wire Line
	1250 5250 2100 5250
$Comp
L GND #PWR1
U 1 1 5FF5B0C8
P 1250 5650
F 0 "#PWR1" H 1250 5400 50  0001 C CNN
F 1 "GND" H 1250 5500 50  0000 C CNN
F 2 "" H 1250 5650 50  0000 C CNN
F 3 "" H 1250 5650 50  0000 C CNN
	1    1250 5650
	1    0    0    -1  
$EndComp
$Comp
L SW_PUSH SW1
U 1 1 5FF5C610
P 5300 6950
F 0 "SW1" H 5450 7060 50  0000 C CNN
F 1 "RST" H 5300 6870 50  0000 C CNN
F 2 "Buttons_Switches_ThroughHole:SW_PUSH_SMALL" H 5300 6950 50  0001 C CNN
F 3 "Tulli elettronica, bottoncino normale, gia' usato il footprint" H 5300 6950 50  0001 C CNN
	1    5300 6950
	1    0    0    -1  
$EndComp
$Comp
L GND #PWR13
U 1 1 5FF5C7EF
P 5600 6950
F 0 "#PWR13" H 5600 6700 50  0001 C CNN
F 1 "GND" H 5600 6800 50  0000 C CNN
F 2 "" H 5600 6950 50  0000 C CNN
F 3 "" H 5600 6950 50  0000 C CNN
	1    5600 6950
	1    0    0    -1  
$EndComp
Text Label 5000 6950 2    60   ~ 0
RST
$Comp
L C C8
U 1 1 5FF72F2D
P 4400 4850
F 0 "C8" H 4425 4950 50  0000 L CNN
F 1 "20pF" H 4425 4750 50  0000 L CNN
F 2 "Capacitors_SMD:C_0805_HandSoldering" H 4438 4700 50  0001 C CNN
F 3 "https://www.mouser.it/datasheet/2/212/KEM_C1007_X8R_ULTRA_150C_SMD-1102703.pdf" H 4400 4850 50  0001 C CNN
F 4 "80-C0805C200K5HAUTO" H 4400 4850 60  0001 C CNN "Mouser PN"
	1    4400 4850
	1    0    0    -1  
$EndComp
$Comp
L C C9
U 1 1 5FF7317C
P 5000 4850
F 0 "C9" H 5025 4950 50  0000 L CNN
F 1 "20pF" H 5025 4750 50  0000 L CNN
F 2 "Capacitors_SMD:C_0805_HandSoldering" H 5038 4700 50  0001 C CNN
F 3 "https://www.mouser.it/datasheet/2/212/KEM_C1007_X8R_ULTRA_150C_SMD-1102703.pdf" H 5000 4850 50  0001 C CNN
F 4 "80-C0805C200K5HAUTO" H 5000 4850 60  0001 C CNN "Mouser PN"
	1    5000 4850
	1    0    0    -1  
$EndComp
$Comp
L C C6
U 1 1 5FF7350A
P 4050 1450
F 0 "C6" H 4075 1550 50  0000 L CNN
F 1 "4,7uF" H 4075 1350 50  0000 L CNN
F 2 "Capacitors_SMD:C_0805_HandSoldering" H 4088 1300 50  0001 C CNN
F 3 "https://www.mouser.it/datasheet/2/396/Taiyo_Yuden_JMK212B7475KGHT_SS-1841489.pdf" H 4050 1450 50  0001 C CNN
F 4 "963-JMK212B7475KGHT" H 4050 1450 60  0001 C CNN "Mouser PN"
	1    4050 1450
	1    0    0    -1  
$EndComp
$Comp
L C C4
U 1 1 5FF73821
P 3400 2300
F 0 "C4" H 3425 2400 50  0000 L CNN
F 1 "10uF" H 3425 2200 50  0000 L CNN
F 2 "Capacitors_SMD:C_0805_HandSoldering" H 3438 2150 50  0001 C CNN
F 3 "https://www.mouser.it/datasheet/2/396/taiyo_yuden_07182019_MLCC_AECQ200_Grade_1_X7R_data-1622917.pdf" H 3400 2300 50  0001 C CNN
F 4 "963-JMF212AB7106KGHT" H 3400 2300 60  0001 C CNN "Mouser PN"
	1    3400 2300
	1    0    0    -1  
$EndComp
$Comp
L C C2
U 1 1 5FF7479D
P 2900 1550
F 0 "C2" H 2925 1650 50  0000 L CNN
F 1 "0.1uF" H 2925 1450 50  0000 L CNN
F 2 "Capacitors_SMD:C_0805_HandSoldering" H 2938 1400 50  0001 C CNN
F 3 "https://www.mouser.it/datasheet/2/212/KEM_C1002_X7R_SMD-1102033.pdf" H 2900 1550 50  0001 C CNN
F 4 "80-C0805C104K5RACLR" H 2900 1550 60  0001 C CNN "Mouser PN"
	1    2900 1550
	0    1    1    0   
$EndComp
$Comp
L C C7
U 1 1 5FF75B29
P 10200 1600
F 0 "C7" H 10225 1700 50  0000 L CNN
F 1 "10uF" H 10225 1500 50  0000 L CNN
F 2 "Capacitors_SMD:C_0805_HandSoldering" H 10238 1450 50  0001 C CNN
F 3 "https://www.mouser.it/datasheet/2/396/taiyo_yuden_07182019_MLCC_AECQ200_Grade_1_X7R_data-1622917.pdf" H 10200 1600 50  0001 C CNN
F 4 "963-JMF212AB7106KGHT" H 10200 1600 60  0001 C CNN "Mouser PN"
	1    10200 1600
	1    0    0    -1  
$EndComp
$Comp
L C C3
U 1 1 5FF76B41
P 7750 2050
F 0 "C3" H 7775 2150 50  0000 L CNN
F 1 "10uF" H 7775 1950 50  0000 L CNN
F 2 "Capacitors_SMD:C_0805_HandSoldering" H 7788 1900 50  0001 C CNN
F 3 "https://www.mouser.it/datasheet/2/396/taiyo_yuden_07182019_MLCC_AECQ200_Grade_1_X7R_data-1622917.pdf" H 7750 2050 50  0001 C CNN
F 4 "963-JMF212AB7106KGHT" H 7750 2050 60  0001 C CNN "Mouser PN"
	1    7750 2050
	1    0    0    -1  
$EndComp
$Comp
L C C5
U 1 1 5FF78047
P 8300 2500
F 0 "C5" H 8325 2600 50  0000 L CNN
F 1 "0.1uF" H 8325 2400 50  0000 L CNN
F 2 "Capacitors_SMD:C_0805_HandSoldering" H 8338 2350 50  0001 C CNN
F 3 "https://www.mouser.it/datasheet/2/212/KEM_C1002_X7R_SMD-1102033.pdf" H 8300 2500 50  0001 C CNN
F 4 "80-C0805C104K5RACLR" H 8300 2500 60  0001 C CNN "Mouser PN"
	1    8300 2500
	1    0    0    -1  
$EndComp
Wire Wire Line
	5000 6400 5000 6950
Connection ~ 4400 6400
Wire Wire Line
	4000 5450 4250 5450
Wire Wire Line
	4250 5450 4250 4450
Wire Wire Line
	4250 4450 4050 4450
Wire Wire Line
	5150 1300 5150 1650
Wire Wire Line
	5150 1650 6600 1650
Connection ~ 5900 1650
Wire Wire Line
	6600 1650 6600 1850
NoConn ~ 2700 2550
$Comp
L TEST W1
U 1 1 5FF99FCC
P 4650 1300
F 0 "W1" H 4650 1360 50  0000 C CNN
F 1 "TEST" H 4650 1230 50  0000 C CNN
F 2 "Pin_Headers:Pin_Header_Straight_1x02" H 4650 1300 50  0001 C CNN
F 3 "" H 4650 1300 50  0000 C CNN
	1    4650 1300
	1    0    0    -1  
$EndComp
Wire Wire Line
	4850 1300 5150 1300
$Comp
L CONN_01X02 P7
U 1 1 5FF9A923
P 3950 2300
F 0 "P7" H 3950 2450 50  0000 C CNN
F 1 "CONN_01X02" V 4050 2300 50  0000 C CNN
F 2 "Connect:AK300-2" H 3950 2300 50  0001 C CNN
F 3 "ebay anni fa, morsetto a vite 5mm pitch" H 3950 2300 50  0001 C CNN
	1    3950 2300
	1    0    0    -1  
$EndComp
Connection ~ 3750 2150
Wire Wire Line
	3750 2450 3750 2350
$Comp
L C C13
U 1 1 5FF9B0E8
P 8150 2050
F 0 "C13" H 8175 2150 50  0000 L CNN
F 1 "0,1uF" H 8175 1950 50  0000 L CNN
F 2 "Capacitors_SMD:C_0805_HandSoldering" H 8188 1900 50  0001 C CNN
F 3 "https://www.mouser.it/datasheet/2/212/KEM_C1002_X7R_SMD-1102033.pdf" H 8150 2050 50  0001 C CNN
F 4 "80-C0805C104K5RACLR" H 8150 2050 60  0001 C CNN "Mouser PN"
	1    8150 2050
	1    0    0    -1  
$EndComp
Wire Wire Line
	8150 1900 8150 1850
Connection ~ 8150 1850
Wire Wire Line
	8150 2200 8150 2300
Wire Wire Line
	8150 2300 7750 2300
Connection ~ 7750 2300
$Comp
L C C12
U 1 1 5FF9D3AC
P 1600 5450
F 0 "C12" H 1625 5550 50  0000 L CNN
F 1 "100nF" H 1625 5350 50  0000 L CNN
F 2 "Capacitors_SMD:C_0805_HandSoldering" H 1638 5300 50  0001 C CNN
F 3 "https://www.mouser.it/datasheet/2/212/KEM_C1002_X7R_SMD-1102033.pdf" H 1600 5450 50  0001 C CNN
F 4 "80-C0805C104K5RACLR" H 1600 5450 60  0001 C CNN "Mouser PN"
	1    1600 5450
	1    0    0    -1  
$EndComp
Wire Wire Line
	1600 5300 1600 5250
Connection ~ 1600 5250
Wire Wire Line
	1250 5650 1250 5550
Wire Wire Line
	1250 5600 1600 5600
Connection ~ 1250 5600
$EndSCHEMATC
