EESchema Schematic File Version 4
EELAYER 30 0
EELAYER END
$Descr A4 11693 8268
encoding utf-8
Sheet 1 1
Title "Scheda Supercondensatori"
Date "2021-01-14"
Rev "1"
Comp ""
Comment1 ""
Comment2 ""
Comment3 ""
Comment4 ""
$EndDescr
$Comp
L Scheda-rescue:ZSPM4523AA1W-ZSPM4523AA1W U1
U 1 1 5FE75B05
P 2400 2600
F 0 "U1" H 1999 3502 50  0000 L BNN
F 1 "ZSPM4523AA1W" H 2000 1499 50  0000 L BNN
F 2 "LIBRERIA:QFN65P400X400X100-17N" H 2400 2600 50  0001 L BNN
F 3 "https://www.mouser.it/datasheet/2/698/IDT_ZSPM4523_DST_20160129_1-1713184.pdf" H 2400 2600 50  0001 L BNN
F 4 "PQFN / 16 / 4X4MM# G1 - TAPE&REE" H 2400 2600 50  0001 L BNN "Packaging"
F 5 "964-ZSPM4523AA1W" H 2400 2600 50  0001 L BNN "Mouser PN"
F 6 "None" H 2400 2600 50  0001 L BNN "Field6"
F 7 "IDT, Integrated" H 2400 2600 50  0001 L BNN "Field7"
F 8 "None" H 2400 2600 50  0001 L BNN "Field8"
F 9 "https://snapeda.com/shop?store=Mouser&id=2656424" H 2400 2600 50  0001 L BNN "Field9"
	1    2400 2600
	1    0    0    -1  
$EndComp
$Comp
L Scheda-rescue:GND-power1 #PWR04
U 1 1 5FE75BCD
P 3000 3400
F 0 "#PWR04" H 3000 3150 50  0001 C CNN
F 1 "GND" H 3000 3250 50  0000 C CNN
F 2 "" H 3000 3400 50  0000 C CNN
F 3 "" H 3000 3400 50  0000 C CNN
	1    3000 3400
	1    0    0    -1  
$EndComp
$Comp
L Scheda-rescue:GND-power1 #PWR07
U 1 1 5FE75CB5
P 3700 2500
F 0 "#PWR07" H 3700 2250 50  0001 C CNN
F 1 "GND" H 3700 2350 50  0000 C CNN
F 2 "" H 3700 2500 50  0000 C CNN
F 3 "" H 3700 2500 50  0000 C CNN
	1    3700 2500
	1    0    0    -1  
$EndComp
$Comp
L Scheda-rescue:GND-power1 #PWR05
U 1 1 5FE75D25
P 3450 1600
F 0 "#PWR05" H 3450 1350 50  0001 C CNN
F 1 "GND" H 3450 1450 50  0000 C CNN
F 2 "" H 3450 1600 50  0000 C CNN
F 3 "" H 3450 1600 50  0000 C CNN
	1    3450 1600
	1    0    0    -1  
$EndComp
$Comp
L Scheda-rescue:INDUCTOR L1
U 1 1 5FE75DD3
P 1300 1950
F 0 "L1" V 1250 1950 50  0000 C CNN
F 1 "4,7uH" V 1400 1950 50  0000 C CNN
F 2 "Inductor_THT:L_Radial_D12.0mm_P6.00mm_MuRATA_1900R" H 1300 1950 50  0001 C CNN
F 3 "https://www.mouser.it/datasheet/2/597/RFC1010-463470.pdf" H 1300 1950 50  0001 C CNN
F 4 "994-RFC1010B-475KE" V 1300 1950 60  0001 C CNN "Mouser PN"
F 5 "https://product.tdk.com/info/en/catalog/datasheets/inductor_automotive_decoupling_klz2012-hr_en.pdf?ref_disty=mouser" V 1300 1950 60  0001 C CNN "Datasheet2"
F 6 "810-KLZ2012MHR4R7HTD" V 1300 1950 60  0001 C CNN "Mouser PN2"
	1    1300 1950
	1    0    0    -1  
$EndComp
$Comp
L Scheda-rescue:R R1
U 1 1 5FE75E62
P 3950 1250
F 0 "R1" H 4030 1250 50  0000 C CNN
F 1 "50m" V 3950 1250 50  0000 C CNN
F 2 "Resistor_SMD:R_0805_2012Metric_Pad1.15x1.40mm_HandSolder" V 3880 1250 50  0001 C CNN
F 3 "Da scegliere smd 0805" H 3950 1250 50  0001 C CNN
	1    3950 1250
	0    1    1    0   
$EndComp
Wire Wire Line
	3000 3300 3000 3400
Wire Wire Line
	3000 2100 3700 2100
Connection ~ 3700 2100
Wire Wire Line
	3000 1900 3000 1500
Wire Wire Line
	3000 1500 3050 1500
Wire Wire Line
	3350 1500 3450 1500
Wire Wire Line
	3450 1500 3450 1600
Wire Wire Line
	1300 2500 1300 2250
Wire Wire Line
	3600 2000 3000 2000
Wire Wire Line
	3600 1150 3600 1250
Wire Wire Line
	1300 1250 3600 1250
Wire Wire Line
	1300 1250 1300 1650
Connection ~ 3600 1250
Wire Wire Line
	4600 1250 4600 2750
Wire Wire Line
	4600 2750 3300 2750
Wire Wire Line
	3300 2750 3300 2200
Wire Wire Line
	3300 2200 3000 2200
Connection ~ 4350 1250
$Comp
L Scheda-rescue:GND-power1 #PWR08
U 1 1 5FE7603D
P 4350 1650
F 0 "#PWR08" H 4350 1400 50  0001 C CNN
F 1 "GND" H 4350 1500 50  0000 C CNN
F 2 "" H 4350 1650 50  0000 C CNN
F 3 "" H 4350 1650 50  0000 C CNN
	1    4350 1650
	1    0    0    -1  
$EndComp
Wire Wire Line
	4350 1650 4350 1550
Connection ~ 4600 1250
$Comp
L Scheda-rescue:CP C1
U 1 1 5FE7615F
P 6200 1850
F 0 "C1" H 6225 1950 50  0000 L CNN
F 1 "100F" H 6225 1750 50  0000 L CNN
F 2 "TerminalBlock:TerminalBlock_bornier-2_P5.08mm" H 6238 1700 50  0001 C CNN
F 3 "https://www.masters.com.pl/files/ds/samwha/samwha-green-cap.pdf" H 6200 1850 50  0001 C CNN
F 4 "DB 100F  2,7V" H 6200 1850 60  0001 C CNN "Specifiche"
	1    6200 1850
	1    0    0    -1  
$EndComp
Text Label 6200 1500 0    60   ~ 0
Vcap
Wire Wire Line
	6200 1500 6200 1600
$Comp
L Scheda-rescue:GND-power1 #PWR014
U 1 1 5FE761FC
P 6200 2200
F 0 "#PWR014" H 6200 1950 50  0001 C CNN
F 1 "GND" H 6200 2050 50  0000 C CNN
F 2 "" H 6200 2200 50  0000 C CNN
F 3 "" H 6200 2200 50  0000 C CNN
	1    6200 2200
	1    0    0    -1  
$EndComp
Wire Wire Line
	6200 2200 6200 2000
Text Label 4050 1950 0    60   ~ 0
Vin
Wire Wire Line
	4050 1950 4050 2100
Text Label 1800 3000 2    60   ~ 0
SDA
Text Label 1800 2700 2    60   ~ 0
SCL
$Comp
L Scheda-rescue:TPS61201DRCR-TPS61201DRCR U2
U 1 1 5FE7665D
P 9550 2000
F 0 "U2" H 9050 2739 50  0000 L BNN
F 1 "TPS61201DRCR" H 9050 1143 50  0000 L BNN
F 2 "LIBRERIA:16624-01YE" H 9550 2000 50  0001 L BNN
F 3 "https://www.ti.com/lit/ds/symlink/tps61201.pdf?HQS=TI-null-null-mousermode-df-pf-null-wwe&ts=1599638950722&ref_url=https%253A%252F%252Fwww.mouser.it%252F" H 9550 2000 60  0001 C CNN
F 4 "661-6941" H 9550 2000 60  0001 C CNN "RS PN"
	1    9550 2000
	1    0    0    -1  
$EndComp
Wire Wire Line
	10250 2500 10250 2600
$Comp
L Scheda-rescue:GND-power1 #PWR024
U 1 1 5FE7684B
P 10250 2600
F 0 "#PWR024" H 10250 2350 50  0001 C CNN
F 1 "GND" H 10250 2450 50  0000 C CNN
F 2 "" H 10250 2600 50  0000 C CNN
F 3 "" H 10250 2600 50  0000 C CNN
	1    10250 2600
	1    0    0    -1  
$EndComp
$Comp
L Scheda-rescue:VCC-power1 #PWR023
U 1 1 5FE7689E
P 10250 1400
F 0 "#PWR023" H 10250 1250 50  0001 C CNN
F 1 "VCC" H 10250 1550 50  0000 C CNN
F 2 "" H 10250 1400 50  0000 C CNN
F 3 "" H 10250 1400 50  0000 C CNN
	1    10250 1400
	1    0    0    -1  
$EndComp
Wire Wire Line
	8850 1700 8850 1800
Connection ~ 8850 1800
$Comp
L Scheda-rescue:INDUCTOR L2
U 1 1 5FE76A49
P 8450 1600
F 0 "L2" V 8400 1600 50  0000 C CNN
F 1 "2,2uH" V 8550 1600 50  0000 C CNN
F 2 "Inductor_SMD:L_12x12mm_H6mm" H 8450 1600 50  0001 C CNN
F 3 "https://docs.rs-online.com/56b6/0900766b8142f5f1.pdf" H 8450 1600 50  0001 C CNN
F 4 "874-9797" V 8450 1600 60  0001 C CNN "RS PN"
	1    8450 1600
	0    1    1    0   
$EndComp
Wire Wire Line
	8750 1600 8850 1600
Wire Wire Line
	6900 1800 7900 1800
Wire Wire Line
	7900 1200 7900 1600
Wire Wire Line
	7900 1600 8150 1600
Connection ~ 7900 1800
Connection ~ 7900 1600
$Comp
L Scheda-rescue:VCC-power1 #PWR019
U 1 1 5FE76B73
P 8700 1500
F 0 "#PWR019" H 8700 1350 50  0001 C CNN
F 1 "VCC" H 8700 1650 50  0000 C CNN
F 2 "" H 8700 1500 50  0000 C CNN
F 3 "" H 8700 1500 50  0000 C CNN
	1    8700 1500
	1    0    0    -1  
$EndComp
Wire Wire Line
	8700 1500 8850 1500
Wire Wire Line
	8850 1400 8850 1200
Wire Wire Line
	8850 1200 7900 1200
Wire Wire Line
	8050 1850 8050 1800
Connection ~ 8050 1800
$Comp
L Scheda-rescue:GND-power1 #PWR016
U 1 1 5FE76C82
P 8050 2300
F 0 "#PWR016" H 8050 2050 50  0001 C CNN
F 1 "GND" H 8050 2150 50  0000 C CNN
F 2 "" H 8050 2300 50  0000 C CNN
F 3 "" H 8050 2300 50  0000 C CNN
	1    8050 2300
	1    0    0    -1  
$EndComp
Wire Wire Line
	8050 2300 8050 2250
$Comp
L Scheda-rescue:GND-power1 #PWR025
U 1 1 5FE76D68
P 10650 1900
F 0 "#PWR025" H 10650 1650 50  0001 C CNN
F 1 "GND" H 10650 1750 50  0000 C CNN
F 2 "" H 10650 1900 50  0000 C CNN
F 3 "" H 10650 1900 50  0000 C CNN
	1    10650 1900
	1    0    0    -1  
$EndComp
Wire Wire Line
	10650 1900 10650 1700
Wire Wire Line
	8600 2300 8850 2300
$Comp
L Scheda-rescue:GND-power1 #PWR018
U 1 1 5FE76E9F
P 8600 2600
F 0 "#PWR018" H 8600 2350 50  0001 C CNN
F 1 "GND" H 8600 2450 50  0000 C CNN
F 2 "" H 8600 2600 50  0000 C CNN
F 3 "" H 8600 2600 50  0000 C CNN
	1    8600 2600
	1    0    0    -1  
$EndComp
$Comp
L Scheda-rescue:ATMEGA328P-A IC1
U 1 1 5FE77009
P 3000 6050
F 0 "IC1" H 2250 7300 50  0000 L BNN
F 1 "ATMEGA328P-A" H 3400 4650 50  0000 L BNN
F 2 "Package_QFP:LQFP-32_7x7mm_P0.8mm" H 3000 6050 50  0001 C CIN
F 3 "http://ww1.microchip.com/downloads/en/DeviceDoc/Atmel-7810-Automotive-Microcontrollers-ATmega328P_Datasheet.pdf" H 3000 6050 50  0001 C CNN
	1    3000 6050
	1    0    0    -1  
$EndComp
Wire Wire Line
	2100 7050 2100 7150
Connection ~ 2100 7150
$Comp
L Scheda-rescue:GND-power1 #PWR03
U 1 1 5FE77142
P 2100 7250
F 0 "#PWR03" H 2100 7000 50  0001 C CNN
F 1 "GND" H 2100 7100 50  0000 C CNN
F 2 "" H 2100 7250 50  0000 C CNN
F 3 "" H 2100 7250 50  0000 C CNN
	1    2100 7250
	1    0    0    -1  
$EndComp
Wire Wire Line
	2100 5250 2100 5050
Connection ~ 2100 5050
$Comp
L Scheda-rescue:VCC-power1 #PWR02
U 1 1 5FE771F4
P 2100 4950
F 0 "#PWR02" H 2100 4800 50  0001 C CNN
F 1 "VCC" H 2100 5100 50  0000 C CNN
F 2 "" H 2100 4950 50  0000 C CNN
F 3 "" H 2100 4950 50  0000 C CNN
	1    2100 4950
	1    0    0    -1  
$EndComp
Text Label 2100 6400 2    60   ~ 0
Vcap
Text Label 2100 6300 2    60   ~ 0
Isense
Text Label 3600 750  2    60   ~ 0
Isense
Text Label 4500 6200 0    60   ~ 0
SDA
Wire Wire Line
	4000 6200 4450 6200
$Comp
L Scheda-rescue:VCC-power1 #PWR09
U 1 1 5FE7769D
P 4450 5850
F 0 "#PWR09" H 4450 5700 50  0001 C CNN
F 1 "VCC" H 4450 6000 50  0000 C CNN
F 2 "" H 4450 5850 50  0000 C CNN
F 3 "" H 4450 5850 50  0000 C CNN
	1    4450 5850
	1    0    0    -1  
$EndComp
$Comp
L Scheda-rescue:R R3
U 1 1 5FE776DB
P 4450 6000
F 0 "R3" V 4530 6000 50  0000 C CNN
F 1 "10k" V 4450 6000 50  0000 C CNN
F 2 "Resistor_SMD:R_0805_2012Metric_Pad1.15x1.40mm_HandSolder" V 4380 6000 50  0001 C CNN
F 3 "https://www.mouser.it/datasheet/2/54/chp-a-1858677.pdf" H 4450 6000 50  0001 C CNN
F 4 "652-CHP0805AFX1002EL" V 4450 6000 60  0001 C CNN "Mouser PN"
	1    4450 6000
	1    0    0    -1  
$EndComp
Wire Wire Line
	4450 6150 4450 6200
Connection ~ 4450 6200
Text Label 5000 6300 0    60   ~ 0
SCL
Wire Wire Line
	5000 6300 4900 6300
$Comp
L Scheda-rescue:R R5
U 1 1 5FE777F1
P 4900 6050
F 0 "R5" V 4980 6050 50  0000 C CNN
F 1 "10k" V 4900 6050 50  0000 C CNN
F 2 "Resistor_SMD:R_0805_2012Metric_Pad1.15x1.40mm_HandSolder" V 4830 6050 50  0001 C CNN
F 3 "https://www.mouser.it/datasheet/2/54/chp-a-1858677.pdf" H 4900 6050 50  0001 C CNN
F 4 "652-CHP0805AFX1002EL" V 4900 6050 60  0001 C CNN "Mouser PN"
	1    4900 6050
	1    0    0    -1  
$EndComp
$Comp
L Scheda-rescue:VCC-power1 #PWR011
U 1 1 5FE77836
P 4900 5900
F 0 "#PWR011" H 4900 5750 50  0001 C CNN
F 1 "VCC" H 4900 6050 50  0000 C CNN
F 2 "" H 4900 5900 50  0000 C CNN
F 3 "" H 4900 5900 50  0000 C CNN
	1    4900 5900
	1    0    0    -1  
$EndComp
Wire Wire Line
	4900 6200 4900 6300
Connection ~ 4900 6300
Text Label 4000 5800 0    60   ~ 0
A0
Text Label 4000 5900 0    60   ~ 0
A1
Text Label 4000 6000 0    60   ~ 0
A2
Text Label 4000 6100 0    60   ~ 0
A3
Text Label 4000 6650 0    60   ~ 0
TX
Text Label 4000 6550 0    60   ~ 0
RX
Text Label 4000 6750 0    60   ~ 0
D2
Text Label 4000 6850 0    60   ~ 0
D3
Text Label 4000 6950 0    60   ~ 0
D4
Text Label 4000 7050 0    60   ~ 0
D5
Text Label 4000 7150 0    60   ~ 0
D6
Text Label 4000 7250 0    60   ~ 0
D7
Text Label 4000 4950 0    60   ~ 0
D8
Text Label 4000 5050 0    60   ~ 0
D9
Text Label 4000 5150 0    60   ~ 0
D10
Text Label 4000 5250 0    60   ~ 0
D11
Text Label 4000 5350 0    60   ~ 0
D12
Text Label 4000 5450 0    60   ~ 0
D13
$Comp
L Scheda-rescue:Crystal Y1
U 1 1 5FE77E89
P 4700 5100
F 0 "Y1" H 4700 5250 50  0000 C CNN
F 1 "8MHz" H 4700 4950 50  0000 C CNN
F 2 "Crystal:Resonator-2Pin_W10.0mm_H5.0mm" H 4700 5100 50  0001 C CNN
F 3 "https://www.mouser.it/datasheet/2/96/008-0309-0-786275.pdf" H 4700 5100 50  0001 C CNN
F 4 "774-ATS08A" H 4700 5100 60  0001 C CNN "Mouser PN"
	1    4700 5100
	1    0    0    -1  
$EndComp
Wire Wire Line
	4400 5550 4000 5550
Wire Wire Line
	4400 5000 4400 5100
Wire Wire Line
	4400 5100 4550 5100
Wire Wire Line
	5000 5650 4000 5650
Wire Wire Line
	5000 5000 5000 5100
Wire Wire Line
	5000 5100 4850 5100
$Comp
L Scheda-rescue:GND-power1 #PWR012
U 1 1 5FE78054
P 5350 4600
F 0 "#PWR012" H 5350 4350 50  0001 C CNN
F 1 "GND" H 5350 4450 50  0000 C CNN
F 2 "" H 5350 4600 50  0000 C CNN
F 3 "" H 5350 4600 50  0000 C CNN
	1    5350 4600
	1    0    0    -1  
$EndComp
Wire Wire Line
	4400 4700 5000 4700
Wire Wire Line
	5000 4700 5000 4550
Wire Wire Line
	5000 4550 5350 4550
Wire Wire Line
	5350 4550 5350 4600
Connection ~ 4400 5100
Connection ~ 5000 5100
Text Label 2100 5550 2    60   ~ 0
AREF
$Comp
L Scheda-rescue:VCC-power1 #PWR010
U 1 1 5FE784EA
P 4700 6700
F 0 "#PWR010" H 4700 6550 50  0001 C CNN
F 1 "VCC" H 4700 6850 50  0000 C CNN
F 2 "" H 4700 6700 50  0000 C CNN
F 3 "" H 4700 6700 50  0000 C CNN
	1    4700 6700
	1    0    0    -1  
$EndComp
$Comp
L Scheda-rescue:R R4
U 1 1 5FE78524
P 4550 6700
F 0 "R4" V 4630 6700 50  0000 C CNN
F 1 "10k" V 4550 6700 50  0000 C CNN
F 2 "Resistor_SMD:R_0805_2012Metric_Pad1.15x1.40mm_HandSolder" V 4480 6700 50  0001 C CNN
F 3 "https://www.mouser.it/datasheet/2/54/chp-a-1858677.pdf" H 4550 6700 50  0001 C CNN
F 4 "652-CHP0805AFX1002EL" V 4550 6700 60  0001 C CNN "Mouser PN"
	1    4550 6700
	0    1    1    0   
$EndComp
Wire Wire Line
	4400 6400 4400 6700
Wire Wire Line
	4000 6400 4400 6400
Text Label 5000 6450 0    60   ~ 0
RST
$Comp
L Scheda-rescue:CONN_01X06 P2
U 1 1 5FE786F9
P 7150 5250
F 0 "P2" H 7150 5600 50  0000 C CNN
F 1 "FTDI" V 7250 5250 50  0000 C CNN
F 2 "Connector_PinHeader_2.54mm:PinHeader_1x06_P2.54mm_Vertical" H 7150 5250 50  0001 C CNN
F 3 "" H 7150 5250 50  0000 C CNN
	1    7150 5250
	-1   0    0    1   
$EndComp
Wire Wire Line
	7350 5000 7350 5100
$Comp
L Scheda-rescue:GND-power1 #PWR017
U 1 1 5FE78964
P 7750 5000
F 0 "#PWR017" H 7750 4750 50  0001 C CNN
F 1 "GND" H 7750 4850 50  0000 C CNN
F 2 "" H 7750 5000 50  0000 C CNN
F 3 "" H 7750 5000 50  0000 C CNN
	1    7750 5000
	1    0    0    -1  
$EndComp
Wire Wire Line
	7350 5000 7750 5000
$Comp
L Scheda-rescue:VCC-power1 #PWR015
U 1 1 5FE78A88
P 7450 5200
F 0 "#PWR015" H 7450 5050 50  0001 C CNN
F 1 "VCC" H 7450 5350 50  0000 C CNN
F 2 "" H 7450 5200 50  0000 C CNN
F 3 "" H 7450 5200 50  0000 C CNN
	1    7450 5200
	1    0    0    -1  
$EndComp
Wire Wire Line
	7350 5200 7450 5200
Text Label 7350 5300 0    60   ~ 0
RX
Text Label 7350 5400 0    60   ~ 0
TX
Text Label 7650 5500 0    60   ~ 0
RST
$Comp
L Scheda-rescue:CONN_01X02 P5
U 1 1 5FE78F1D
P 7200 4500
F 0 "P5" H 7200 4650 50  0000 C CNN
F 1 "I2C" V 7300 4500 50  0000 C CNN
F 2 "Connector_PinSocket_2.54mm:PinSocket_1x02_P2.54mm_Vertical" H 7200 4500 50  0001 C CNN
F 3 "" H 7200 4500 50  0000 C CNN
	1    7200 4500
	-1   0    0    1   
$EndComp
Text Label 7400 4450 0    60   ~ 0
SDA
Text Label 7400 4550 0    60   ~ 0
SCL
Text Label 8400 4450 0    60   ~ 0
A0
Text Label 8400 4550 0    60   ~ 0
A1
Text Label 8400 4650 0    60   ~ 0
A2
Text Label 8400 4750 0    60   ~ 0
A3
$Comp
L Scheda-rescue:CONN_01X06 P4
U 1 1 5FE793E6
P 9200 4650
F 0 "P4" H 9200 5000 50  0000 C CNN
F 1 "DIGITAL1" V 9300 4650 50  0000 C CNN
F 2 "Connector_PinSocket_2.54mm:PinSocket_1x06_P2.54mm_Vertical" H 9200 4650 50  0001 C CNN
F 3 "" H 9200 4650 50  0000 C CNN
	1    9200 4650
	-1   0    0    1   
$EndComp
Text Label 9400 4400 0    60   ~ 0
D2
Text Label 9400 4500 0    60   ~ 0
D3
Text Label 9400 4600 0    60   ~ 0
D4
Text Label 9400 4700 0    60   ~ 0
D5
Text Label 9400 4800 0    60   ~ 0
D6
Text Label 9400 4900 0    60   ~ 0
D7
$Comp
L Scheda-rescue:CONN_01X06 P6
U 1 1 5FE79473
P 10150 4550
F 0 "P6" H 10150 4900 50  0000 C CNN
F 1 "DIGITAL2" V 10250 4550 50  0000 C CNN
F 2 "Connector_PinSocket_2.54mm:PinSocket_1x06_P2.54mm_Vertical" H 10150 4550 50  0001 C CNN
F 3 "" H 10150 4550 50  0000 C CNN
	1    10150 4550
	-1   0    0    1   
$EndComp
Text Label 10350 4300 0    60   ~ 0
D8
Text Label 10350 4400 0    60   ~ 0
D9
Text Label 10350 4500 0    60   ~ 0
D10
Text Label 10350 4600 0    60   ~ 0
D11
Text Label 10350 4700 0    60   ~ 0
D12
Text Label 10350 4800 0    60   ~ 0
D13
$Comp
L Scheda-rescue:LED D1
U 1 1 5FE79543
P 3850 4450
F 0 "D1" H 3850 4550 50  0000 C CNN
F 1 "LED" H 3850 4350 50  0000 C CNN
F 2 "LED_SMD:LED_0805_2012Metric_Pad1.15x1.40mm_HandSolder" H 3850 4450 50  0001 C CNN
F 3 "Da scegliere smd 0805 5v" H 3850 4450 50  0001 C CNN
	1    3850 4450
	1    0    0    -1  
$EndComp
$Comp
L Scheda-rescue:R R2
U 1 1 5FE7959C
P 3500 4450
F 0 "R2" V 3580 4450 50  0000 C CNN
F 1 "220" V 3500 4450 50  0000 C CNN
F 2 "Resistor_SMD:R_0805_2012Metric_Pad1.15x1.40mm_HandSolder" V 3430 4450 50  0001 C CNN
F 3 "https://www.mouser.it/datasheet/2/427/crcwce3-1762584.pdf" H 3500 4450 50  0001 C CNN
F 4 "71-CRCW0805220RFKEBC" V 3500 4450 60  0001 C CNN "Mouser PN"
	1    3500 4450
	0    1    1    0   
$EndComp
$Comp
L Scheda-rescue:GND-power1 #PWR06
U 1 1 5FE79609
P 3300 4450
F 0 "#PWR06" H 3300 4200 50  0001 C CNN
F 1 "GND" H 3300 4300 50  0000 C CNN
F 2 "" H 3300 4450 50  0000 C CNN
F 3 "" H 3300 4450 50  0000 C CNN
	1    3300 4450
	0    1    1    0   
$EndComp
Wire Wire Line
	3300 4450 3350 4450
$Comp
L Scheda-rescue:CONN_01X05 P1
U 1 1 5FE79923
P 8200 4650
F 0 "P1" H 8200 4950 50  0000 C CNN
F 1 "ANALOG" V 8300 4650 50  0000 C CNN
F 2 "Connector_PinSocket_2.54mm:PinSocket_1x05_P2.54mm_Vertical" H 8200 4650 50  0001 C CNN
F 3 "ebay anni fa, 2,5mm pitch" H 8200 4650 50  0001 C CNN
	1    8200 4650
	-1   0    0    1   
$EndComp
Text Label 8400 4850 0    60   ~ 0
AREF
$Comp
L Scheda-rescue:CONN_01X04 P3
U 1 1 5FE79B15
P 8750 5550
F 0 "P3" H 8750 5800 50  0000 C CNN
F 1 "POWER" V 8850 5550 50  0000 C CNN
F 2 "Connector_PinSocket_2.54mm:PinSocket_1x04_P2.54mm_Vertical" H 8750 5550 50  0001 C CNN
F 3 "" H 8750 5550 50  0000 C CNN
	1    8750 5550
	-1   0    0    1   
$EndComp
Text Label 8950 5700 0    60   ~ 0
Vcap
$Comp
L Scheda-rescue:VCC-power1 #PWR021
U 1 1 5FE79D18
P 8950 5400
F 0 "#PWR021" H 8950 5250 50  0001 C CNN
F 1 "VCC" H 8950 5550 50  0000 C CNN
F 2 "" H 8950 5400 50  0000 C CNN
F 3 "" H 8950 5400 50  0000 C CNN
	1    8950 5400
	1    0    0    -1  
$EndComp
$Comp
L Scheda-rescue:GND-power1 #PWR022
U 1 1 5FE79DCC
P 9300 5600
F 0 "#PWR022" H 9300 5350 50  0001 C CNN
F 1 "GND" H 9300 5450 50  0000 C CNN
F 2 "" H 9300 5600 50  0000 C CNN
F 3 "" H 9300 5600 50  0000 C CNN
	1    9300 5600
	1    0    0    -1  
$EndComp
$Comp
L Scheda-rescue:GND-power1 #PWR020
U 1 1 5FE8B077
P 8850 2100
F 0 "#PWR020" H 8850 1850 50  0001 C CNN
F 1 "GND" H 8850 1950 50  0000 C CNN
F 2 "" H 8850 2100 50  0000 C CNN
F 3 "" H 8850 2100 50  0000 C CNN
	1    8850 2100
	1    0    0    -1  
$EndComp
Wire Wire Line
	4100 1250 4350 1250
Wire Wire Line
	8950 5500 8950 5600
Wire Wire Line
	8950 5600 9300 5600
$Comp
L Scheda-rescue:C C11
U 1 1 5FF5AAD8
P 7500 5500
F 0 "C11" H 7525 5600 50  0000 L CNN
F 1 "100nF" H 7525 5400 50  0000 L CNN
F 2 "Capacitor_SMD:C_0805_2012Metric_Pad1.15x1.40mm_HandSolder" H 7538 5350 50  0001 C CNN
F 3 "https://www.mouser.it/datasheet/2/212/KEM_C1002_X7R_SMD-1102033.pdf" H 7500 5500 50  0001 C CNN
F 4 "80-C0805C104K5RACLR" H 7500 5500 60  0001 C CNN "Mouser PN"
	1    7500 5500
	0    1    1    0   
$EndComp
$Comp
L Scheda-rescue:CP C10
U 1 1 5FF5AFA6
P 1250 5400
F 0 "C10" H 1275 5500 50  0000 L CNN
F 1 "4,7uF" H 1275 5300 50  0000 L CNN
F 2 "Capacitor_SMD:CP_Elec_5x5.7" H 1288 5250 50  0001 C CNN
F 3 "https://www.mouser.it/datasheet/2/212/KEM_A4049_EDH-1102962.pdf" H 1250 5400 50  0001 C CNN
F 4 "80-EDH475M035A9BAA" H 1250 5400 60  0001 C CNN "Mouser PN"
	1    1250 5400
	1    0    0    -1  
$EndComp
Wire Wire Line
	1250 5250 1600 5250
$Comp
L Scheda-rescue:GND-power1 #PWR01
U 1 1 5FF5B0C8
P 1250 5650
F 0 "#PWR01" H 1250 5400 50  0001 C CNN
F 1 "GND" H 1250 5500 50  0000 C CNN
F 2 "" H 1250 5650 50  0000 C CNN
F 3 "" H 1250 5650 50  0000 C CNN
	1    1250 5650
	1    0    0    -1  
$EndComp
$Comp
L Scheda-rescue:SW_PUSH SW1
U 1 1 5FF5C610
P 5300 6950
F 0 "SW1" H 5450 7060 50  0000 C CNN
F 1 "RST" H 5300 6870 50  0000 C CNN
F 2 "Button_Switch_THT:SW_PUSH_6mm_H4.3mm" H 5300 6950 50  0001 C CNN
F 3 "Tulli elettronica, bottoncino comune" H 5300 6950 50  0001 C CNN
	1    5300 6950
	1    0    0    -1  
$EndComp
$Comp
L Scheda-rescue:GND-power1 #PWR013
U 1 1 5FF5C7EF
P 5600 6950
F 0 "#PWR013" H 5600 6700 50  0001 C CNN
F 1 "GND" H 5600 6800 50  0000 C CNN
F 2 "" H 5600 6950 50  0000 C CNN
F 3 "" H 5600 6950 50  0000 C CNN
	1    5600 6950
	1    0    0    -1  
$EndComp
$Comp
L Scheda-rescue:C C8
U 1 1 5FF72F2D
P 4400 4850
F 0 "C8" H 4425 4950 50  0000 L CNN
F 1 "20pF" H 4425 4750 50  0000 L CNN
F 2 "Capacitor_SMD:C_0805_2012Metric_Pad1.15x1.40mm_HandSolder" H 4438 4700 50  0001 C CNN
F 3 "https://www.mouser.it/datasheet/2/212/KEM_C1007_X8R_ULTRA_150C_SMD-1102703.pdf" H 4400 4850 50  0001 C CNN
F 4 "80-C0805C200K5HAUTO" H 4400 4850 60  0001 C CNN "Mouser PN"
	1    4400 4850
	1    0    0    -1  
$EndComp
$Comp
L Scheda-rescue:C C9
U 1 1 5FF7317C
P 5000 4850
F 0 "C9" H 5025 4950 50  0000 L CNN
F 1 "20pF" H 5025 4750 50  0000 L CNN
F 2 "Capacitor_SMD:C_0805_2012Metric_Pad1.15x1.40mm_HandSolder" H 5038 4700 50  0001 C CNN
F 3 "https://www.mouser.it/datasheet/2/212/KEM_C1007_X8R_ULTRA_150C_SMD-1102703.pdf" H 5000 4850 50  0001 C CNN
F 4 "80-C0805C200K5HAUTO" H 5000 4850 60  0001 C CNN "Mouser PN"
	1    5000 4850
	1    0    0    -1  
$EndComp
$Comp
L Scheda-rescue:C C6
U 1 1 5FF7350A
P 4350 1400
F 0 "C6" H 4375 1500 50  0000 L CNN
F 1 "4,7uF" H 4375 1300 50  0000 L CNN
F 2 "Capacitor_SMD:C_0805_2012Metric_Pad1.15x1.40mm_HandSolder" H 4388 1250 50  0001 C CNN
F 3 "https://www.mouser.it/datasheet/2/396/Taiyo_Yuden_JMK212B7475KGHT_SS-1841489.pdf" H 4350 1400 50  0001 C CNN
F 4 "963-JMK212B7475KGHT" H 4350 1400 60  0001 C CNN "Mouser PN"
	1    4350 1400
	1    0    0    -1  
$EndComp
$Comp
L Scheda-rescue:C C4
U 1 1 5FF73821
P 3700 2250
F 0 "C4" H 3725 2350 50  0000 L CNN
F 1 "10uF" H 3725 2150 50  0000 L CNN
F 2 "Capacitor_SMD:C_0805_2012Metric_Pad1.15x1.40mm_HandSolder" H 3738 2100 50  0001 C CNN
F 3 "https://www.mouser.it/datasheet/2/396/taiyo_yuden_07182019_MLCC_AECQ200_Grade_1_X7R_data-1622917.pdf" H 3700 2250 50  0001 C CNN
F 4 "963-JMF212AB7106KGHT" H 3700 2250 60  0001 C CNN "Mouser PN"
	1    3700 2250
	1    0    0    -1  
$EndComp
$Comp
L Scheda-rescue:C C2
U 1 1 5FF7479D
P 3200 1500
F 0 "C2" H 3225 1600 50  0000 L CNN
F 1 "0.1uF" H 3225 1400 50  0000 L CNN
F 2 "Capacitor_SMD:C_0805_2012Metric_Pad1.15x1.40mm_HandSolder" H 3238 1350 50  0001 C CNN
F 3 "https://www.mouser.it/datasheet/2/212/KEM_C1002_X7R_SMD-1102033.pdf" H 3200 1500 50  0001 C CNN
F 4 "80-C0805C104K5RACLR" H 3200 1500 60  0001 C CNN "Mouser PN"
	1    3200 1500
	0    1    1    0   
$EndComp
$Comp
L Scheda-rescue:C C7
U 1 1 5FF75B29
P 10650 1550
F 0 "C7" H 10675 1650 50  0000 L CNN
F 1 "10uF" H 10675 1450 50  0000 L CNN
F 2 "Capacitor_SMD:C_0805_2012Metric_Pad1.15x1.40mm_HandSolder" H 10688 1400 50  0001 C CNN
F 3 "https://www.mouser.it/datasheet/2/396/taiyo_yuden_07182019_MLCC_AECQ200_Grade_1_X7R_data-1622917.pdf" H 10650 1550 50  0001 C CNN
F 4 "963-JMF212AB7106KGHT" H 10650 1550 60  0001 C CNN "Mouser PN"
	1    10650 1550
	1    0    0    -1  
$EndComp
$Comp
L Scheda-rescue:C C3
U 1 1 5FF76B41
P 8050 2000
F 0 "C3" H 8075 2100 50  0000 L CNN
F 1 "10uF" H 8075 1900 50  0000 L CNN
F 2 "Capacitor_SMD:C_0805_2012Metric_Pad1.15x1.40mm_HandSolder" H 8088 1850 50  0001 C CNN
F 3 "https://www.mouser.it/datasheet/2/396/taiyo_yuden_07182019_MLCC_AECQ200_Grade_1_X7R_data-1622917.pdf" H 8050 2000 50  0001 C CNN
F 4 "963-JMF212AB7106KGHT" H 8050 2000 60  0001 C CNN "Mouser PN"
	1    8050 2000
	1    0    0    -1  
$EndComp
$Comp
L Scheda-rescue:C C5
U 1 1 5FF78047
P 8600 2450
F 0 "C5" H 8625 2550 50  0000 L CNN
F 1 "0.1uF" H 8625 2350 50  0000 L CNN
F 2 "Capacitor_SMD:C_0805_2012Metric_Pad1.15x1.40mm_HandSolder" H 8638 2300 50  0001 C CNN
F 3 "https://www.mouser.it/datasheet/2/212/KEM_C1002_X7R_SMD-1102033.pdf" H 8600 2450 50  0001 C CNN
F 4 "80-C0805C104K5RACLR" H 8600 2450 60  0001 C CNN "Mouser PN"
	1    8600 2450
	1    0    0    -1  
$EndComp
Wire Wire Line
	5000 6400 5000 6950
Connection ~ 4400 6400
Wire Wire Line
	4000 5450 4250 5450
Wire Wire Line
	4250 5450 4250 4450
Wire Wire Line
	4250 4450 4050 4450
Wire Wire Line
	5450 1250 5450 1600
Wire Wire Line
	5450 1600 6200 1600
Connection ~ 6200 1600
Wire Wire Line
	6900 1600 6900 1800
NoConn ~ 3000 2500
$Comp
L Scheda-rescue:TEST W1
U 1 1 5FF99FCC
P 4950 1250
F 0 "W1" H 4950 1310 50  0000 C CNN
F 1 "TEST" H 4950 1180 50  0000 C CNN
F 2 "Connector_PinHeader_2.54mm:PinHeader_1x02_P2.54mm_Vertical" H 4950 1250 50  0001 C CNN
F 3 "" H 4950 1250 50  0000 C CNN
	1    4950 1250
	1    0    0    -1  
$EndComp
Wire Wire Line
	5150 1250 5450 1250
$Comp
L Scheda-rescue:CONN_01X02 P7
U 1 1 5FF9A923
P 4250 2250
F 0 "P7" H 4250 2400 50  0000 C CNN
F 1 "SOLARPANEL" V 4350 2250 50  0000 C CNN
F 2 "TerminalBlock:TerminalBlock_bornier-2_P5.08mm" H 4250 2250 50  0001 C CNN
F 3 "ebay anni fa, morsetto a vite 5mm pitch" H 4250 2250 50  0001 C CNN
	1    4250 2250
	1    0    0    -1  
$EndComp
Connection ~ 4050 2100
$Comp
L Scheda-rescue:C C13
U 1 1 5FF9B0E8
P 8450 2000
F 0 "C13" H 8475 2100 50  0000 L CNN
F 1 "0,1uF" H 8475 1900 50  0000 L CNN
F 2 "Capacitor_SMD:C_0805_2012Metric_Pad1.15x1.40mm_HandSolder" H 8488 1850 50  0001 C CNN
F 3 "https://www.mouser.it/datasheet/2/212/KEM_C1002_X7R_SMD-1102033.pdf" H 8450 2000 50  0001 C CNN
F 4 "80-C0805C104K5RACLR" H 8450 2000 60  0001 C CNN "Mouser PN"
	1    8450 2000
	1    0    0    -1  
$EndComp
Wire Wire Line
	8450 1850 8450 1800
Connection ~ 8450 1800
Wire Wire Line
	8450 2150 8450 2250
Wire Wire Line
	8450 2250 8050 2250
Connection ~ 8050 2250
$Comp
L Scheda-rescue:C C12
U 1 1 5FF9D3AC
P 1600 5450
F 0 "C12" H 1625 5550 50  0000 L CNN
F 1 "100nF" H 1625 5350 50  0000 L CNN
F 2 "Capacitor_SMD:C_0805_2012Metric_Pad1.15x1.40mm_HandSolder" H 1638 5300 50  0001 C CNN
F 3 "https://www.mouser.it/datasheet/2/212/KEM_C1002_X7R_SMD-1102033.pdf" H 1600 5450 50  0001 C CNN
F 4 "80-C0805C104K5RACLR" H 1600 5450 60  0001 C CNN "Mouser PN"
	1    1600 5450
	1    0    0    -1  
$EndComp
Wire Wire Line
	1600 5300 1600 5250
Connection ~ 1600 5250
Wire Wire Line
	1250 5650 1250 5600
Wire Wire Line
	1250 5600 1600 5600
Connection ~ 1250 5600
Wire Wire Line
	3600 1250 3600 2000
Wire Wire Line
	3600 1250 3800 1250
Wire Wire Line
	4350 1250 4600 1250
Wire Wire Line
	4600 1250 4750 1250
Wire Wire Line
	8850 1800 8850 1900
Wire Wire Line
	7900 1800 8050 1800
Wire Wire Line
	7900 1600 7900 1800
Wire Wire Line
	8050 1800 8450 1800
Wire Wire Line
	2100 7150 2100 7250
Wire Wire Line
	2100 5050 2100 4950
Wire Wire Line
	4450 6200 4500 6200
Wire Wire Line
	4900 6300 4000 6300
Wire Wire Line
	4400 5100 4400 5550
Wire Wire Line
	5000 5100 5000 5650
Wire Wire Line
	4400 6400 5000 6400
Wire Wire Line
	6200 1600 6200 1700
Wire Wire Line
	6200 1600 6900 1600
Wire Wire Line
	4050 2100 4050 2200
Wire Wire Line
	8450 1800 8850 1800
Wire Wire Line
	8050 2250 8050 2150
Wire Wire Line
	1600 5250 2100 5250
Wire Wire Line
	1250 5600 1250 5550
$Comp
L Mechanical:MountingHole_Pad H1
U 1 1 5FFA015C
P 5200 3150
F 0 "H1" H 5300 3201 50  0000 L CNN
F 1 "MountingHole_Pad" H 5300 3110 50  0000 L CNN
F 2 "MountingHole:MountingHole_3.2mm_M3" H 5200 3150 50  0001 C CNN
F 3 "~" H 5200 3150 50  0001 C CNN
	1    5200 3150
	1    0    0    -1  
$EndComp
$Comp
L power:GND #PWR026
U 1 1 5FFA022D
P 5200 3250
F 0 "#PWR026" H 5200 3000 50  0001 C CNN
F 1 "GND" H 5205 3077 50  0000 C CNN
F 2 "" H 5200 3250 50  0001 C CNN
F 3 "" H 5200 3250 50  0001 C CNN
	1    5200 3250
	1    0    0    -1  
$EndComp
Connection ~ 3000 3400
Connection ~ 10250 2600
Connection ~ 7350 5000
Connection ~ 8950 5600
Wire Wire Line
	1300 2500 1800 2500
Wire Wire Line
	10250 1400 10650 1400
Connection ~ 10250 1400
Wire Wire Line
	3700 2400 3700 2500
Wire Wire Line
	3700 2500 4050 2500
Connection ~ 3700 2500
Wire Wire Line
	4050 2300 4050 2500
Wire Wire Line
	3700 2100 4050 2100
$Comp
L Mechanical:MountingHole_Pad H2
U 1 1 6001DF63
P 6300 3150
F 0 "H2" H 6400 3201 50  0000 L CNN
F 1 "MountingHole_Pad" H 6400 3110 50  0000 L CNN
F 2 "MountingHole:MountingHole_3.2mm_M3" H 6300 3150 50  0001 C CNN
F 3 "~" H 6300 3150 50  0001 C CNN
	1    6300 3150
	1    0    0    -1  
$EndComp
$Comp
L power:GND #PWR027
U 1 1 6001DF69
P 6300 3250
F 0 "#PWR027" H 6300 3000 50  0001 C CNN
F 1 "GND" H 6305 3077 50  0000 C CNN
F 2 "" H 6300 3250 50  0001 C CNN
F 3 "" H 6300 3250 50  0001 C CNN
	1    6300 3250
	1    0    0    -1  
$EndComp
NoConn ~ 1800 2600
$Comp
L Scheda-rescue:TEST W2
U 1 1 5FFC9C69
P 3600 950
F 0 "W2" H 3600 1010 50  0000 C CNN
F 1 "TEST" H 3600 880 50  0000 C CNN
F 2 "Connector_PinHeader_2.54mm:PinHeader_1x02_P2.54mm_Vertical" H 3600 950 50  0001 C CNN
F 3 "" H 3600 950 50  0000 C CNN
	1    3600 950 
	0    -1   -1   0   
$EndComp
$EndSCHEMATC
