EESchema Schematic File Version 2
LIBS:Scheda-rescue
LIBS:power
LIBS:device
LIBS:transistors
LIBS:conn
LIBS:linear
LIBS:regul
LIBS:74xx
LIBS:cmos4000
LIBS:adc-dac
LIBS:memory
LIBS:xilinx
LIBS:microcontrollers
LIBS:dsp
LIBS:microchip
LIBS:analog_switches
LIBS:motorola
LIBS:texas
LIBS:intel
LIBS:audio
LIBS:interface
LIBS:digital-audio
LIBS:philips
LIBS:display
LIBS:cypress
LIBS:siliconi
LIBS:opto
LIBS:atmel
LIBS:contrib
LIBS:valves
LIBS:ALD810017SCLI
LIBS:ZSPM4523AA1W
LIBS:ALD910017
LIBS:MIC5205-5.0YM5
LIBS:ARDUINO_PRO_MINI
LIBS:Scheda-cache
EELAYER 25 0
EELAYER END
$Descr A4 11693 8268
encoding utf-8
Sheet 1 1
Title "Scheda SuperCap"
Date "2020-07-26"
Rev "0"
Comp ""
Comment1 ""
Comment2 ""
Comment3 ""
Comment4 ""
$EndDescr
NoConn ~ 7550 7450
$Comp
L CP C4
U 1 1 5F00A204
P 8600 2250
F 0 "C4" H 8625 2350 50  0000 L CNN
F 1 "100F" H 8625 2150 50  0000 L CNN
F 2 "Resistors_ThroughHole:Resistor_Vertical_RM5mm" H 8638 2100 50  0001 C CNN
F 3 "" H 8600 2250 50  0000 C CNN
	1    8600 2250
	1    0    0    -1  
$EndComp
$Comp
L CP C5
U 1 1 5F00A25F
P 8600 3550
F 0 "C5" H 8625 3650 50  0000 L CNN
F 1 "100F" H 8625 3450 50  0000 L CNN
F 2 "Resistors_ThroughHole:Resistor_Vertical_RM5mm" H 8638 3400 50  0001 C CNN
F 3 "" H 8600 3550 50  0000 C CNN
	1    8600 3550
	1    0    0    -1  
$EndComp
$Comp
L GNDREF #PWR01
U 1 1 5F00A314
P 9500 3800
F 0 "#PWR01" H 9500 3550 50  0001 C CNN
F 1 "GNDREF" H 9500 3650 50  0000 C CNN
F 2 "" H 9500 3800 50  0000 C CNN
F 3 "" H 9500 3800 50  0000 C CNN
	1    9500 3800
	1    0    0    -1  
$EndComp
$Comp
L GNDREF #PWR02
U 1 1 5F1884E3
P 2500 6950
F 0 "#PWR02" H 2500 6700 50  0001 C CNN
F 1 "GNDREF" H 2500 6800 50  0000 C CNN
F 2 "" H 2500 6950 50  0000 C CNN
F 3 "" H 2500 6950 50  0000 C CNN
	1    2500 6950
	1    0    0    -1  
$EndComp
$Comp
L VCC #PWR03
U 1 1 5F18858D
P 2500 4400
F 0 "#PWR03" H 2500 4250 50  0001 C CNN
F 1 "VCC" H 2500 4550 50  0000 C CNN
F 2 "" H 2500 4400 50  0000 C CNN
F 3 "" H 2500 4400 50  0000 C CNN
	1    2500 4400
	1    0    0    -1  
$EndComp
$Comp
L C_Small C7
U 1 1 5F188A04
P 5400 5250
F 0 "C7" H 5410 5320 50  0000 L CNN
F 1 "12-22pF" H 5410 5170 50  0000 L CNN
F 2 "Capacitors_SMD:C_0805_HandSoldering" H 5400 5250 50  0001 C CNN
F 3 "" H 5400 5250 50  0000 C CNN
	1    5400 5250
	1    0    0    -1  
$EndComp
$Comp
L C_Small C6
U 1 1 5F188B7D
P 4850 5400
F 0 "C6" H 4860 5470 50  0000 L CNN
F 1 "12-22pF" H 4860 5320 50  0000 L CNN
F 2 "Capacitors_SMD:C_0805_HandSoldering" H 4850 5400 50  0001 C CNN
F 3 "" H 4850 5400 50  0000 C CNN
	1    4850 5400
	1    0    0    -1  
$EndComp
$Comp
L GNDREF #PWR04
U 1 1 5F188D4B
P 5400 5550
F 0 "#PWR04" H 5400 5300 50  0001 C CNN
F 1 "GNDREF" H 5400 5400 50  0000 C CNN
F 2 "" H 5400 5550 50  0000 C CNN
F 3 "" H 5400 5550 50  0000 C CNN
	1    5400 5550
	1    0    0    -1  
$EndComp
$Comp
L Crystal_Small Y1
U 1 1 5F188EF9
P 5100 5250
F 0 "Y1" H 5100 5350 50  0000 C CNN
F 1 "8MHz" H 5100 5150 50  0000 C CNN
F 2 "Crystals:Crystal_HC49-U_Vertical" H 5100 5250 50  0001 C CNN
F 3 "" H 5100 5250 50  0000 C CNN
	1    5100 5250
	1    0    0    -1  
$EndComp
$Comp
L VCC #PWR05
U 1 1 5F189D79
P 1950 2550
F 0 "#PWR05" H 1950 2400 50  0001 C CNN
F 1 "VCC" H 1950 2700 50  0000 C CNN
F 2 "" H 1950 2550 50  0000 C CNN
F 3 "" H 1950 2550 50  0000 C CNN
	1    1950 2550
	1    0    0    -1  
$EndComp
$Comp
L GNDREF #PWR06
U 1 1 5F189DB1
P 2850 3050
F 0 "#PWR06" H 2850 2800 50  0001 C CNN
F 1 "GNDREF" H 2850 2900 50  0000 C CNN
F 2 "" H 2850 3050 50  0000 C CNN
F 3 "" H 2850 3050 50  0000 C CNN
	1    2850 3050
	1    0    0    -1  
$EndComp
$Comp
L SW_PUSH SW1
U 1 1 5F189DE9
P 2400 3000
F 0 "SW1" H 2550 3110 50  0000 C CNN
F 1 "Reset" H 2400 2920 50  0000 C CNN
F 2 "Buttons_Switches_ThroughHole:SW_PUSH_SMALL" H 2400 3000 50  0001 C CNN
F 3 "" H 2400 3000 50  0000 C CNN
	1    2400 3000
	1    0    0    -1  
$EndComp
$Comp
L R R4
U 1 1 5F189E85
P 1950 2800
F 0 "R4" V 2030 2800 50  0000 C CNN
F 1 "10k" V 1950 2800 50  0000 C CNN
F 2 "Resistors_SMD:R_0805_HandSoldering" V 1880 2800 50  0001 C CNN
F 3 "" H 1950 2800 50  0000 C CNN
	1    1950 2800
	1    0    0    -1  
$EndComp
Text Label 4500 5350 0    60   ~ 0
A0
Text Label 4500 5450 0    60   ~ 0
A1
Text Label 4500 5550 0    60   ~ 0
A2
Text Label 4500 5650 0    60   ~ 0
A3
Text Label 4500 5750 0    60   ~ 0
A4
Text Label 4500 5850 0    60   ~ 0
A5
Text Label 4500 6100 0    60   ~ 0
RX
Text Label 4500 6200 0    60   ~ 0
TX
Text Label 4500 6300 0    60   ~ 0
D2
Text Label 4500 6400 0    60   ~ 0
D3pwm
Text Label 4500 6500 0    60   ~ 0
D4
Text Label 4500 6600 0    60   ~ 0
D5pwm
Text Label 4500 6700 0    60   ~ 0
D6pwm
Text Label 4500 6800 0    60   ~ 0
D7
Text Label 4500 4500 0    60   ~ 0
D8
Text Label 4500 4600 0    60   ~ 0
D9pwm
Text Label 4500 4700 0    60   ~ 0
D10pwm
Text Label 4500 4800 0    60   ~ 0
D11pwm
Text Label 4500 4900 0    60   ~ 0
D12
Text Label 4500 5000 0    60   ~ 0
D13
$Comp
L CONN_01X06 P1
U 1 1 5F1DCA1C
P 5750 2300
F 0 "P1" H 5750 2650 50  0000 C CNN
F 1 "FTDI" V 5850 2300 50  0000 C CNN
F 2 "Pin_Headers:Pin_Header_Straight_1x06" H 5750 2300 50  0001 C CNN
F 3 "" H 5750 2300 50  0000 C CNN
	1    5750 2300
	1    0    0    -1  
$EndComp
$Comp
L C_Small C8
U 1 1 5F1DE931
P 5400 2750
F 0 "C8" H 5410 2820 50  0000 L CNN
F 1 "100nF" H 5410 2670 50  0000 L CNN
F 2 "Capacitors_SMD:C_0805_HandSoldering" H 5400 2750 50  0001 C CNN
F 3 "" H 5400 2750 50  0000 C CNN
	1    5400 2750
	1    0    0    -1  
$EndComp
Text Label 5550 2450 2    60   ~ 0
TX
Text Label 5550 2350 2    60   ~ 0
RX
$Comp
L VCC #PWR07
U 1 1 5F1DED27
P 5350 2250
F 0 "#PWR07" H 5350 2100 50  0001 C CNN
F 1 "VCC" H 5350 2400 50  0000 C CNN
F 2 "" H 5350 2250 50  0000 C CNN
F 3 "" H 5350 2250 50  0000 C CNN
	1    5350 2250
	1    0    0    -1  
$EndComp
$Comp
L GNDREF #PWR08
U 1 1 5F1DED67
P 5050 2000
F 0 "#PWR08" H 5050 1750 50  0001 C CNN
F 1 "GNDREF" H 5050 1850 50  0000 C CNN
F 2 "" H 5050 2000 50  0000 C CNN
F 3 "" H 5050 2000 50  0000 C CNN
	1    5050 2000
	1    0    0    -1  
$EndComp
$Comp
L ATMEGA328P-A IC1
U 1 1 5F1DFE5B
P 3500 5600
F 0 "IC1" H 2750 6850 50  0000 L BNN
F 1 "ATMEGA328P-A" H 3900 4200 50  0000 L BNN
F 2 "Housings_QFP:TQFP-32_7x7mm_Pitch0.8mm" H 3500 5600 50  0001 C CIN
F 3 "" H 3500 5600 50  0000 C CNN
	1    3500 5600
	1    0    0    -1  
$EndComp
Text Label 7600 5500 0    60   ~ 0
D2
Text Label 7600 5400 0    60   ~ 0
D3pwm
Text Label 7600 5300 0    60   ~ 0
D4
Text Label 9200 5100 2    60   ~ 0
A5
Text Label 9200 5500 2    60   ~ 0
A1
Text Label 9200 5400 2    60   ~ 0
A2
Text Label 9200 5300 2    60   ~ 0
A3
Text Label 9200 5200 2    60   ~ 0
A4
$Comp
L GNDREF #PWR09
U 1 1 5F1EC9FF
P 8100 5250
F 0 "#PWR09" H 8100 5000 50  0001 C CNN
F 1 "GNDREF" H 8100 5100 50  0000 C CNN
F 2 "" H 8100 5250 50  0000 C CNN
F 3 "" H 8100 5250 50  0000 C CNN
	1    8100 5250
	1    0    0    -1  
$EndComp
Text Label 2600 5850 2    60   ~ 0
A6
Text Label 4500 5950 0    60   ~ 0
RST
Text Label 5500 3000 0    60   ~ 0
RST
Text Label 2600 5950 2    60   ~ 0
A7
Text Label 9350 1200 2    60   ~ 0
A0
Text Label 8400 3200 2    60   ~ 0
A6
Wire Wire Line
	2600 4500 2500 4500
Wire Wire Line
	2500 4400 2500 5150
Wire Wire Line
	2500 4800 2600 4800
Connection ~ 2500 4500
Wire Wire Line
	2500 5100 2600 5100
Connection ~ 2500 4800
Wire Wire Line
	2600 6700 2500 6700
Wire Wire Line
	2500 6600 2500 6950
Wire Wire Line
	2600 6800 2500 6800
Connection ~ 2500 6800
Wire Wire Line
	4500 5100 5400 5100
Wire Wire Line
	5400 5350 5400 5550
Wire Wire Line
	4850 5500 4850 5550
Wire Wire Line
	4850 5550 5400 5550
Connection ~ 5400 5500
Connection ~ 4850 5250
Wire Wire Line
	5250 5250 5200 5250
Wire Wire Line
	5250 5100 5250 5250
Connection ~ 5250 5100
Wire Wire Line
	4500 5200 4850 5200
Wire Wire Line
	4850 5200 4850 5300
Wire Wire Line
	4850 5250 5000 5250
Wire Wire Line
	5400 5100 5400 5150
Wire Wire Line
	1950 2550 1950 2650
Wire Wire Line
	1950 2950 1950 3000
Wire Wire Line
	2700 3000 2850 3000
Wire Wire Line
	2850 3000 2850 3050
Connection ~ 1950 3000
Wire Wire Line
	5400 2850 5400 3000
Wire Wire Line
	5400 2650 5400 2550
Wire Wire Line
	5350 2250 5550 2250
Wire Wire Line
	5500 2150 5550 2150
Wire Wire Line
	5500 1950 5500 2150
Wire Wire Line
	5500 2050 5550 2050
Wire Wire Line
	5500 1950 5050 1950
Wire Wire Line
	5050 1950 5050 2000
Connection ~ 5500 2050
Wire Wire Line
	2600 6600 2500 6600
Connection ~ 2500 6700
Wire Wire Line
	2600 4600 2500 4600
Connection ~ 2500 4600
Wire Wire Line
	5400 3000 5500 3000
$Comp
L VCC #PWR010
U 1 1 5FD77889
P 9500 2000
F 0 "#PWR010" H 9500 1850 50  0001 C CNN
F 1 "VCC" H 9500 2150 50  0000 C CNN
F 2 "" H 9500 2000 50  0000 C CNN
F 3 "" H 9500 2000 50  0000 C CNN
	1    9500 2000
	1    0    0    -1  
$EndComp
Wire Wire Line
	8600 3000 8600 3400
Wire Wire Line
	8600 1700 8600 2100
Text Label 9500 1250 0    60   ~ 0
VIN
Wire Wire Line
	8600 1200 8600 1600
$Comp
L Q_NMOS_GDS Q1
U 1 1 5FD78108
P 7450 1950
F 0 "Q1" H 7750 2000 50  0000 R CNN
F 1 "Q_NMOS_GDS" H 8100 1900 50  0000 R CNN
F 2 "TO_SOT_Packages_THT:TO-220_Neutral123_Vertical" H 7650 2050 50  0001 C CNN
F 3 "" H 7450 1950 50  0000 C CNN
	1    7450 1950
	1    0    0    -1  
$EndComp
$Comp
L Q_NMOS_GDS Q2
U 1 1 5FD7817B
P 7450 3250
F 0 "Q2" H 7750 3300 50  0000 R CNN
F 1 "Q_NMOS_GDS" H 8100 3200 50  0000 R CNN
F 2 "TO_SOT_Packages_THT:TO-220_Neutral123_Vertical" H 7650 3350 50  0001 C CNN
F 3 "" H 7450 3250 50  0000 C CNN
	1    7450 3250
	1    0    0    -1  
$EndComp
Wire Wire Line
	7550 3450 7550 3750
Wire Wire Line
	7550 3750 9500 3750
Connection ~ 8600 3750
Wire Wire Line
	7550 2550 7550 3050
Wire Wire Line
	8600 2450 7550 2450
Wire Wire Line
	7550 2450 7550 2150
Connection ~ 8600 2450
Wire Wire Line
	7550 1250 7550 1750
Connection ~ 8600 1250
Wire Wire Line
	8600 3750 8600 3700
Wire Wire Line
	9500 3750 9500 3800
$Comp
L R R1
U 1 1 5FD78664
P 9050 1250
F 0 "R1" V 9130 1250 50  0000 C CNN
F 1 "R" V 9050 1250 50  0000 C CNN
F 2 "Resistors_ThroughHole:Resistor_Horizontal_RM25mm" V 8980 1250 50  0001 C CNN
F 3 "" H 9050 1250 50  0000 C CNN
	1    9050 1250
	0    1    1    0   
$EndComp
Text Label 8600 1200 2    60   ~ 0
A7
Wire Wire Line
	9200 1250 9500 1250
Wire Wire Line
	9350 1200 9350 1250
Connection ~ 9350 1250
Text Label 7150 1950 2    60   ~ 0
D9pwm
Text Label 7150 3250 2    60   ~ 0
D6pwm
Wire Wire Line
	7150 3250 7250 3250
Wire Wire Line
	7150 1950 7250 1950
Text Label 2500 1700 2    60   ~ 0
D5pwm
$Comp
L LED D1
U 1 1 5FD7B4D4
P 2850 1700
F 0 "D1" H 2850 1800 50  0000 C CNN
F 1 "LED" H 2850 1600 50  0000 C CNN
F 2 "LEDs:LED_0805" H 2850 1700 50  0001 C CNN
F 3 "" H 2850 1700 50  0000 C CNN
	1    2850 1700
	-1   0    0    1   
$EndComp
$Comp
L R R2
U 1 1 5FD7B52D
P 3350 1700
F 0 "R2" V 3430 1700 50  0000 C CNN
F 1 "R" V 3350 1700 50  0000 C CNN
F 2 "Resistors_SMD:R_0805_HandSoldering" V 3280 1700 50  0001 C CNN
F 3 "" H 3350 1700 50  0000 C CNN
	1    3350 1700
	0    1    1    0   
$EndComp
$Comp
L GNDREF #PWR011
U 1 1 5FD7B57C
P 3750 1750
F 0 "#PWR011" H 3750 1500 50  0001 C CNN
F 1 "GNDREF" H 3750 1600 50  0000 C CNN
F 2 "" H 3750 1750 50  0000 C CNN
F 3 "" H 3750 1750 50  0000 C CNN
	1    3750 1750
	1    0    0    -1  
$EndComp
Wire Wire Line
	2500 1700 2650 1700
Wire Wire Line
	3050 1700 3200 1700
Wire Wire Line
	3500 1700 3750 1700
Wire Wire Line
	3750 1700 3750 1750
Text Label 1750 3000 2    60   ~ 0
RST
Wire Wire Line
	1750 3000 2100 3000
Wire Wire Line
	5400 2550 5550 2550
$Comp
L VCC #PWR012
U 1 1 5FD7CA9D
P 7900 4900
F 0 "#PWR012" H 7900 4750 50  0001 C CNN
F 1 "VCC" H 7900 5050 50  0000 C CNN
F 2 "" H 7900 4900 50  0000 C CNN
F 3 "" H 7900 4900 50  0000 C CNN
	1    7900 4900
	1    0    0    -1  
$EndComp
Wire Wire Line
	7900 4900 7900 5100
$Comp
L CONN_01X02 P5
U 1 1 5FD7D234
P 8050 2750
F 0 "P5" H 8050 2900 50  0000 C CNN
F 1 "CONN_01X02" V 8150 2750 50  0000 C CNN
F 2 "Pin_Headers:Pin_Header_Straight_1x02" H 8050 2750 50  0001 C CNN
F 3 "" H 8050 2750 50  0000 C CNN
	1    8050 2750
	0    1    1    0   
$EndComp
Wire Wire Line
	7550 2550 8000 2550
Wire Wire Line
	8600 2550 8100 2550
$Comp
L CONN_01X02 P7
U 1 1 5FD7D5A5
P 8800 2950
F 0 "P7" H 8800 3100 50  0000 C CNN
F 1 "CONN_01X02" V 8900 2950 50  0000 C CNN
F 2 "Pin_Headers:Pin_Header_Straight_1x02" H 8800 2950 50  0001 C CNN
F 3 "" H 8800 2950 50  0000 C CNN
	1    8800 2950
	1    0    0    -1  
$EndComp
Wire Wire Line
	8600 2400 8600 2900
$Comp
L CONN_01X02 P6
U 1 1 5FD7D78F
P 8800 1650
F 0 "P6" H 8800 1800 50  0000 C CNN
F 1 "CONN_01X02" V 8900 1650 50  0000 C CNN
F 2 "Pin_Headers:Pin_Header_Straight_1x02" H 8800 1650 50  0001 C CNN
F 3 "" H 8800 1650 50  0000 C CNN
	1    8800 1650
	1    0    0    -1  
$EndComp
Wire Wire Line
	8100 1250 8900 1250
$Comp
L CONN_01X02 P4
U 1 1 5FD7D97E
P 8050 1450
F 0 "P4" H 8050 1600 50  0000 C CNN
F 1 "CONN_01X02" V 8150 1450 50  0000 C CNN
F 2 "Pin_Headers:Pin_Header_Straight_1x02" H 8050 1450 50  0001 C CNN
F 3 "" H 8050 1450 50  0000 C CNN
	1    8050 1450
	0    1    1    0   
$EndComp
Wire Wire Line
	7550 1250 8000 1250
Connection ~ 8600 2550
$Comp
L C_Small C1
U 1 1 5FD869CF
P 2500 5250
F 0 "C1" H 2510 5320 50  0000 L CNN
F 1 "C_Small" H 2510 5170 50  0000 L CNN
F 2 "Capacitors_SMD:C_0805_HandSoldering" H 2500 5250 50  0001 C CNN
F 3 "" H 2500 5250 50  0000 C CNN
	1    2500 5250
	1    0    0    -1  
$EndComp
Connection ~ 2500 5100
$Comp
L GNDREF #PWR013
U 1 1 5FD86B86
P 2500 5400
F 0 "#PWR013" H 2500 5150 50  0001 C CNN
F 1 "GNDREF" H 2500 5250 50  0000 C CNN
F 2 "" H 2500 5400 50  0000 C CNN
F 3 "" H 2500 5400 50  0000 C CNN
	1    2500 5400
	1    0    0    -1  
$EndComp
Wire Wire Line
	2500 5400 2500 5350
$Comp
L CONN_01X05 P3
U 1 1 5FD88EA2
P 9400 5300
F 0 "P3" H 9400 5600 50  0000 C CNN
F 1 "CONN_01X05" V 9500 5300 50  0000 C CNN
F 2 "Pin_Headers:Pin_Header_Straight_1x05" H 9400 5300 50  0001 C CNN
F 3 "" H 9400 5300 50  0000 C CNN
	1    9400 5300
	1    0    0    -1  
$EndComp
$Comp
L CONN_01X05 P2
U 1 1 5FD8907A
P 7400 5300
F 0 "P2" H 7400 5600 50  0000 C CNN
F 1 "CONN_01X05" V 7500 5300 50  0000 C CNN
F 2 "Pin_Headers:Pin_Header_Straight_1x05" H 7400 5300 50  0001 C CNN
F 3 "" H 7400 5300 50  0000 C CNN
	1    7400 5300
	-1   0    0    1   
$EndComp
Wire Wire Line
	7600 5200 8100 5200
Wire Wire Line
	8100 5200 8100 5250
Wire Wire Line
	7900 5100 7600 5100
$Comp
L CONN_01X02 P8
U 1 1 5FD8A9A2
P 9700 1300
F 0 "P8" H 9700 1450 50  0000 C CNN
F 1 "CONN_01X02" V 9800 1300 50  0000 C CNN
F 2 "Pin_Headers:Pin_Header_Straight_1x02" H 9700 1300 50  0001 C CNN
F 3 "" H 9700 1300 50  0000 C CNN
	1    9700 1300
	1    0    0    -1  
$EndComp
$Comp
L GNDREF #PWR014
U 1 1 5FD8AAD6
P 9500 1350
F 0 "#PWR014" H 9500 1100 50  0001 C CNN
F 1 "GNDREF" H 9500 1200 50  0000 C CNN
F 2 "" H 9500 1350 50  0000 C CNN
F 3 "" H 9500 1350 50  0000 C CNN
	1    9500 1350
	1    0    0    -1  
$EndComp
Wire Wire Line
	8400 2700 8600 2700
Connection ~ 8600 2700
Wire Wire Line
	9500 2000 9000 2000
Wire Wire Line
	9000 2000 9000 1350
Wire Wire Line
	9000 1350 8700 1350
Wire Wire Line
	8700 1350 8700 1250
Connection ~ 8700 1250
$Comp
L R R3
U 1 1 5FDDD170
P 8400 2850
F 0 "R3" V 8480 2850 50  0000 C CNN
F 1 "Ponte" V 8400 2850 50  0000 C CNN
F 2 "Resistors_ThroughHole:Resistor_Horizontal_RM10mm" V 8330 2850 50  0001 C CNN
F 3 "" H 8400 2850 50  0000 C CNN
	1    8400 2850
	1    0    0    -1  
$EndComp
Wire Wire Line
	8400 3200 8400 3000
$Comp
L CONN_01X04 P9
U 1 1 5FDDD67F
P 10600 5300
F 0 "P9" H 10600 5550 50  0000 C CNN
F 1 "CONN_01X04" V 10700 5300 50  0000 C CNN
F 2 "Pin_Headers:Pin_Header_Straight_1x04" H 10600 5300 50  0001 C CNN
F 3 "" H 10600 5300 50  0000 C CNN
	1    10600 5300
	1    0    0    -1  
$EndComp
Text Label 10400 5150 2    60   ~ 0
D13
Text Label 10400 5250 2    60   ~ 0
D12
Text Label 10400 5350 2    60   ~ 0
D11pwm
Text Label 10400 5450 2    60   ~ 0
D10pwm
$EndSCHEMATC
