G04 #@! TF.GenerationSoftware,KiCad,Pcbnew,5.1.6*
G04 #@! TF.CreationDate,2021-01-21T11:01:57+01:00*
G04 #@! TF.ProjectId,Scheda,53636865-6461-42e6-9b69-6361645f7063,1*
G04 #@! TF.SameCoordinates,Original*
G04 #@! TF.FileFunction,Legend,Top*
G04 #@! TF.FilePolarity,Positive*
%FSLAX46Y46*%
G04 Gerber Fmt 4.6, Leading zero omitted, Abs format (unit mm)*
G04 Created by KiCad (PCBNEW 5.1.6) date 2021-01-21 11:01:57*
%MOMM*%
%LPD*%
G01*
G04 APERTURE LIST*
%ADD10C,0.150000*%
%ADD11C,0.120000*%
G04 APERTURE END LIST*
D10*
X107282076Y-112618780D02*
X107282076Y-111618780D01*
X107663028Y-111618780D01*
X107758266Y-111666400D01*
X107805885Y-111714019D01*
X107853504Y-111809257D01*
X107853504Y-111952114D01*
X107805885Y-112047352D01*
X107758266Y-112094971D01*
X107663028Y-112142590D01*
X107282076Y-112142590D01*
X108282076Y-112618780D02*
X108282076Y-111952114D01*
X108282076Y-112142590D02*
X108329695Y-112047352D01*
X108377314Y-111999733D01*
X108472552Y-111952114D01*
X108567790Y-111952114D01*
X109043980Y-112618780D02*
X108948742Y-112571161D01*
X108901123Y-112523542D01*
X108853504Y-112428304D01*
X108853504Y-112142590D01*
X108901123Y-112047352D01*
X108948742Y-111999733D01*
X109043980Y-111952114D01*
X109186838Y-111952114D01*
X109282076Y-111999733D01*
X109329695Y-112047352D01*
X109377314Y-112142590D01*
X109377314Y-112428304D01*
X109329695Y-112523542D01*
X109282076Y-112571161D01*
X109186838Y-112618780D01*
X109043980Y-112618780D01*
X109663028Y-111952114D02*
X110043980Y-111952114D01*
X109805885Y-111618780D02*
X109805885Y-112475923D01*
X109853504Y-112571161D01*
X109948742Y-112618780D01*
X110043980Y-112618780D01*
X110520171Y-112618780D02*
X110424933Y-112571161D01*
X110377314Y-112523542D01*
X110329695Y-112428304D01*
X110329695Y-112142590D01*
X110377314Y-112047352D01*
X110424933Y-111999733D01*
X110520171Y-111952114D01*
X110663028Y-111952114D01*
X110758266Y-111999733D01*
X110805885Y-112047352D01*
X110853504Y-112142590D01*
X110853504Y-112428304D01*
X110805885Y-112523542D01*
X110758266Y-112571161D01*
X110663028Y-112618780D01*
X110520171Y-112618780D01*
X111139219Y-111952114D02*
X111520171Y-111952114D01*
X111282076Y-111618780D02*
X111282076Y-112475923D01*
X111329695Y-112571161D01*
X111424933Y-112618780D01*
X111520171Y-112618780D01*
X111758266Y-111952114D02*
X111996361Y-112618780D01*
X112234457Y-111952114D02*
X111996361Y-112618780D01*
X111901123Y-112856876D01*
X111853504Y-112904495D01*
X111758266Y-112952114D01*
X112615409Y-111952114D02*
X112615409Y-112952114D01*
X112615409Y-111999733D02*
X112710647Y-111952114D01*
X112901123Y-111952114D01*
X112996361Y-111999733D01*
X113043980Y-112047352D01*
X113091600Y-112142590D01*
X113091600Y-112428304D01*
X113043980Y-112523542D01*
X112996361Y-112571161D01*
X112901123Y-112618780D01*
X112710647Y-112618780D01*
X112615409Y-112571161D01*
X113901123Y-112571161D02*
X113805885Y-112618780D01*
X113615409Y-112618780D01*
X113520171Y-112571161D01*
X113472552Y-112475923D01*
X113472552Y-112094971D01*
X113520171Y-111999733D01*
X113615409Y-111952114D01*
X113805885Y-111952114D01*
X113901123Y-111999733D01*
X113948742Y-112094971D01*
X113948742Y-112190209D01*
X113472552Y-112285447D01*
X107915295Y-125793361D02*
X108058152Y-125840980D01*
X108296247Y-125840980D01*
X108391485Y-125793361D01*
X108439104Y-125745742D01*
X108486723Y-125650504D01*
X108486723Y-125555266D01*
X108439104Y-125460028D01*
X108391485Y-125412409D01*
X108296247Y-125364790D01*
X108105771Y-125317171D01*
X108010533Y-125269552D01*
X107962914Y-125221933D01*
X107915295Y-125126695D01*
X107915295Y-125031457D01*
X107962914Y-124936219D01*
X108010533Y-124888600D01*
X108105771Y-124840980D01*
X108343866Y-124840980D01*
X108486723Y-124888600D01*
X109058152Y-125840980D02*
X108962914Y-125793361D01*
X108915295Y-125745742D01*
X108867676Y-125650504D01*
X108867676Y-125364790D01*
X108915295Y-125269552D01*
X108962914Y-125221933D01*
X109058152Y-125174314D01*
X109201009Y-125174314D01*
X109296247Y-125221933D01*
X109343866Y-125269552D01*
X109391485Y-125364790D01*
X109391485Y-125650504D01*
X109343866Y-125745742D01*
X109296247Y-125793361D01*
X109201009Y-125840980D01*
X109058152Y-125840980D01*
X109962914Y-125840980D02*
X109867676Y-125793361D01*
X109820057Y-125698123D01*
X109820057Y-124840980D01*
X110772438Y-125840980D02*
X110772438Y-125317171D01*
X110724819Y-125221933D01*
X110629580Y-125174314D01*
X110439104Y-125174314D01*
X110343866Y-125221933D01*
X110772438Y-125793361D02*
X110677200Y-125840980D01*
X110439104Y-125840980D01*
X110343866Y-125793361D01*
X110296247Y-125698123D01*
X110296247Y-125602885D01*
X110343866Y-125507647D01*
X110439104Y-125460028D01*
X110677200Y-125460028D01*
X110772438Y-125412409D01*
X111248628Y-125840980D02*
X111248628Y-125174314D01*
X111248628Y-125364790D02*
X111296247Y-125269552D01*
X111343866Y-125221933D01*
X111439104Y-125174314D01*
X111534342Y-125174314D01*
X107201009Y-127490980D02*
X107201009Y-126967171D01*
X107153390Y-126871933D01*
X107058152Y-126824314D01*
X106867676Y-126824314D01*
X106772438Y-126871933D01*
X107201009Y-127443361D02*
X107105771Y-127490980D01*
X106867676Y-127490980D01*
X106772438Y-127443361D01*
X106724819Y-127348123D01*
X106724819Y-127252885D01*
X106772438Y-127157647D01*
X106867676Y-127110028D01*
X107105771Y-127110028D01*
X107201009Y-127062409D01*
X107677200Y-126824314D02*
X107677200Y-127490980D01*
X107677200Y-126919552D02*
X107724819Y-126871933D01*
X107820057Y-126824314D01*
X107962914Y-126824314D01*
X108058152Y-126871933D01*
X108105771Y-126967171D01*
X108105771Y-127490980D01*
X109010533Y-127490980D02*
X109010533Y-126490980D01*
X109010533Y-127443361D02*
X108915295Y-127490980D01*
X108724819Y-127490980D01*
X108629580Y-127443361D01*
X108581961Y-127395742D01*
X108534342Y-127300504D01*
X108534342Y-127014790D01*
X108581961Y-126919552D01*
X108629580Y-126871933D01*
X108724819Y-126824314D01*
X108915295Y-126824314D01*
X109010533Y-126871933D01*
X110248628Y-127490980D02*
X110248628Y-126490980D01*
X110486723Y-126490980D01*
X110629580Y-126538600D01*
X110724819Y-126633838D01*
X110772438Y-126729076D01*
X110820057Y-126919552D01*
X110820057Y-127062409D01*
X110772438Y-127252885D01*
X110724819Y-127348123D01*
X110629580Y-127443361D01*
X110486723Y-127490980D01*
X110248628Y-127490980D01*
X111724819Y-127490980D02*
X111248628Y-127490980D01*
X111248628Y-126490980D01*
X112629580Y-127395742D02*
X112581961Y-127443361D01*
X112439104Y-127490980D01*
X112343866Y-127490980D01*
X112201009Y-127443361D01*
X112105771Y-127348123D01*
X112058152Y-127252885D01*
X112010533Y-127062409D01*
X112010533Y-126919552D01*
X112058152Y-126729076D01*
X112105771Y-126633838D01*
X112201009Y-126538600D01*
X112343866Y-126490980D01*
X112439104Y-126490980D01*
X112581961Y-126538600D01*
X112629580Y-126586219D01*
X106867676Y-128474314D02*
X106867676Y-129474314D01*
X106867676Y-128521933D02*
X106962914Y-128474314D01*
X107153390Y-128474314D01*
X107248628Y-128521933D01*
X107296247Y-128569552D01*
X107343866Y-128664790D01*
X107343866Y-128950504D01*
X107296247Y-129045742D01*
X107248628Y-129093361D01*
X107153390Y-129140980D01*
X106962914Y-129140980D01*
X106867676Y-129093361D01*
X107915295Y-129140980D02*
X107820057Y-129093361D01*
X107772438Y-129045742D01*
X107724819Y-128950504D01*
X107724819Y-128664790D01*
X107772438Y-128569552D01*
X107820057Y-128521933D01*
X107915295Y-128474314D01*
X108058152Y-128474314D01*
X108153390Y-128521933D01*
X108201009Y-128569552D01*
X108248628Y-128664790D01*
X108248628Y-128950504D01*
X108201009Y-129045742D01*
X108153390Y-129093361D01*
X108058152Y-129140980D01*
X107915295Y-129140980D01*
X108581961Y-128474314D02*
X108772438Y-129140980D01*
X108962914Y-128664790D01*
X109153390Y-129140980D01*
X109343866Y-128474314D01*
X110105771Y-129093361D02*
X110010533Y-129140980D01*
X109820057Y-129140980D01*
X109724819Y-129093361D01*
X109677200Y-128998123D01*
X109677200Y-128617171D01*
X109724819Y-128521933D01*
X109820057Y-128474314D01*
X110010533Y-128474314D01*
X110105771Y-128521933D01*
X110153390Y-128617171D01*
X110153390Y-128712409D01*
X109677200Y-128807647D01*
X110581961Y-129140980D02*
X110581961Y-128474314D01*
X110581961Y-128664790D02*
X110629580Y-128569552D01*
X110677200Y-128521933D01*
X110772438Y-128474314D01*
X110867676Y-128474314D01*
X111581961Y-129093361D02*
X111486723Y-129140980D01*
X111296247Y-129140980D01*
X111201009Y-129093361D01*
X111153390Y-128998123D01*
X111153390Y-128617171D01*
X111201009Y-128521933D01*
X111296247Y-128474314D01*
X111486723Y-128474314D01*
X111581961Y-128521933D01*
X111629580Y-128617171D01*
X111629580Y-128712409D01*
X111153390Y-128807647D01*
X112486723Y-129140980D02*
X112486723Y-128140980D01*
X112486723Y-129093361D02*
X112391485Y-129140980D01*
X112201009Y-129140980D01*
X112105771Y-129093361D01*
X112058152Y-129045742D01*
X112010533Y-128950504D01*
X112010533Y-128664790D01*
X112058152Y-128569552D01*
X112105771Y-128521933D01*
X112201009Y-128474314D01*
X112391485Y-128474314D01*
X112486723Y-128521933D01*
X107534342Y-130790980D02*
X107534342Y-130267171D01*
X107486723Y-130171933D01*
X107391485Y-130124314D01*
X107201009Y-130124314D01*
X107105771Y-130171933D01*
X107534342Y-130743361D02*
X107439104Y-130790980D01*
X107201009Y-130790980D01*
X107105771Y-130743361D01*
X107058152Y-130648123D01*
X107058152Y-130552885D01*
X107105771Y-130457647D01*
X107201009Y-130410028D01*
X107439104Y-130410028D01*
X107534342Y-130362409D01*
X108010533Y-130790980D02*
X108010533Y-130124314D01*
X108010533Y-130314790D02*
X108058152Y-130219552D01*
X108105771Y-130171933D01*
X108201009Y-130124314D01*
X108296247Y-130124314D01*
X109058152Y-130790980D02*
X109058152Y-129790980D01*
X109058152Y-130743361D02*
X108962914Y-130790980D01*
X108772438Y-130790980D01*
X108677200Y-130743361D01*
X108629580Y-130695742D01*
X108581961Y-130600504D01*
X108581961Y-130314790D01*
X108629580Y-130219552D01*
X108677200Y-130171933D01*
X108772438Y-130124314D01*
X108962914Y-130124314D01*
X109058152Y-130171933D01*
X109962914Y-130124314D02*
X109962914Y-130790980D01*
X109534342Y-130124314D02*
X109534342Y-130648123D01*
X109581961Y-130743361D01*
X109677200Y-130790980D01*
X109820057Y-130790980D01*
X109915295Y-130743361D01*
X109962914Y-130695742D01*
X110439104Y-130790980D02*
X110439104Y-130124314D01*
X110439104Y-129790980D02*
X110391485Y-129838600D01*
X110439104Y-129886219D01*
X110486723Y-129838600D01*
X110439104Y-129790980D01*
X110439104Y-129886219D01*
X110915295Y-130124314D02*
X110915295Y-130790980D01*
X110915295Y-130219552D02*
X110962914Y-130171933D01*
X111058152Y-130124314D01*
X111201009Y-130124314D01*
X111296247Y-130171933D01*
X111343866Y-130267171D01*
X111343866Y-130790980D01*
X111962914Y-130790980D02*
X111867676Y-130743361D01*
X111820057Y-130695742D01*
X111772438Y-130600504D01*
X111772438Y-130314790D01*
X111820057Y-130219552D01*
X111867676Y-130171933D01*
X111962914Y-130124314D01*
X112105771Y-130124314D01*
X112201009Y-130171933D01*
X112248628Y-130219552D01*
X112296247Y-130314790D01*
X112296247Y-130600504D01*
X112248628Y-130695742D01*
X112201009Y-130743361D01*
X112105771Y-130790980D01*
X111962914Y-130790980D01*
D11*
X143256000Y-121412000D02*
X143256000Y-111252000D01*
X141986000Y-121412000D02*
X149606000Y-121412000D01*
X149606000Y-121412000D02*
X149606000Y-111252000D01*
X149606000Y-111252000D02*
X141986000Y-111252000D01*
X141986000Y-111252000D02*
X141986000Y-121412000D01*
X120166200Y-119007412D02*
X120166200Y-118484908D01*
X118746200Y-119007412D02*
X118746200Y-118484908D01*
X120135720Y-114316988D02*
X120135720Y-114839492D01*
X118715720Y-114316988D02*
X118715720Y-114839492D01*
X119335340Y-123844980D02*
X118710340Y-123844980D01*
X119022840Y-123532480D02*
X119022840Y-124157480D01*
X115642277Y-124397480D02*
X114577840Y-125461917D01*
X119033403Y-124397480D02*
X120097840Y-125461917D01*
X119033403Y-124397480D02*
X118397840Y-124397480D01*
X115642277Y-124397480D02*
X116277840Y-124397480D01*
X114577840Y-125461917D02*
X114577840Y-129917480D01*
X120097840Y-125461917D02*
X120097840Y-129917480D01*
X120097840Y-129917480D02*
X118397840Y-129917480D01*
X114577840Y-129917480D02*
X116277840Y-129917480D01*
X119861400Y-132866388D02*
X119861400Y-133388892D01*
X118441400Y-132866388D02*
X118441400Y-133388892D01*
X119620509Y-121398016D02*
X120073011Y-121659268D01*
X118910509Y-122627772D02*
X119363011Y-122889024D01*
X115212520Y-122461400D02*
X116527520Y-122461400D01*
X115212520Y-122761400D02*
X115212520Y-122461400D01*
X114912520Y-122761400D02*
X115212520Y-122761400D01*
X107992520Y-122761400D02*
X107992520Y-122461400D01*
X108292520Y-122761400D02*
X107992520Y-122761400D01*
X115212520Y-115541400D02*
X115212520Y-115841400D01*
X114912520Y-115541400D02*
X115212520Y-115541400D01*
X107992520Y-115541400D02*
X107992520Y-115841400D01*
X108292520Y-115541400D02*
X107992520Y-115541400D01*
X140034000Y-109905000D02*
X140034000Y-112905000D01*
X127434000Y-109905000D02*
X140034000Y-109905000D01*
X127434000Y-112905000D02*
X127434000Y-109905000D01*
X127434000Y-122505000D02*
X127434000Y-119505000D01*
X140034000Y-122505000D02*
X127434000Y-122505000D01*
X140034000Y-119505000D02*
X140034000Y-122505000D01*
X103378000Y-138439200D02*
X102048000Y-138439200D01*
X102048000Y-138439200D02*
X102048000Y-137109200D01*
X102048000Y-135839200D02*
X102048000Y-125619200D01*
X104708000Y-125619200D02*
X102048000Y-125619200D01*
X104708000Y-135839200D02*
X104708000Y-125619200D01*
X104708000Y-135839200D02*
X102048000Y-135839200D01*
X120557600Y-135779200D02*
X120557600Y-137109200D01*
X119227600Y-135779200D02*
X120557600Y-135779200D01*
X117957600Y-135779200D02*
X117957600Y-138439200D01*
X117957600Y-138439200D02*
X105197600Y-138439200D01*
X117957600Y-135779200D02*
X105197600Y-135779200D01*
X105197600Y-135779200D02*
X105197600Y-138439200D01*
X150682000Y-109372400D02*
X150682000Y-110702400D01*
X150682000Y-110702400D02*
X149352000Y-110702400D01*
X148082000Y-110702400D02*
X140402000Y-110702400D01*
X140402000Y-108042400D02*
X140402000Y-110702400D01*
X148082000Y-108042400D02*
X140402000Y-108042400D01*
X148082000Y-108042400D02*
X148082000Y-110702400D01*
X109871200Y-109067600D02*
X109871200Y-107737600D01*
X109871200Y-107737600D02*
X111201200Y-107737600D01*
X112471200Y-107737600D02*
X125231200Y-107737600D01*
X125231200Y-110397600D02*
X125231200Y-107737600D01*
X112471200Y-110397600D02*
X125231200Y-110397600D01*
X112471200Y-110397600D02*
X112471200Y-107737600D01*
X123079200Y-126492000D02*
X123079200Y-125162000D01*
X123079200Y-125162000D02*
X124409200Y-125162000D01*
X125679200Y-125162000D02*
X128279200Y-125162000D01*
X128279200Y-127822000D02*
X128279200Y-125162000D01*
X125679200Y-127822000D02*
X128279200Y-127822000D01*
X125679200Y-127822000D02*
X125679200Y-125162000D01*
X104657200Y-120548400D02*
X101997200Y-120548400D01*
X104657200Y-120548400D02*
X104657200Y-107788400D01*
X104657200Y-107788400D02*
X101997200Y-107788400D01*
X101997200Y-120548400D02*
X101997200Y-107788400D01*
X101997200Y-123148400D02*
X101997200Y-121818400D01*
X103327200Y-123148400D02*
X101997200Y-123148400D01*
X141986000Y-128460500D02*
X141986000Y-138620500D01*
X149606000Y-128460500D02*
X141986000Y-128460500D01*
X149606000Y-138620500D02*
X149606000Y-128460500D01*
X141986000Y-138620500D02*
X149606000Y-138620500D01*
X143256000Y-138620500D02*
X143256000Y-128460500D01*
X125224800Y-130867200D02*
X123724800Y-130867200D01*
X121224800Y-132117200D02*
X121224800Y-136617200D01*
X123724800Y-137867200D02*
X125224800Y-137867200D01*
X127724800Y-136617200D02*
X127724800Y-132117200D01*
X143316000Y-122495000D02*
X140656000Y-122495000D01*
X143316000Y-125095000D02*
X143316000Y-122495000D01*
X140656000Y-125095000D02*
X140656000Y-122495000D01*
X143316000Y-125095000D02*
X140656000Y-125095000D01*
X143316000Y-126365000D02*
X143316000Y-127695000D01*
X143316000Y-127695000D02*
X141986000Y-127695000D01*
X133630052Y-122831089D02*
X133974281Y-124115771D01*
X132345371Y-123175319D02*
X133630052Y-122831089D01*
X131118645Y-123504019D02*
X131807104Y-126073382D01*
X131807104Y-126073382D02*
X129295696Y-126746311D01*
X131118645Y-123504019D02*
X128607238Y-124176948D01*
X128607238Y-124176948D02*
X129295696Y-126746311D01*
X126093200Y-119481600D02*
X126093200Y-114481600D01*
X120693200Y-119481600D02*
X120693200Y-114481600D01*
X126093200Y-119481600D02*
G75*
G02*
X120693200Y-119481600I-2700000J0D01*
G01*
X126093200Y-114481600D02*
G75*
G03*
X120693200Y-114481600I-2700000J0D01*
G01*
X140445260Y-132308922D02*
G75*
G03*
X140445260Y-132308922I-6120000J0D01*
G01*
D10*
X148312142Y-116752666D02*
X148359761Y-116800285D01*
X148407380Y-116943142D01*
X148407380Y-117038380D01*
X148359761Y-117181238D01*
X148264523Y-117276476D01*
X148169285Y-117324095D01*
X147978809Y-117371714D01*
X147835952Y-117371714D01*
X147645476Y-117324095D01*
X147550238Y-117276476D01*
X147455000Y-117181238D01*
X147407380Y-117038380D01*
X147407380Y-116943142D01*
X147455000Y-116800285D01*
X147502619Y-116752666D01*
X148407380Y-115800285D02*
X148407380Y-116371714D01*
X148407380Y-116086000D02*
X147407380Y-116086000D01*
X147550238Y-116181238D01*
X147645476Y-116276476D01*
X147693095Y-116371714D01*
X118060742Y-118835466D02*
X118108361Y-118883085D01*
X118155980Y-119025942D01*
X118155980Y-119121180D01*
X118108361Y-119264038D01*
X118013123Y-119359276D01*
X117917885Y-119406895D01*
X117727409Y-119454514D01*
X117584552Y-119454514D01*
X117394076Y-119406895D01*
X117298838Y-119359276D01*
X117203600Y-119264038D01*
X117155980Y-119121180D01*
X117155980Y-119025942D01*
X117203600Y-118883085D01*
X117251219Y-118835466D01*
X117584552Y-118264038D02*
X117536933Y-118359276D01*
X117489314Y-118406895D01*
X117394076Y-118454514D01*
X117346457Y-118454514D01*
X117251219Y-118406895D01*
X117203600Y-118359276D01*
X117155980Y-118264038D01*
X117155980Y-118073561D01*
X117203600Y-117978323D01*
X117251219Y-117930704D01*
X117346457Y-117883085D01*
X117394076Y-117883085D01*
X117489314Y-117930704D01*
X117536933Y-117978323D01*
X117584552Y-118073561D01*
X117584552Y-118264038D01*
X117632171Y-118359276D01*
X117679790Y-118406895D01*
X117775028Y-118454514D01*
X117965504Y-118454514D01*
X118060742Y-118406895D01*
X118108361Y-118359276D01*
X118155980Y-118264038D01*
X118155980Y-118073561D01*
X118108361Y-117978323D01*
X118060742Y-117930704D01*
X117965504Y-117883085D01*
X117775028Y-117883085D01*
X117679790Y-117930704D01*
X117632171Y-117978323D01*
X117584552Y-118073561D01*
X118060742Y-113958666D02*
X118108361Y-114006285D01*
X118155980Y-114149142D01*
X118155980Y-114244380D01*
X118108361Y-114387238D01*
X118013123Y-114482476D01*
X117917885Y-114530095D01*
X117727409Y-114577714D01*
X117584552Y-114577714D01*
X117394076Y-114530095D01*
X117298838Y-114482476D01*
X117203600Y-114387238D01*
X117155980Y-114244380D01*
X117155980Y-114149142D01*
X117203600Y-114006285D01*
X117251219Y-113958666D01*
X118155980Y-113482476D02*
X118155980Y-113292000D01*
X118108361Y-113196761D01*
X118060742Y-113149142D01*
X117917885Y-113053904D01*
X117727409Y-113006285D01*
X117346457Y-113006285D01*
X117251219Y-113053904D01*
X117203600Y-113101523D01*
X117155980Y-113196761D01*
X117155980Y-113387238D01*
X117203600Y-113482476D01*
X117251219Y-113530095D01*
X117346457Y-113577714D01*
X117584552Y-113577714D01*
X117679790Y-113530095D01*
X117727409Y-113482476D01*
X117775028Y-113387238D01*
X117775028Y-113196761D01*
X117727409Y-113101523D01*
X117679790Y-113053904D01*
X117584552Y-113006285D01*
X119635542Y-127846057D02*
X119683161Y-127893676D01*
X119730780Y-128036533D01*
X119730780Y-128131771D01*
X119683161Y-128274628D01*
X119587923Y-128369866D01*
X119492685Y-128417485D01*
X119302209Y-128465104D01*
X119159352Y-128465104D01*
X118968876Y-128417485D01*
X118873638Y-128369866D01*
X118778400Y-128274628D01*
X118730780Y-128131771D01*
X118730780Y-128036533D01*
X118778400Y-127893676D01*
X118826019Y-127846057D01*
X119730780Y-126893676D02*
X119730780Y-127465104D01*
X119730780Y-127179390D02*
X118730780Y-127179390D01*
X118873638Y-127274628D01*
X118968876Y-127369866D01*
X119016495Y-127465104D01*
X118730780Y-126274628D02*
X118730780Y-126179390D01*
X118778400Y-126084152D01*
X118826019Y-126036533D01*
X118921257Y-125988914D01*
X119111733Y-125941295D01*
X119349828Y-125941295D01*
X119540304Y-125988914D01*
X119635542Y-126036533D01*
X119683161Y-126084152D01*
X119730780Y-126179390D01*
X119730780Y-126274628D01*
X119683161Y-126369866D01*
X119635542Y-126417485D01*
X119540304Y-126465104D01*
X119349828Y-126512723D01*
X119111733Y-126512723D01*
X118921257Y-126465104D01*
X118826019Y-126417485D01*
X118778400Y-126369866D01*
X118730780Y-126274628D01*
X117654342Y-133942057D02*
X117701961Y-133989676D01*
X117749580Y-134132533D01*
X117749580Y-134227771D01*
X117701961Y-134370628D01*
X117606723Y-134465866D01*
X117511485Y-134513485D01*
X117321009Y-134561104D01*
X117178152Y-134561104D01*
X116987676Y-134513485D01*
X116892438Y-134465866D01*
X116797200Y-134370628D01*
X116749580Y-134227771D01*
X116749580Y-134132533D01*
X116797200Y-133989676D01*
X116844819Y-133942057D01*
X117749580Y-132989676D02*
X117749580Y-133561104D01*
X117749580Y-133275390D02*
X116749580Y-133275390D01*
X116892438Y-133370628D01*
X116987676Y-133465866D01*
X117035295Y-133561104D01*
X117749580Y-132037295D02*
X117749580Y-132608723D01*
X117749580Y-132323009D02*
X116749580Y-132323009D01*
X116892438Y-132418247D01*
X116987676Y-132513485D01*
X117035295Y-132608723D01*
X121857066Y-124331702D02*
X121874495Y-124396750D01*
X121844306Y-124544278D01*
X121796687Y-124626756D01*
X121684019Y-124726665D01*
X121553922Y-124761524D01*
X121447634Y-124755145D01*
X121258867Y-124701146D01*
X121135149Y-124629717D01*
X120994001Y-124493240D01*
X120935332Y-124404382D01*
X120900473Y-124274284D01*
X120930662Y-124126756D01*
X120978281Y-124044278D01*
X121090949Y-123944369D01*
X121155998Y-123926940D01*
X122415735Y-123554534D02*
X122130021Y-124049406D01*
X122272878Y-123801970D02*
X121406852Y-123301970D01*
X121482951Y-123455878D01*
X121517811Y-123585975D01*
X121511431Y-123692263D01*
X121822664Y-122772239D02*
X121805234Y-122707190D01*
X121811614Y-122600902D01*
X121930662Y-122394706D01*
X122019520Y-122336037D01*
X122084569Y-122318607D01*
X122190857Y-122324986D01*
X122273336Y-122372606D01*
X122373244Y-122485273D01*
X122582401Y-123265859D01*
X122891925Y-122729748D01*
X110428209Y-120289580D02*
X110428209Y-119289580D01*
X111475828Y-120194342D02*
X111428209Y-120241961D01*
X111285352Y-120289580D01*
X111190114Y-120289580D01*
X111047257Y-120241961D01*
X110952019Y-120146723D01*
X110904400Y-120051485D01*
X110856780Y-119861009D01*
X110856780Y-119718152D01*
X110904400Y-119527676D01*
X110952019Y-119432438D01*
X111047257Y-119337200D01*
X111190114Y-119289580D01*
X111285352Y-119289580D01*
X111428209Y-119337200D01*
X111475828Y-119384819D01*
X112428209Y-120289580D02*
X111856780Y-120289580D01*
X112142495Y-120289580D02*
X112142495Y-119289580D01*
X112047257Y-119432438D01*
X111952019Y-119527676D01*
X111856780Y-119575295D01*
X132522933Y-114650780D02*
X132046742Y-114650780D01*
X132046742Y-113650780D01*
X132808647Y-113746019D02*
X132856266Y-113698400D01*
X132951504Y-113650780D01*
X133189600Y-113650780D01*
X133284838Y-113698400D01*
X133332457Y-113746019D01*
X133380076Y-113841257D01*
X133380076Y-113936495D01*
X133332457Y-114079352D01*
X132761028Y-114650780D01*
X133380076Y-114650780D01*
X123279066Y-134821561D02*
X123421923Y-134869180D01*
X123660019Y-134869180D01*
X123755257Y-134821561D01*
X123802876Y-134773942D01*
X123850495Y-134678704D01*
X123850495Y-134583466D01*
X123802876Y-134488228D01*
X123755257Y-134440609D01*
X123660019Y-134392990D01*
X123469542Y-134345371D01*
X123374304Y-134297752D01*
X123326685Y-134250133D01*
X123279066Y-134154895D01*
X123279066Y-134059657D01*
X123326685Y-133964419D01*
X123374304Y-133916800D01*
X123469542Y-133869180D01*
X123707638Y-133869180D01*
X123850495Y-133916800D01*
X124183828Y-133869180D02*
X124421923Y-134869180D01*
X124612400Y-134154895D01*
X124802876Y-134869180D01*
X125040971Y-133869180D01*
X125945733Y-134869180D02*
X125374304Y-134869180D01*
X125660019Y-134869180D02*
X125660019Y-133869180D01*
X125564780Y-134012038D01*
X125469542Y-134107276D01*
X125374304Y-134154895D01*
X138592038Y-124725180D02*
X138830133Y-125725180D01*
X139020609Y-125010895D01*
X139211085Y-125725180D01*
X139449180Y-124725180D01*
X140353942Y-125725180D02*
X139782514Y-125725180D01*
X140068228Y-125725180D02*
X140068228Y-124725180D01*
X139972990Y-124868038D01*
X139877752Y-124963276D01*
X139782514Y-125010895D01*
X134163133Y-124520810D02*
X134651935Y-125425112D01*
X134651050Y-124685866D01*
X135019906Y-125326514D01*
X134991070Y-124298965D01*
X135337695Y-124304685D02*
X135371366Y-124246364D01*
X135451034Y-124175718D01*
X135681017Y-124114094D01*
X135785334Y-124135441D01*
X135843656Y-124169113D01*
X135914302Y-124248781D01*
X135938951Y-124340774D01*
X135929929Y-124491088D01*
X135525868Y-125190942D01*
X136123822Y-125030721D01*
X123318590Y-117519390D02*
X123794780Y-117519390D01*
X122794780Y-117852723D02*
X123318590Y-117519390D01*
X122794780Y-117186057D01*
X123794780Y-116328914D02*
X123794780Y-116900342D01*
X123794780Y-116614628D02*
X122794780Y-116614628D01*
X122937638Y-116709866D01*
X123032876Y-116805104D01*
X123080495Y-116900342D01*
X132786418Y-132789307D02*
X132623551Y-132341835D01*
X133563244Y-131999815D01*
X133079578Y-133594758D02*
X132884138Y-133057791D01*
X132981858Y-133326275D02*
X133921551Y-132984255D01*
X133754736Y-132943620D01*
X133632668Y-132886699D01*
X133555347Y-132813491D01*
M02*
