G04 #@! TF.GenerationSoftware,KiCad,Pcbnew,5.1.6*
G04 #@! TF.CreationDate,2021-01-21T11:01:57+01:00*
G04 #@! TF.ProjectId,Scheda,53636865-6461-42e6-9b69-6361645f7063,1*
G04 #@! TF.SameCoordinates,Original*
G04 #@! TF.FileFunction,Soldermask,Top*
G04 #@! TF.FilePolarity,Negative*
%FSLAX46Y46*%
G04 Gerber Fmt 4.6, Leading zero omitted, Abs format (unit mm)*
G04 Created by KiCad (PCBNEW 5.1.6) date 2021-01-21 11:01:57*
%MOMM*%
%LPD*%
G01*
G04 APERTURE LIST*
%ADD10C,0.100000*%
G04 APERTURE END LIST*
D10*
G36*
X127074826Y-136463315D02*
G01*
X127293211Y-136553773D01*
X127293213Y-136553774D01*
X127489755Y-136685099D01*
X127656901Y-136852245D01*
X127759492Y-137005783D01*
X127788227Y-137048789D01*
X127878685Y-137267174D01*
X127924800Y-137499009D01*
X127924800Y-137735391D01*
X127878685Y-137967226D01*
X127815880Y-138118850D01*
X127788226Y-138185613D01*
X127656901Y-138382155D01*
X127489755Y-138549301D01*
X127293213Y-138680626D01*
X127293212Y-138680627D01*
X127293211Y-138680627D01*
X127074826Y-138771085D01*
X126842991Y-138817200D01*
X126606609Y-138817200D01*
X126374774Y-138771085D01*
X126156389Y-138680627D01*
X126156388Y-138680627D01*
X126156387Y-138680626D01*
X125959845Y-138549301D01*
X125792699Y-138382155D01*
X125661374Y-138185613D01*
X125633720Y-138118850D01*
X125570915Y-137967226D01*
X125524800Y-137735391D01*
X125524800Y-137499009D01*
X125570915Y-137267174D01*
X125661373Y-137048789D01*
X125690109Y-137005783D01*
X125792699Y-136852245D01*
X125959845Y-136685099D01*
X126156387Y-136553774D01*
X126156389Y-136553773D01*
X126374774Y-136463315D01*
X126606609Y-136417200D01*
X126842991Y-136417200D01*
X127074826Y-136463315D01*
G37*
G36*
X122574826Y-136463315D02*
G01*
X122793211Y-136553773D01*
X122793213Y-136553774D01*
X122989755Y-136685099D01*
X123156901Y-136852245D01*
X123259492Y-137005783D01*
X123288227Y-137048789D01*
X123378685Y-137267174D01*
X123424800Y-137499009D01*
X123424800Y-137735391D01*
X123378685Y-137967226D01*
X123315880Y-138118850D01*
X123288226Y-138185613D01*
X123156901Y-138382155D01*
X122989755Y-138549301D01*
X122793213Y-138680626D01*
X122793212Y-138680627D01*
X122793211Y-138680627D01*
X122574826Y-138771085D01*
X122342991Y-138817200D01*
X122106609Y-138817200D01*
X121874774Y-138771085D01*
X121656389Y-138680627D01*
X121656388Y-138680627D01*
X121656387Y-138680626D01*
X121459845Y-138549301D01*
X121292699Y-138382155D01*
X121161374Y-138185613D01*
X121133720Y-138118850D01*
X121070915Y-137967226D01*
X121024800Y-137735391D01*
X121024800Y-137499009D01*
X121070915Y-137267174D01*
X121161373Y-137048789D01*
X121190109Y-137005783D01*
X121292699Y-136852245D01*
X121459845Y-136685099D01*
X121656387Y-136553774D01*
X121656389Y-136553773D01*
X121874774Y-136463315D01*
X122106609Y-136417200D01*
X122342991Y-136417200D01*
X122574826Y-136463315D01*
G37*
G36*
X111736287Y-136064227D02*
G01*
X111913874Y-136099550D01*
X112104962Y-136178702D01*
X112276936Y-136293611D01*
X112423189Y-136439864D01*
X112538098Y-136611838D01*
X112617250Y-136802926D01*
X112657600Y-137005784D01*
X112657600Y-137212616D01*
X112617250Y-137415474D01*
X112538098Y-137606562D01*
X112423189Y-137778536D01*
X112276936Y-137924789D01*
X112104962Y-138039698D01*
X111913874Y-138118850D01*
X111736287Y-138154173D01*
X111711017Y-138159200D01*
X111504183Y-138159200D01*
X111478913Y-138154173D01*
X111301326Y-138118850D01*
X111110238Y-138039698D01*
X110938264Y-137924789D01*
X110792011Y-137778536D01*
X110677102Y-137606562D01*
X110597950Y-137415474D01*
X110557600Y-137212616D01*
X110557600Y-137005784D01*
X110597950Y-136802926D01*
X110677102Y-136611838D01*
X110792011Y-136439864D01*
X110938264Y-136293611D01*
X111110238Y-136178702D01*
X111301326Y-136099550D01*
X111478913Y-136064227D01*
X111504183Y-136059200D01*
X111711017Y-136059200D01*
X111736287Y-136064227D01*
G37*
G36*
X104428000Y-138159200D02*
G01*
X102328000Y-138159200D01*
X102328000Y-136059200D01*
X104428000Y-136059200D01*
X104428000Y-138159200D01*
G37*
G36*
X120277600Y-138159200D02*
G01*
X118177600Y-138159200D01*
X118177600Y-136059200D01*
X120277600Y-136059200D01*
X120277600Y-138159200D01*
G37*
G36*
X116816287Y-136064227D02*
G01*
X116993874Y-136099550D01*
X117184962Y-136178702D01*
X117356936Y-136293611D01*
X117503189Y-136439864D01*
X117618098Y-136611838D01*
X117697250Y-136802926D01*
X117737600Y-137005784D01*
X117737600Y-137212616D01*
X117697250Y-137415474D01*
X117618098Y-137606562D01*
X117503189Y-137778536D01*
X117356936Y-137924789D01*
X117184962Y-138039698D01*
X116993874Y-138118850D01*
X116816287Y-138154173D01*
X116791017Y-138159200D01*
X116584183Y-138159200D01*
X116558913Y-138154173D01*
X116381326Y-138118850D01*
X116190238Y-138039698D01*
X116018264Y-137924789D01*
X115872011Y-137778536D01*
X115757102Y-137606562D01*
X115677950Y-137415474D01*
X115637600Y-137212616D01*
X115637600Y-137005784D01*
X115677950Y-136802926D01*
X115757102Y-136611838D01*
X115872011Y-136439864D01*
X116018264Y-136293611D01*
X116190238Y-136178702D01*
X116381326Y-136099550D01*
X116558913Y-136064227D01*
X116584183Y-136059200D01*
X116791017Y-136059200D01*
X116816287Y-136064227D01*
G37*
G36*
X114276287Y-136064227D02*
G01*
X114453874Y-136099550D01*
X114644962Y-136178702D01*
X114816936Y-136293611D01*
X114963189Y-136439864D01*
X115078098Y-136611838D01*
X115157250Y-136802926D01*
X115197600Y-137005784D01*
X115197600Y-137212616D01*
X115157250Y-137415474D01*
X115078098Y-137606562D01*
X114963189Y-137778536D01*
X114816936Y-137924789D01*
X114644962Y-138039698D01*
X114453874Y-138118850D01*
X114276287Y-138154173D01*
X114251017Y-138159200D01*
X114044183Y-138159200D01*
X114018913Y-138154173D01*
X113841326Y-138118850D01*
X113650238Y-138039698D01*
X113478264Y-137924789D01*
X113332011Y-137778536D01*
X113217102Y-137606562D01*
X113137950Y-137415474D01*
X113097600Y-137212616D01*
X113097600Y-137005784D01*
X113137950Y-136802926D01*
X113217102Y-136611838D01*
X113332011Y-136439864D01*
X113478264Y-136293611D01*
X113650238Y-136178702D01*
X113841326Y-136099550D01*
X114018913Y-136064227D01*
X114044183Y-136059200D01*
X114251017Y-136059200D01*
X114276287Y-136064227D01*
G37*
G36*
X109196287Y-136064227D02*
G01*
X109373874Y-136099550D01*
X109564962Y-136178702D01*
X109736936Y-136293611D01*
X109883189Y-136439864D01*
X109998098Y-136611838D01*
X110077250Y-136802926D01*
X110117600Y-137005784D01*
X110117600Y-137212616D01*
X110077250Y-137415474D01*
X109998098Y-137606562D01*
X109883189Y-137778536D01*
X109736936Y-137924789D01*
X109564962Y-138039698D01*
X109373874Y-138118850D01*
X109196287Y-138154173D01*
X109171017Y-138159200D01*
X108964183Y-138159200D01*
X108938913Y-138154173D01*
X108761326Y-138118850D01*
X108570238Y-138039698D01*
X108398264Y-137924789D01*
X108252011Y-137778536D01*
X108137102Y-137606562D01*
X108057950Y-137415474D01*
X108017600Y-137212616D01*
X108017600Y-137005784D01*
X108057950Y-136802926D01*
X108137102Y-136611838D01*
X108252011Y-136439864D01*
X108398264Y-136293611D01*
X108570238Y-136178702D01*
X108761326Y-136099550D01*
X108938913Y-136064227D01*
X108964183Y-136059200D01*
X109171017Y-136059200D01*
X109196287Y-136064227D01*
G37*
G36*
X106656287Y-136064227D02*
G01*
X106833874Y-136099550D01*
X107024962Y-136178702D01*
X107196936Y-136293611D01*
X107343189Y-136439864D01*
X107458098Y-136611838D01*
X107537250Y-136802926D01*
X107577600Y-137005784D01*
X107577600Y-137212616D01*
X107537250Y-137415474D01*
X107458098Y-137606562D01*
X107343189Y-137778536D01*
X107196936Y-137924789D01*
X107024962Y-138039698D01*
X106833874Y-138118850D01*
X106656287Y-138154173D01*
X106631017Y-138159200D01*
X106424183Y-138159200D01*
X106398913Y-138154173D01*
X106221326Y-138118850D01*
X106030238Y-138039698D01*
X105858264Y-137924789D01*
X105712011Y-137778536D01*
X105597102Y-137606562D01*
X105517950Y-137415474D01*
X105477600Y-137212616D01*
X105477600Y-137005784D01*
X105517950Y-136802926D01*
X105597102Y-136611838D01*
X105712011Y-136439864D01*
X105858264Y-136293611D01*
X106030238Y-136178702D01*
X106221326Y-136099550D01*
X106398913Y-136064227D01*
X106424183Y-136059200D01*
X106631017Y-136059200D01*
X106656287Y-136064227D01*
G37*
G36*
X146127653Y-134413165D02*
G01*
X146291872Y-134445830D01*
X146601252Y-134573979D01*
X146879687Y-134760023D01*
X147116477Y-134996813D01*
X147302521Y-135275248D01*
X147430670Y-135584628D01*
X147444278Y-135653039D01*
X147496000Y-135913063D01*
X147496000Y-136247937D01*
X147463335Y-136412153D01*
X147430670Y-136576372D01*
X147302521Y-136885752D01*
X147116477Y-137164187D01*
X146879687Y-137400977D01*
X146601252Y-137587021D01*
X146291872Y-137715170D01*
X146127654Y-137747835D01*
X145963437Y-137780500D01*
X145628563Y-137780500D01*
X145464346Y-137747835D01*
X145300128Y-137715170D01*
X144990748Y-137587021D01*
X144712313Y-137400977D01*
X144475523Y-137164187D01*
X144289479Y-136885752D01*
X144161330Y-136576372D01*
X144128665Y-136412153D01*
X144096000Y-136247937D01*
X144096000Y-135913063D01*
X144147722Y-135653039D01*
X144161330Y-135584628D01*
X144289479Y-135275248D01*
X144475523Y-134996813D01*
X144712313Y-134760023D01*
X144990748Y-134573979D01*
X145300128Y-134445830D01*
X145464347Y-134413165D01*
X145628563Y-134380500D01*
X145963437Y-134380500D01*
X146127653Y-134413165D01*
G37*
G36*
X135702483Y-133362586D02*
G01*
X135876362Y-133397173D01*
X136203941Y-133532861D01*
X136498754Y-133729849D01*
X136749472Y-133980567D01*
X136946460Y-134275380D01*
X137082148Y-134602959D01*
X137096004Y-134672617D01*
X137142588Y-134906809D01*
X137151321Y-134950716D01*
X137151321Y-135305284D01*
X137082148Y-135653041D01*
X136946460Y-135980620D01*
X136749472Y-136275433D01*
X136498754Y-136526151D01*
X136203941Y-136723139D01*
X135876362Y-136858827D01*
X135702483Y-136893414D01*
X135528607Y-136928000D01*
X135174035Y-136928000D01*
X135000159Y-136893414D01*
X134826280Y-136858827D01*
X134498701Y-136723139D01*
X134203888Y-136526151D01*
X133953170Y-136275433D01*
X133756182Y-135980620D01*
X133620494Y-135653041D01*
X133551321Y-135305284D01*
X133551321Y-134950716D01*
X133560055Y-134906809D01*
X133606638Y-134672617D01*
X133620494Y-134602959D01*
X133756182Y-134275380D01*
X133953170Y-133980567D01*
X134203888Y-133729849D01*
X134498701Y-133532861D01*
X134826280Y-133397173D01*
X135000159Y-133362586D01*
X135174035Y-133328000D01*
X135528607Y-133328000D01*
X135702483Y-133362586D01*
G37*
G36*
X103506687Y-133524227D02*
G01*
X103684274Y-133559550D01*
X103875362Y-133638702D01*
X104047336Y-133753611D01*
X104193589Y-133899864D01*
X104308498Y-134071838D01*
X104387650Y-134262926D01*
X104428000Y-134465784D01*
X104428000Y-134672616D01*
X104387650Y-134875474D01*
X104308498Y-135066562D01*
X104193589Y-135238536D01*
X104047336Y-135384789D01*
X103875362Y-135499698D01*
X103684274Y-135578850D01*
X103506687Y-135614173D01*
X103481417Y-135619200D01*
X103274583Y-135619200D01*
X103249313Y-135614173D01*
X103071726Y-135578850D01*
X102880638Y-135499698D01*
X102708664Y-135384789D01*
X102562411Y-135238536D01*
X102447502Y-135066562D01*
X102368350Y-134875474D01*
X102328000Y-134672616D01*
X102328000Y-134465784D01*
X102368350Y-134262926D01*
X102447502Y-134071838D01*
X102562411Y-133899864D01*
X102708664Y-133753611D01*
X102880638Y-133638702D01*
X103071726Y-133559550D01*
X103249313Y-133524227D01*
X103274583Y-133519200D01*
X103481417Y-133519200D01*
X103506687Y-133524227D01*
G37*
G36*
X108097963Y-131584587D02*
G01*
X108271841Y-131619173D01*
X108599420Y-131754861D01*
X108894233Y-131951849D01*
X109144951Y-132202567D01*
X109341939Y-132497380D01*
X109477627Y-132824959D01*
X109481571Y-132844788D01*
X109546800Y-133172714D01*
X109546800Y-133527286D01*
X109545691Y-133532860D01*
X109477627Y-133875041D01*
X109341939Y-134202620D01*
X109144951Y-134497433D01*
X108894233Y-134748151D01*
X108599420Y-134945139D01*
X108271841Y-135080827D01*
X108097962Y-135115414D01*
X107924086Y-135150000D01*
X107569514Y-135150000D01*
X107395638Y-135115414D01*
X107221759Y-135080827D01*
X106894180Y-134945139D01*
X106599367Y-134748151D01*
X106348649Y-134497433D01*
X106151661Y-134202620D01*
X106015973Y-133875041D01*
X105947909Y-133532860D01*
X105946800Y-133527286D01*
X105946800Y-133172714D01*
X106012029Y-132844788D01*
X106015973Y-132824959D01*
X106151661Y-132497380D01*
X106348649Y-132202567D01*
X106599367Y-131951849D01*
X106894180Y-131754861D01*
X107221759Y-131619173D01*
X107395637Y-131584587D01*
X107569514Y-131550000D01*
X107924086Y-131550000D01*
X108097963Y-131584587D01*
G37*
G36*
X119836929Y-133383350D02*
G01*
X119886778Y-133398471D01*
X119932710Y-133423022D01*
X119972974Y-133456066D01*
X120006018Y-133496330D01*
X120030569Y-133542262D01*
X120045690Y-133592111D01*
X120051400Y-133650084D01*
X120051400Y-134655196D01*
X120045690Y-134713169D01*
X120030569Y-134763018D01*
X120006018Y-134808950D01*
X119972974Y-134849214D01*
X119932710Y-134882258D01*
X119886778Y-134906809D01*
X119836929Y-134921930D01*
X119778956Y-134927640D01*
X118523844Y-134927640D01*
X118465871Y-134921930D01*
X118416022Y-134906809D01*
X118370090Y-134882258D01*
X118329826Y-134849214D01*
X118296782Y-134808950D01*
X118272231Y-134763018D01*
X118257110Y-134713169D01*
X118251400Y-134655196D01*
X118251400Y-133650084D01*
X118257110Y-133592111D01*
X118272231Y-133542262D01*
X118296782Y-133496330D01*
X118329826Y-133456066D01*
X118370090Y-133423022D01*
X118416022Y-133398471D01*
X118465871Y-133383350D01*
X118523844Y-133377640D01*
X119778956Y-133377640D01*
X119836929Y-133383350D01*
G37*
G36*
X103506687Y-130984227D02*
G01*
X103684274Y-131019550D01*
X103875362Y-131098702D01*
X104047336Y-131213611D01*
X104193589Y-131359864D01*
X104308498Y-131531838D01*
X104387650Y-131722926D01*
X104428000Y-131925784D01*
X104428000Y-132132616D01*
X104387650Y-132335474D01*
X104308498Y-132526562D01*
X104193589Y-132698536D01*
X104047336Y-132844789D01*
X103875362Y-132959698D01*
X103684274Y-133038850D01*
X103506687Y-133074173D01*
X103481417Y-133079200D01*
X103274583Y-133079200D01*
X103249313Y-133074173D01*
X103071726Y-133038850D01*
X102880638Y-132959698D01*
X102708664Y-132844789D01*
X102562411Y-132698536D01*
X102447502Y-132526562D01*
X102368350Y-132335474D01*
X102328000Y-132132616D01*
X102328000Y-131925784D01*
X102368350Y-131722926D01*
X102447502Y-131531838D01*
X102562411Y-131359864D01*
X102708664Y-131213611D01*
X102880638Y-131098702D01*
X103071726Y-131019550D01*
X103249313Y-130984227D01*
X103274583Y-130979200D01*
X103481417Y-130979200D01*
X103506687Y-130984227D01*
G37*
G36*
X119836929Y-131333350D02*
G01*
X119886778Y-131348471D01*
X119932710Y-131373022D01*
X119972974Y-131406066D01*
X120006018Y-131446330D01*
X120030569Y-131492262D01*
X120045690Y-131542111D01*
X120051400Y-131600084D01*
X120051400Y-132605196D01*
X120045690Y-132663169D01*
X120030569Y-132713018D01*
X120006018Y-132758950D01*
X119972974Y-132799214D01*
X119932710Y-132832258D01*
X119886778Y-132856809D01*
X119836929Y-132871930D01*
X119778956Y-132877640D01*
X118523844Y-132877640D01*
X118465871Y-132871930D01*
X118416022Y-132856809D01*
X118370090Y-132832258D01*
X118329826Y-132799214D01*
X118296782Y-132758950D01*
X118272231Y-132713018D01*
X118257110Y-132663169D01*
X118251400Y-132605196D01*
X118251400Y-131600084D01*
X118257110Y-131542111D01*
X118272231Y-131492262D01*
X118296782Y-131446330D01*
X118329826Y-131406066D01*
X118370090Y-131373022D01*
X118416022Y-131348471D01*
X118465871Y-131333350D01*
X118523844Y-131327640D01*
X119778956Y-131327640D01*
X119836929Y-131333350D01*
G37*
G36*
X147496000Y-132700500D02*
G01*
X144096000Y-132700500D01*
X144096000Y-129300500D01*
X147496000Y-129300500D01*
X147496000Y-132700500D01*
G37*
G36*
X122574826Y-129963315D02*
G01*
X122793211Y-130053773D01*
X122793213Y-130053774D01*
X122989755Y-130185099D01*
X123156901Y-130352245D01*
X123254859Y-130498849D01*
X123288227Y-130548789D01*
X123378685Y-130767174D01*
X123424800Y-130999009D01*
X123424800Y-131235391D01*
X123378685Y-131467226D01*
X123288227Y-131685611D01*
X123288226Y-131685613D01*
X123156901Y-131882155D01*
X122989755Y-132049301D01*
X122793213Y-132180626D01*
X122793212Y-132180627D01*
X122793211Y-132180627D01*
X122574826Y-132271085D01*
X122342991Y-132317200D01*
X122106609Y-132317200D01*
X121874774Y-132271085D01*
X121656389Y-132180627D01*
X121656388Y-132180627D01*
X121656387Y-132180626D01*
X121459845Y-132049301D01*
X121292699Y-131882155D01*
X121161374Y-131685613D01*
X121161373Y-131685611D01*
X121070915Y-131467226D01*
X121024800Y-131235391D01*
X121024800Y-130999009D01*
X121070915Y-130767174D01*
X121161373Y-130548789D01*
X121194742Y-130498849D01*
X121292699Y-130352245D01*
X121459845Y-130185099D01*
X121656387Y-130053774D01*
X121656389Y-130053773D01*
X121874774Y-129963315D01*
X122106609Y-129917200D01*
X122342991Y-129917200D01*
X122574826Y-129963315D01*
G37*
G36*
X127074826Y-129963315D02*
G01*
X127293211Y-130053773D01*
X127293213Y-130053774D01*
X127489755Y-130185099D01*
X127656901Y-130352245D01*
X127754859Y-130498849D01*
X127788227Y-130548789D01*
X127878685Y-130767174D01*
X127924800Y-130999009D01*
X127924800Y-131235391D01*
X127878685Y-131467226D01*
X127788227Y-131685611D01*
X127788226Y-131685613D01*
X127656901Y-131882155D01*
X127489755Y-132049301D01*
X127293213Y-132180626D01*
X127293212Y-132180627D01*
X127293211Y-132180627D01*
X127074826Y-132271085D01*
X126842991Y-132317200D01*
X126606609Y-132317200D01*
X126374774Y-132271085D01*
X126156389Y-132180627D01*
X126156388Y-132180627D01*
X126156387Y-132180626D01*
X125959845Y-132049301D01*
X125792699Y-131882155D01*
X125661374Y-131685613D01*
X125661373Y-131685611D01*
X125570915Y-131467226D01*
X125524800Y-131235391D01*
X125524800Y-130999009D01*
X125570915Y-130767174D01*
X125661373Y-130548789D01*
X125694742Y-130498849D01*
X125792699Y-130352245D01*
X125959845Y-130185099D01*
X126156387Y-130053774D01*
X126156389Y-130053773D01*
X126374774Y-129963315D01*
X126606609Y-129917200D01*
X126842991Y-129917200D01*
X127074826Y-129963315D01*
G37*
G36*
X133649536Y-127724266D02*
G01*
X133824241Y-127759017D01*
X134151820Y-127894705D01*
X134446633Y-128091693D01*
X134697351Y-128342411D01*
X134762023Y-128439200D01*
X134894340Y-128637226D01*
X134917620Y-128693429D01*
X135030027Y-128964803D01*
X135035405Y-128991840D01*
X135099200Y-129312558D01*
X135099200Y-129667130D01*
X135064614Y-129841006D01*
X135030027Y-130014885D01*
X134894339Y-130342464D01*
X134697351Y-130637277D01*
X134446633Y-130887995D01*
X134151820Y-131084983D01*
X134151819Y-131084984D01*
X134151818Y-131084984D01*
X134095615Y-131108264D01*
X133824241Y-131220671D01*
X133650362Y-131255258D01*
X133476486Y-131289844D01*
X133121914Y-131289844D01*
X132948038Y-131255258D01*
X132774159Y-131220671D01*
X132502785Y-131108264D01*
X132446582Y-131084984D01*
X132446581Y-131084984D01*
X132446580Y-131084983D01*
X132151767Y-130887995D01*
X131901049Y-130637277D01*
X131704061Y-130342464D01*
X131568373Y-130014885D01*
X131533786Y-129841006D01*
X131499200Y-129667130D01*
X131499200Y-129312558D01*
X131562995Y-128991840D01*
X131568373Y-128964803D01*
X131680780Y-128693429D01*
X131704060Y-128637226D01*
X131836377Y-128439200D01*
X131901049Y-128342411D01*
X132151767Y-128091693D01*
X132446580Y-127894705D01*
X132774159Y-127759017D01*
X132948864Y-127724266D01*
X133121914Y-127689844D01*
X133476486Y-127689844D01*
X133649536Y-127724266D01*
G37*
G36*
X118155357Y-127662426D02*
G01*
X118197748Y-127675285D01*
X118236813Y-127696166D01*
X118271054Y-127724266D01*
X118299154Y-127758507D01*
X118320035Y-127797572D01*
X118332894Y-127839963D01*
X118337840Y-127890183D01*
X118337840Y-130824777D01*
X118332894Y-130874997D01*
X118320035Y-130917388D01*
X118299154Y-130956453D01*
X118271054Y-130990694D01*
X118236813Y-131018794D01*
X118197748Y-131039675D01*
X118155357Y-131052534D01*
X118105137Y-131057480D01*
X116570543Y-131057480D01*
X116520323Y-131052534D01*
X116477932Y-131039675D01*
X116438867Y-131018794D01*
X116404626Y-130990694D01*
X116376526Y-130956453D01*
X116355645Y-130917388D01*
X116342786Y-130874997D01*
X116337840Y-130824777D01*
X116337840Y-127890183D01*
X116342786Y-127839963D01*
X116355645Y-127797572D01*
X116376526Y-127758507D01*
X116404626Y-127724266D01*
X116438867Y-127696166D01*
X116477932Y-127675285D01*
X116520323Y-127662426D01*
X116570543Y-127657480D01*
X118105137Y-127657480D01*
X118155357Y-127662426D01*
G37*
G36*
X103506687Y-128444227D02*
G01*
X103684274Y-128479550D01*
X103875362Y-128558702D01*
X104047336Y-128673611D01*
X104193589Y-128819864D01*
X104308498Y-128991838D01*
X104387650Y-129182926D01*
X104428000Y-129385784D01*
X104428000Y-129592616D01*
X104387650Y-129795474D01*
X104308498Y-129986562D01*
X104193589Y-130158536D01*
X104047336Y-130304789D01*
X103875362Y-130419698D01*
X103684274Y-130498850D01*
X103506687Y-130534173D01*
X103481417Y-130539200D01*
X103274583Y-130539200D01*
X103249313Y-130534173D01*
X103071726Y-130498850D01*
X102880638Y-130419698D01*
X102708664Y-130304789D01*
X102562411Y-130158536D01*
X102447502Y-129986562D01*
X102368350Y-129795474D01*
X102328000Y-129592616D01*
X102328000Y-129385784D01*
X102368350Y-129182926D01*
X102447502Y-128991838D01*
X102562411Y-128819864D01*
X102708664Y-128673611D01*
X102880638Y-128558702D01*
X103071726Y-128479550D01*
X103249313Y-128444227D01*
X103274583Y-128439200D01*
X103481417Y-128439200D01*
X103506687Y-128444227D01*
G37*
G36*
X103506687Y-125904227D02*
G01*
X103684274Y-125939550D01*
X103875362Y-126018702D01*
X104047336Y-126133611D01*
X104193589Y-126279864D01*
X104308498Y-126451838D01*
X104387650Y-126642926D01*
X104428000Y-126845784D01*
X104428000Y-127052616D01*
X104387650Y-127255474D01*
X104308498Y-127446562D01*
X104193589Y-127618536D01*
X104047336Y-127764789D01*
X103875362Y-127879698D01*
X103684274Y-127958850D01*
X103506687Y-127994173D01*
X103481417Y-127999200D01*
X103274583Y-127999200D01*
X103249313Y-127994173D01*
X103071726Y-127958850D01*
X102880638Y-127879698D01*
X102708664Y-127764789D01*
X102562411Y-127618536D01*
X102447502Y-127446562D01*
X102368350Y-127255474D01*
X102328000Y-127052616D01*
X102328000Y-126845784D01*
X102368350Y-126642926D01*
X102447502Y-126451838D01*
X102562411Y-126279864D01*
X102708664Y-126133611D01*
X102880638Y-126018702D01*
X103071726Y-125939550D01*
X103249313Y-125904227D01*
X103274583Y-125899200D01*
X103481417Y-125899200D01*
X103506687Y-125904227D01*
G37*
G36*
X127077887Y-125447027D02*
G01*
X127255474Y-125482350D01*
X127446562Y-125561502D01*
X127618536Y-125676411D01*
X127764789Y-125822664D01*
X127879698Y-125994638D01*
X127958850Y-126185726D01*
X127999200Y-126388584D01*
X127999200Y-126595416D01*
X127958850Y-126798274D01*
X127879698Y-126989362D01*
X127764789Y-127161336D01*
X127618536Y-127307589D01*
X127446562Y-127422498D01*
X127255474Y-127501650D01*
X127077887Y-127536973D01*
X127052617Y-127542000D01*
X126845783Y-127542000D01*
X126820513Y-127536973D01*
X126642926Y-127501650D01*
X126451838Y-127422498D01*
X126279864Y-127307589D01*
X126133611Y-127161336D01*
X126018702Y-126989362D01*
X125939550Y-126798274D01*
X125899200Y-126595416D01*
X125899200Y-126388584D01*
X125939550Y-126185726D01*
X126018702Y-125994638D01*
X126133611Y-125822664D01*
X126279864Y-125676411D01*
X126451838Y-125561502D01*
X126642926Y-125482350D01*
X126820513Y-125447027D01*
X126845783Y-125442000D01*
X127052617Y-125442000D01*
X127077887Y-125447027D01*
G37*
G36*
X125459200Y-127542000D02*
G01*
X123359200Y-127542000D01*
X123359200Y-125442000D01*
X125459200Y-125442000D01*
X125459200Y-127542000D01*
G37*
G36*
X143036000Y-127415000D02*
G01*
X140936000Y-127415000D01*
X140936000Y-125315000D01*
X143036000Y-125315000D01*
X143036000Y-127415000D01*
G37*
G36*
X146972663Y-123139087D02*
G01*
X147146541Y-123173673D01*
X147474120Y-123309361D01*
X147768933Y-123506349D01*
X148019651Y-123757067D01*
X148216639Y-124051880D01*
X148352327Y-124379459D01*
X148375177Y-124494335D01*
X148400182Y-124620040D01*
X148421500Y-124727216D01*
X148421500Y-125081784D01*
X148352327Y-125429541D01*
X148216639Y-125757120D01*
X148019651Y-126051933D01*
X147768933Y-126302651D01*
X147474120Y-126499639D01*
X147146541Y-126635327D01*
X146972662Y-126669914D01*
X146798786Y-126704500D01*
X146444214Y-126704500D01*
X146270338Y-126669914D01*
X146096459Y-126635327D01*
X145768880Y-126499639D01*
X145474067Y-126302651D01*
X145223349Y-126051933D01*
X145026361Y-125757120D01*
X144890673Y-125429541D01*
X144821500Y-125081784D01*
X144821500Y-124727216D01*
X144842819Y-124620040D01*
X144867823Y-124494335D01*
X144890673Y-124379459D01*
X145026361Y-124051880D01*
X145223349Y-123757067D01*
X145474067Y-123506349D01*
X145768880Y-123309361D01*
X146096459Y-123173673D01*
X146270337Y-123139087D01*
X146444214Y-123104500D01*
X146798786Y-123104500D01*
X146972663Y-123139087D01*
G37*
G36*
X118155357Y-123262426D02*
G01*
X118197748Y-123275285D01*
X118236813Y-123296166D01*
X118271054Y-123324266D01*
X118299154Y-123358507D01*
X118320035Y-123397572D01*
X118332894Y-123439963D01*
X118337840Y-123490183D01*
X118337840Y-126424777D01*
X118332894Y-126474997D01*
X118320035Y-126517388D01*
X118299154Y-126556453D01*
X118271054Y-126590694D01*
X118236813Y-126618794D01*
X118197748Y-126639675D01*
X118155357Y-126652534D01*
X118105137Y-126657480D01*
X116570543Y-126657480D01*
X116520323Y-126652534D01*
X116477932Y-126639675D01*
X116438867Y-126618794D01*
X116404626Y-126590694D01*
X116376526Y-126556453D01*
X116355645Y-126517388D01*
X116342786Y-126474997D01*
X116337840Y-126424777D01*
X116337840Y-123490183D01*
X116342786Y-123439963D01*
X116355645Y-123397572D01*
X116376526Y-123358507D01*
X116404626Y-123324266D01*
X116438867Y-123296166D01*
X116477932Y-123275285D01*
X116520323Y-123262426D01*
X116570543Y-123257480D01*
X118105137Y-123257480D01*
X118155357Y-123262426D01*
G37*
G36*
X130364835Y-124072427D02*
G01*
X130542422Y-124107750D01*
X130733510Y-124186902D01*
X130905484Y-124301811D01*
X131051737Y-124448064D01*
X131166646Y-124620038D01*
X131245798Y-124811126D01*
X131286148Y-125013984D01*
X131286148Y-125220816D01*
X131245798Y-125423674D01*
X131166646Y-125614762D01*
X131051737Y-125786736D01*
X130905484Y-125932989D01*
X130733510Y-126047898D01*
X130542422Y-126127050D01*
X130364835Y-126162373D01*
X130339565Y-126167400D01*
X130132731Y-126167400D01*
X130107461Y-126162373D01*
X129929874Y-126127050D01*
X129738786Y-126047898D01*
X129566812Y-125932989D01*
X129420559Y-125786736D01*
X129305650Y-125614762D01*
X129226498Y-125423674D01*
X129186148Y-125220816D01*
X129186148Y-125013984D01*
X129226498Y-124811126D01*
X129305650Y-124620038D01*
X129420559Y-124448064D01*
X129566812Y-124301811D01*
X129738786Y-124186902D01*
X129929874Y-124107750D01*
X130107461Y-124072427D01*
X130132731Y-124067400D01*
X130339565Y-124067400D01*
X130364835Y-124072427D01*
G37*
G36*
X133975582Y-125202462D02*
G01*
X131947138Y-125745982D01*
X131403618Y-123717538D01*
X133432062Y-123174018D01*
X133975582Y-125202462D01*
G37*
G36*
X142114687Y-122780027D02*
G01*
X142292274Y-122815350D01*
X142483362Y-122894502D01*
X142655336Y-123009411D01*
X142801589Y-123155664D01*
X142916498Y-123327638D01*
X142995650Y-123518726D01*
X143036000Y-123721584D01*
X143036000Y-123928416D01*
X142995650Y-124131274D01*
X142916498Y-124322362D01*
X142801589Y-124494336D01*
X142655336Y-124640589D01*
X142483362Y-124755498D01*
X142292274Y-124834650D01*
X142114687Y-124869973D01*
X142089417Y-124875000D01*
X141882583Y-124875000D01*
X141857313Y-124869973D01*
X141679726Y-124834650D01*
X141488638Y-124755498D01*
X141316664Y-124640589D01*
X141170411Y-124494336D01*
X141055502Y-124322362D01*
X140976350Y-124131274D01*
X140936000Y-123928416D01*
X140936000Y-123721584D01*
X140976350Y-123518726D01*
X141055502Y-123327638D01*
X141170411Y-123155664D01*
X141316664Y-123009411D01*
X141488638Y-122894502D01*
X141679726Y-122815350D01*
X141857313Y-122780027D01*
X141882583Y-122775000D01*
X142089417Y-122775000D01*
X142114687Y-122780027D01*
G37*
G36*
X109121603Y-114030115D02*
G01*
X109161069Y-114042088D01*
X109166237Y-114044228D01*
X109190270Y-114049008D01*
X109214774Y-114049008D01*
X109238807Y-114044227D01*
X109243975Y-114042086D01*
X109283437Y-114030115D01*
X109321160Y-114026400D01*
X109883880Y-114026400D01*
X109921603Y-114030115D01*
X109961069Y-114042088D01*
X109966237Y-114044228D01*
X109990270Y-114049008D01*
X110014774Y-114049008D01*
X110038807Y-114044227D01*
X110043975Y-114042086D01*
X110083437Y-114030115D01*
X110121160Y-114026400D01*
X110683880Y-114026400D01*
X110721603Y-114030115D01*
X110761069Y-114042088D01*
X110766237Y-114044228D01*
X110790270Y-114049008D01*
X110814774Y-114049008D01*
X110838807Y-114044227D01*
X110843975Y-114042086D01*
X110883437Y-114030115D01*
X110921160Y-114026400D01*
X111483880Y-114026400D01*
X111521603Y-114030115D01*
X111561069Y-114042088D01*
X111566237Y-114044228D01*
X111590270Y-114049008D01*
X111614774Y-114049008D01*
X111638807Y-114044227D01*
X111643975Y-114042086D01*
X111683437Y-114030115D01*
X111721160Y-114026400D01*
X112283880Y-114026400D01*
X112321603Y-114030115D01*
X112361069Y-114042088D01*
X112366237Y-114044228D01*
X112390270Y-114049008D01*
X112414774Y-114049008D01*
X112438807Y-114044227D01*
X112443975Y-114042086D01*
X112483437Y-114030115D01*
X112521160Y-114026400D01*
X113083880Y-114026400D01*
X113121603Y-114030115D01*
X113161069Y-114042088D01*
X113166237Y-114044228D01*
X113190270Y-114049008D01*
X113214774Y-114049008D01*
X113238807Y-114044227D01*
X113243975Y-114042086D01*
X113283437Y-114030115D01*
X113321160Y-114026400D01*
X113883880Y-114026400D01*
X113921603Y-114030115D01*
X113961069Y-114042088D01*
X113966237Y-114044228D01*
X113990270Y-114049008D01*
X114014774Y-114049008D01*
X114038807Y-114044227D01*
X114043975Y-114042086D01*
X114083437Y-114030115D01*
X114121160Y-114026400D01*
X114683880Y-114026400D01*
X114721603Y-114030115D01*
X114751974Y-114039328D01*
X114779965Y-114054290D01*
X114804497Y-114074423D01*
X114824630Y-114098955D01*
X114839592Y-114126946D01*
X114848805Y-114157317D01*
X114852520Y-114195040D01*
X114852520Y-115757757D01*
X114851756Y-115765513D01*
X114851756Y-115790017D01*
X114856536Y-115814050D01*
X114865913Y-115836689D01*
X114879526Y-115857064D01*
X114896853Y-115874391D01*
X114917227Y-115888005D01*
X114939866Y-115897383D01*
X114963899Y-115902164D01*
X114988407Y-115902164D01*
X114996163Y-115901400D01*
X116558880Y-115901400D01*
X116596603Y-115905115D01*
X116626974Y-115914328D01*
X116654965Y-115929290D01*
X116679497Y-115949423D01*
X116699630Y-115973955D01*
X116714592Y-116001946D01*
X116723805Y-116032317D01*
X116727520Y-116070040D01*
X116727520Y-116632760D01*
X116723805Y-116670483D01*
X116711832Y-116709949D01*
X116709692Y-116715117D01*
X116704912Y-116739150D01*
X116704912Y-116763654D01*
X116709693Y-116787687D01*
X116711834Y-116792855D01*
X116723805Y-116832317D01*
X116727520Y-116870040D01*
X116727520Y-117432760D01*
X116723805Y-117470483D01*
X116711832Y-117509949D01*
X116709692Y-117515117D01*
X116704912Y-117539150D01*
X116704912Y-117563654D01*
X116709693Y-117587687D01*
X116711834Y-117592855D01*
X116723805Y-117632317D01*
X116727520Y-117670040D01*
X116727520Y-118232760D01*
X116723805Y-118270483D01*
X116711832Y-118309949D01*
X116709692Y-118315117D01*
X116704912Y-118339150D01*
X116704912Y-118363654D01*
X116709693Y-118387687D01*
X116711834Y-118392855D01*
X116723805Y-118432317D01*
X116727520Y-118470040D01*
X116727520Y-119032760D01*
X116723805Y-119070483D01*
X116711832Y-119109949D01*
X116709692Y-119115117D01*
X116704912Y-119139150D01*
X116704912Y-119163654D01*
X116709693Y-119187687D01*
X116711834Y-119192855D01*
X116723805Y-119232317D01*
X116727520Y-119270040D01*
X116727520Y-119832760D01*
X116723805Y-119870483D01*
X116711832Y-119909949D01*
X116709692Y-119915117D01*
X116704912Y-119939150D01*
X116704912Y-119963654D01*
X116709693Y-119987687D01*
X116711834Y-119992855D01*
X116723805Y-120032317D01*
X116727520Y-120070040D01*
X116727520Y-120632760D01*
X116723805Y-120670483D01*
X116711832Y-120709949D01*
X116709692Y-120715117D01*
X116704912Y-120739150D01*
X116704912Y-120763654D01*
X116709693Y-120787687D01*
X116711834Y-120792855D01*
X116723805Y-120832317D01*
X116727520Y-120870040D01*
X116727520Y-121432760D01*
X116723805Y-121470483D01*
X116711832Y-121509949D01*
X116709692Y-121515117D01*
X116704912Y-121539150D01*
X116704912Y-121563654D01*
X116709693Y-121587687D01*
X116711834Y-121592855D01*
X116723805Y-121632317D01*
X116727520Y-121670040D01*
X116727520Y-122232760D01*
X116723805Y-122270483D01*
X116714592Y-122300854D01*
X116699630Y-122328845D01*
X116679497Y-122353377D01*
X116654965Y-122373510D01*
X116626974Y-122388472D01*
X116596603Y-122397685D01*
X116558880Y-122401400D01*
X114996163Y-122401400D01*
X114988407Y-122400636D01*
X114963903Y-122400636D01*
X114939870Y-122405416D01*
X114917231Y-122414793D01*
X114896856Y-122428406D01*
X114879529Y-122445733D01*
X114865915Y-122466107D01*
X114856537Y-122488746D01*
X114851756Y-122512779D01*
X114851756Y-122537287D01*
X114852520Y-122545043D01*
X114852520Y-124107760D01*
X114848805Y-124145483D01*
X114839592Y-124175854D01*
X114824630Y-124203845D01*
X114804497Y-124228377D01*
X114779965Y-124248510D01*
X114751974Y-124263472D01*
X114721603Y-124272685D01*
X114683880Y-124276400D01*
X114121160Y-124276400D01*
X114083437Y-124272685D01*
X114043971Y-124260712D01*
X114038803Y-124258572D01*
X114014770Y-124253792D01*
X113990266Y-124253792D01*
X113966233Y-124258573D01*
X113961065Y-124260714D01*
X113921603Y-124272685D01*
X113883880Y-124276400D01*
X113321160Y-124276400D01*
X113283437Y-124272685D01*
X113243971Y-124260712D01*
X113238803Y-124258572D01*
X113214770Y-124253792D01*
X113190266Y-124253792D01*
X113166233Y-124258573D01*
X113161065Y-124260714D01*
X113121603Y-124272685D01*
X113083880Y-124276400D01*
X112521160Y-124276400D01*
X112483437Y-124272685D01*
X112443971Y-124260712D01*
X112438803Y-124258572D01*
X112414770Y-124253792D01*
X112390266Y-124253792D01*
X112366233Y-124258573D01*
X112361065Y-124260714D01*
X112321603Y-124272685D01*
X112283880Y-124276400D01*
X111721160Y-124276400D01*
X111683437Y-124272685D01*
X111643971Y-124260712D01*
X111638803Y-124258572D01*
X111614770Y-124253792D01*
X111590266Y-124253792D01*
X111566233Y-124258573D01*
X111561065Y-124260714D01*
X111521603Y-124272685D01*
X111483880Y-124276400D01*
X110921160Y-124276400D01*
X110883437Y-124272685D01*
X110843971Y-124260712D01*
X110838803Y-124258572D01*
X110814770Y-124253792D01*
X110790266Y-124253792D01*
X110766233Y-124258573D01*
X110761065Y-124260714D01*
X110721603Y-124272685D01*
X110683880Y-124276400D01*
X110121160Y-124276400D01*
X110083437Y-124272685D01*
X110043971Y-124260712D01*
X110038803Y-124258572D01*
X110014770Y-124253792D01*
X109990266Y-124253792D01*
X109966233Y-124258573D01*
X109961065Y-124260714D01*
X109921603Y-124272685D01*
X109883880Y-124276400D01*
X109321160Y-124276400D01*
X109283437Y-124272685D01*
X109243971Y-124260712D01*
X109238803Y-124258572D01*
X109214770Y-124253792D01*
X109190266Y-124253792D01*
X109166233Y-124258573D01*
X109161065Y-124260714D01*
X109121603Y-124272685D01*
X109083880Y-124276400D01*
X108521160Y-124276400D01*
X108483437Y-124272685D01*
X108453066Y-124263472D01*
X108425075Y-124248510D01*
X108400543Y-124228377D01*
X108380410Y-124203845D01*
X108365448Y-124175854D01*
X108356235Y-124145483D01*
X108352520Y-124107760D01*
X108352520Y-122545043D01*
X108353284Y-122537287D01*
X108353284Y-122512783D01*
X108348504Y-122488750D01*
X108339127Y-122466111D01*
X108325514Y-122445736D01*
X108308187Y-122428409D01*
X108287813Y-122414795D01*
X108265174Y-122405417D01*
X108241141Y-122400636D01*
X108216633Y-122400636D01*
X108208877Y-122401400D01*
X106646160Y-122401400D01*
X106608437Y-122397685D01*
X106578066Y-122388472D01*
X106550075Y-122373510D01*
X106525543Y-122353377D01*
X106505410Y-122328845D01*
X106490448Y-122300854D01*
X106481235Y-122270483D01*
X106477520Y-122232760D01*
X106477520Y-121670040D01*
X106481235Y-121632317D01*
X106493208Y-121592851D01*
X106495348Y-121587683D01*
X106500128Y-121563650D01*
X106500128Y-121539146D01*
X106495347Y-121515113D01*
X106493206Y-121509945D01*
X106481235Y-121470483D01*
X106477520Y-121432760D01*
X106477520Y-120870040D01*
X106481235Y-120832317D01*
X106493208Y-120792851D01*
X106495348Y-120787683D01*
X106500128Y-120763650D01*
X106500128Y-120739146D01*
X106495347Y-120715113D01*
X106493206Y-120709945D01*
X106481235Y-120670483D01*
X106477520Y-120632760D01*
X106477520Y-120070040D01*
X106481235Y-120032317D01*
X106493208Y-119992851D01*
X106495348Y-119987683D01*
X106500128Y-119963650D01*
X106500128Y-119939146D01*
X106495347Y-119915113D01*
X106493206Y-119909945D01*
X106481235Y-119870483D01*
X106477520Y-119832760D01*
X106477520Y-119270040D01*
X106481235Y-119232317D01*
X106493208Y-119192851D01*
X106495348Y-119187683D01*
X106500128Y-119163650D01*
X106500128Y-119139146D01*
X106495347Y-119115113D01*
X106493206Y-119109945D01*
X106481235Y-119070483D01*
X106477520Y-119032760D01*
X106477520Y-118470040D01*
X106481235Y-118432317D01*
X106493208Y-118392851D01*
X106495348Y-118387683D01*
X106500128Y-118363650D01*
X106500128Y-118339146D01*
X106495347Y-118315113D01*
X106493206Y-118309945D01*
X106481235Y-118270483D01*
X106477520Y-118232760D01*
X106477520Y-117670040D01*
X106481235Y-117632317D01*
X106493208Y-117592851D01*
X106495348Y-117587683D01*
X106500128Y-117563650D01*
X106500128Y-117539146D01*
X106495347Y-117515113D01*
X106493206Y-117509945D01*
X106481235Y-117470483D01*
X106477520Y-117432760D01*
X106477520Y-116870040D01*
X106481235Y-116832317D01*
X106493208Y-116792851D01*
X106495348Y-116787683D01*
X106500128Y-116763650D01*
X106500128Y-116739150D01*
X108354912Y-116739150D01*
X108354912Y-116763654D01*
X108359693Y-116787687D01*
X108361834Y-116792855D01*
X108373805Y-116832317D01*
X108377520Y-116870040D01*
X108377520Y-117432760D01*
X108373805Y-117470483D01*
X108361832Y-117509949D01*
X108359692Y-117515117D01*
X108354912Y-117539150D01*
X108354912Y-117563654D01*
X108359693Y-117587687D01*
X108361834Y-117592855D01*
X108373805Y-117632317D01*
X108377520Y-117670040D01*
X108377520Y-118232760D01*
X108373805Y-118270483D01*
X108361832Y-118309949D01*
X108359692Y-118315117D01*
X108354912Y-118339150D01*
X108354912Y-118363654D01*
X108359693Y-118387687D01*
X108361834Y-118392855D01*
X108373805Y-118432317D01*
X108377520Y-118470040D01*
X108377520Y-119032760D01*
X108373805Y-119070483D01*
X108361832Y-119109949D01*
X108359692Y-119115117D01*
X108354912Y-119139150D01*
X108354912Y-119163654D01*
X108359693Y-119187687D01*
X108361834Y-119192855D01*
X108373805Y-119232317D01*
X108377520Y-119270040D01*
X108377520Y-119832760D01*
X108373805Y-119870483D01*
X108361832Y-119909949D01*
X108359692Y-119915117D01*
X108354912Y-119939150D01*
X108354912Y-119963654D01*
X108359693Y-119987687D01*
X108361834Y-119992855D01*
X108373805Y-120032317D01*
X108377520Y-120070040D01*
X108377520Y-120632760D01*
X108373805Y-120670483D01*
X108361832Y-120709949D01*
X108359692Y-120715117D01*
X108354912Y-120739150D01*
X108354912Y-120763654D01*
X108359693Y-120787687D01*
X108361834Y-120792855D01*
X108373805Y-120832317D01*
X108377520Y-120870040D01*
X108377520Y-121432760D01*
X108373805Y-121470483D01*
X108361832Y-121509949D01*
X108359692Y-121515117D01*
X108354912Y-121539150D01*
X108354912Y-121563654D01*
X108359693Y-121587687D01*
X108361834Y-121592855D01*
X108373805Y-121632317D01*
X108377520Y-121670040D01*
X108377520Y-122232757D01*
X108376756Y-122240513D01*
X108376756Y-122265017D01*
X108381536Y-122289050D01*
X108390913Y-122311689D01*
X108404526Y-122332064D01*
X108421853Y-122349391D01*
X108442227Y-122363005D01*
X108464866Y-122372383D01*
X108488899Y-122377164D01*
X108513407Y-122377164D01*
X108521163Y-122376400D01*
X109083880Y-122376400D01*
X109121603Y-122380115D01*
X109161069Y-122392088D01*
X109166237Y-122394228D01*
X109190270Y-122399008D01*
X109214774Y-122399008D01*
X109238807Y-122394227D01*
X109243975Y-122392086D01*
X109283437Y-122380115D01*
X109321160Y-122376400D01*
X109883880Y-122376400D01*
X109921603Y-122380115D01*
X109961069Y-122392088D01*
X109966237Y-122394228D01*
X109990270Y-122399008D01*
X110014774Y-122399008D01*
X110038807Y-122394227D01*
X110043975Y-122392086D01*
X110083437Y-122380115D01*
X110121160Y-122376400D01*
X110683880Y-122376400D01*
X110721603Y-122380115D01*
X110761069Y-122392088D01*
X110766237Y-122394228D01*
X110790270Y-122399008D01*
X110814774Y-122399008D01*
X110838807Y-122394227D01*
X110843975Y-122392086D01*
X110883437Y-122380115D01*
X110921160Y-122376400D01*
X111483880Y-122376400D01*
X111521603Y-122380115D01*
X111561069Y-122392088D01*
X111566237Y-122394228D01*
X111590270Y-122399008D01*
X111614774Y-122399008D01*
X111638807Y-122394227D01*
X111643975Y-122392086D01*
X111683437Y-122380115D01*
X111721160Y-122376400D01*
X112283880Y-122376400D01*
X112321603Y-122380115D01*
X112361069Y-122392088D01*
X112366237Y-122394228D01*
X112390270Y-122399008D01*
X112414774Y-122399008D01*
X112438807Y-122394227D01*
X112443975Y-122392086D01*
X112483437Y-122380115D01*
X112521160Y-122376400D01*
X113083880Y-122376400D01*
X113121603Y-122380115D01*
X113161069Y-122392088D01*
X113166237Y-122394228D01*
X113190270Y-122399008D01*
X113214774Y-122399008D01*
X113238807Y-122394227D01*
X113243975Y-122392086D01*
X113283437Y-122380115D01*
X113321160Y-122376400D01*
X113883880Y-122376400D01*
X113921603Y-122380115D01*
X113961069Y-122392088D01*
X113966237Y-122394228D01*
X113990270Y-122399008D01*
X114014774Y-122399008D01*
X114038807Y-122394227D01*
X114043975Y-122392086D01*
X114083437Y-122380115D01*
X114121160Y-122376400D01*
X114683877Y-122376400D01*
X114691633Y-122377164D01*
X114716137Y-122377164D01*
X114740170Y-122372384D01*
X114762809Y-122363007D01*
X114783184Y-122349394D01*
X114800511Y-122332067D01*
X114814125Y-122311693D01*
X114823503Y-122289054D01*
X114828284Y-122265021D01*
X114828284Y-122240513D01*
X114827520Y-122232757D01*
X114827520Y-121670040D01*
X114831235Y-121632317D01*
X114843208Y-121592851D01*
X114845348Y-121587683D01*
X114850128Y-121563650D01*
X114850128Y-121539146D01*
X114845347Y-121515113D01*
X114843206Y-121509945D01*
X114831235Y-121470483D01*
X114827520Y-121432760D01*
X114827520Y-120870040D01*
X114831235Y-120832317D01*
X114843208Y-120792851D01*
X114845348Y-120787683D01*
X114850128Y-120763650D01*
X114850128Y-120739146D01*
X114845347Y-120715113D01*
X114843206Y-120709945D01*
X114831235Y-120670483D01*
X114827520Y-120632760D01*
X114827520Y-120070040D01*
X114831235Y-120032317D01*
X114843208Y-119992851D01*
X114845348Y-119987683D01*
X114850128Y-119963650D01*
X114850128Y-119939146D01*
X114845347Y-119915113D01*
X114843206Y-119909945D01*
X114831235Y-119870483D01*
X114827520Y-119832760D01*
X114827520Y-119270040D01*
X114831235Y-119232317D01*
X114843208Y-119192851D01*
X114845348Y-119187683D01*
X114850128Y-119163650D01*
X114850128Y-119139146D01*
X114845347Y-119115113D01*
X114843206Y-119109945D01*
X114831235Y-119070483D01*
X114827520Y-119032760D01*
X114827520Y-118470040D01*
X114831235Y-118432317D01*
X114843208Y-118392851D01*
X114845348Y-118387683D01*
X114850128Y-118363650D01*
X114850128Y-118339146D01*
X114845347Y-118315113D01*
X114843206Y-118309945D01*
X114831235Y-118270483D01*
X114827520Y-118232760D01*
X114827520Y-117670040D01*
X114831235Y-117632317D01*
X114843208Y-117592851D01*
X114845348Y-117587683D01*
X114850128Y-117563650D01*
X114850128Y-117539146D01*
X114845347Y-117515113D01*
X114843206Y-117509945D01*
X114831235Y-117470483D01*
X114827520Y-117432760D01*
X114827520Y-116870040D01*
X114831235Y-116832317D01*
X114843208Y-116792851D01*
X114845348Y-116787683D01*
X114850128Y-116763650D01*
X114850128Y-116739146D01*
X114845347Y-116715113D01*
X114843206Y-116709945D01*
X114831235Y-116670483D01*
X114827520Y-116632760D01*
X114827520Y-116070043D01*
X114828284Y-116062287D01*
X114828284Y-116037783D01*
X114823504Y-116013750D01*
X114814127Y-115991111D01*
X114800514Y-115970736D01*
X114783187Y-115953409D01*
X114762813Y-115939795D01*
X114740174Y-115930417D01*
X114716141Y-115925636D01*
X114691633Y-115925636D01*
X114683877Y-115926400D01*
X114121160Y-115926400D01*
X114083437Y-115922685D01*
X114043971Y-115910712D01*
X114038803Y-115908572D01*
X114014770Y-115903792D01*
X113990266Y-115903792D01*
X113966233Y-115908573D01*
X113961065Y-115910714D01*
X113921603Y-115922685D01*
X113883880Y-115926400D01*
X113321160Y-115926400D01*
X113283437Y-115922685D01*
X113243971Y-115910712D01*
X113238803Y-115908572D01*
X113214770Y-115903792D01*
X113190266Y-115903792D01*
X113166233Y-115908573D01*
X113161065Y-115910714D01*
X113121603Y-115922685D01*
X113083880Y-115926400D01*
X112521160Y-115926400D01*
X112483437Y-115922685D01*
X112443971Y-115910712D01*
X112438803Y-115908572D01*
X112414770Y-115903792D01*
X112390266Y-115903792D01*
X112366233Y-115908573D01*
X112361065Y-115910714D01*
X112321603Y-115922685D01*
X112283880Y-115926400D01*
X111721160Y-115926400D01*
X111683437Y-115922685D01*
X111643971Y-115910712D01*
X111638803Y-115908572D01*
X111614770Y-115903792D01*
X111590266Y-115903792D01*
X111566233Y-115908573D01*
X111561065Y-115910714D01*
X111521603Y-115922685D01*
X111483880Y-115926400D01*
X110921160Y-115926400D01*
X110883437Y-115922685D01*
X110843971Y-115910712D01*
X110838803Y-115908572D01*
X110814770Y-115903792D01*
X110790266Y-115903792D01*
X110766233Y-115908573D01*
X110761065Y-115910714D01*
X110721603Y-115922685D01*
X110683880Y-115926400D01*
X110121160Y-115926400D01*
X110083437Y-115922685D01*
X110043971Y-115910712D01*
X110038803Y-115908572D01*
X110014770Y-115903792D01*
X109990266Y-115903792D01*
X109966233Y-115908573D01*
X109961065Y-115910714D01*
X109921603Y-115922685D01*
X109883880Y-115926400D01*
X109321160Y-115926400D01*
X109283437Y-115922685D01*
X109243971Y-115910712D01*
X109238803Y-115908572D01*
X109214770Y-115903792D01*
X109190266Y-115903792D01*
X109166233Y-115908573D01*
X109161065Y-115910714D01*
X109121603Y-115922685D01*
X109083880Y-115926400D01*
X108521163Y-115926400D01*
X108513407Y-115925636D01*
X108488903Y-115925636D01*
X108464870Y-115930416D01*
X108442231Y-115939793D01*
X108421856Y-115953406D01*
X108404529Y-115970733D01*
X108390915Y-115991107D01*
X108381537Y-116013746D01*
X108376756Y-116037779D01*
X108376756Y-116062287D01*
X108377520Y-116070043D01*
X108377520Y-116632760D01*
X108373805Y-116670483D01*
X108361832Y-116709949D01*
X108359692Y-116715117D01*
X108354912Y-116739150D01*
X106500128Y-116739150D01*
X106500128Y-116739146D01*
X106495347Y-116715113D01*
X106493206Y-116709945D01*
X106481235Y-116670483D01*
X106477520Y-116632760D01*
X106477520Y-116070040D01*
X106481235Y-116032317D01*
X106490448Y-116001946D01*
X106505410Y-115973955D01*
X106525543Y-115949423D01*
X106550075Y-115929290D01*
X106578066Y-115914328D01*
X106608437Y-115905115D01*
X106646160Y-115901400D01*
X108208877Y-115901400D01*
X108216633Y-115902164D01*
X108241137Y-115902164D01*
X108265170Y-115897384D01*
X108287809Y-115888007D01*
X108308184Y-115874394D01*
X108325511Y-115857067D01*
X108339125Y-115836693D01*
X108348503Y-115814054D01*
X108353284Y-115790021D01*
X108353284Y-115765513D01*
X108352520Y-115757757D01*
X108352520Y-114195040D01*
X108356235Y-114157317D01*
X108365448Y-114126946D01*
X108380410Y-114098955D01*
X108400543Y-114074423D01*
X108425075Y-114054290D01*
X108453066Y-114039328D01*
X108483437Y-114030115D01*
X108521160Y-114026400D01*
X109083880Y-114026400D01*
X109121603Y-114030115D01*
G37*
G36*
X120290420Y-121589449D02*
G01*
X120341144Y-121601276D01*
X120394217Y-121625323D01*
X121264658Y-122127872D01*
X121312014Y-122161807D01*
X121347621Y-122199824D01*
X121375128Y-122244058D01*
X121393473Y-122292799D01*
X121401958Y-122344195D01*
X121400254Y-122396251D01*
X121388427Y-122446975D01*
X121364380Y-122500048D01*
X120736831Y-123586995D01*
X120702896Y-123634352D01*
X120664880Y-123669958D01*
X120620644Y-123697465D01*
X120571904Y-123715810D01*
X120520507Y-123724295D01*
X120468452Y-123722591D01*
X120417728Y-123710764D01*
X120364655Y-123686717D01*
X119494214Y-123184168D01*
X119446858Y-123150233D01*
X119411251Y-123112216D01*
X119383744Y-123067982D01*
X119365399Y-123019241D01*
X119356914Y-122967845D01*
X119358618Y-122915789D01*
X119370445Y-122865065D01*
X119394492Y-122811992D01*
X120022041Y-121725045D01*
X120055976Y-121677688D01*
X120093992Y-121642082D01*
X120138228Y-121614575D01*
X120186968Y-121596230D01*
X120238365Y-121587745D01*
X120290420Y-121589449D01*
G37*
G36*
X104377200Y-122868400D02*
G01*
X102277200Y-122868400D01*
X102277200Y-120768400D01*
X104377200Y-120768400D01*
X104377200Y-122868400D01*
G37*
G36*
X120141729Y-119001870D02*
G01*
X120191578Y-119016991D01*
X120237510Y-119041542D01*
X120277774Y-119074586D01*
X120310818Y-119114850D01*
X120335369Y-119160782D01*
X120350490Y-119210631D01*
X120356200Y-119268604D01*
X120356200Y-120273716D01*
X120350490Y-120331689D01*
X120335369Y-120381538D01*
X120310818Y-120427470D01*
X120277774Y-120467734D01*
X120237510Y-120500778D01*
X120191578Y-120525329D01*
X120141729Y-120540450D01*
X120083756Y-120546160D01*
X118991553Y-120546160D01*
X118967167Y-120548562D01*
X118943718Y-120555675D01*
X118922107Y-120567226D01*
X118903165Y-120582771D01*
X118887620Y-120601713D01*
X118876069Y-120623324D01*
X118868956Y-120646773D01*
X118866554Y-120671159D01*
X118868956Y-120695545D01*
X118876069Y-120718994D01*
X118887620Y-120740605D01*
X118903165Y-120759547D01*
X118929054Y-120779411D01*
X119489306Y-121102872D01*
X119536662Y-121136807D01*
X119572269Y-121174824D01*
X119599776Y-121219058D01*
X119618121Y-121267799D01*
X119626606Y-121319195D01*
X119624902Y-121371251D01*
X119613075Y-121421975D01*
X119589028Y-121475048D01*
X118961479Y-122561995D01*
X118927544Y-122609352D01*
X118889528Y-122644958D01*
X118845292Y-122672465D01*
X118796552Y-122690810D01*
X118745155Y-122699295D01*
X118693100Y-122697591D01*
X118642376Y-122685764D01*
X118589303Y-122661717D01*
X117718862Y-122159168D01*
X117671506Y-122125233D01*
X117635899Y-122087216D01*
X117608392Y-122042982D01*
X117590047Y-121994241D01*
X117581562Y-121942845D01*
X117583266Y-121890789D01*
X117595093Y-121840065D01*
X117619140Y-121786992D01*
X118246689Y-120700045D01*
X118280624Y-120652688D01*
X118318640Y-120617082D01*
X118362876Y-120589575D01*
X118411616Y-120571230D01*
X118464749Y-120562458D01*
X118485712Y-120561084D01*
X118509381Y-120554741D01*
X118531358Y-120543902D01*
X118550798Y-120528984D01*
X118566954Y-120510561D01*
X118579205Y-120489339D01*
X118587081Y-120466135D01*
X118590278Y-120441840D01*
X118588675Y-120417389D01*
X118582332Y-120393720D01*
X118577476Y-120383005D01*
X118561910Y-120331689D01*
X118556200Y-120273716D01*
X118556200Y-119268604D01*
X118561910Y-119210631D01*
X118577031Y-119160782D01*
X118601582Y-119114850D01*
X118634626Y-119074586D01*
X118674890Y-119041542D01*
X118720822Y-119016991D01*
X118770671Y-119001870D01*
X118828644Y-118996160D01*
X120083756Y-118996160D01*
X120141729Y-119001870D01*
G37*
G36*
X146127654Y-117204665D02*
G01*
X146291872Y-117237330D01*
X146601252Y-117365479D01*
X146879687Y-117551523D01*
X147116477Y-117788313D01*
X147302521Y-118066748D01*
X147430670Y-118376128D01*
X147443250Y-118439373D01*
X147496000Y-118704563D01*
X147496000Y-119039437D01*
X147482815Y-119105723D01*
X147430670Y-119367872D01*
X147302521Y-119677252D01*
X147116477Y-119955687D01*
X146879687Y-120192477D01*
X146601252Y-120378521D01*
X146291872Y-120506670D01*
X146127654Y-120539335D01*
X145963437Y-120572000D01*
X145628563Y-120572000D01*
X145464346Y-120539335D01*
X145300128Y-120506670D01*
X144990748Y-120378521D01*
X144712313Y-120192477D01*
X144475523Y-119955687D01*
X144289479Y-119677252D01*
X144161330Y-119367872D01*
X144109185Y-119105723D01*
X144096000Y-119039437D01*
X144096000Y-118704563D01*
X144148750Y-118439373D01*
X144161330Y-118376128D01*
X144289479Y-118066748D01*
X144475523Y-117788313D01*
X144712313Y-117551523D01*
X144990748Y-117365479D01*
X145300128Y-117237330D01*
X145464346Y-117204665D01*
X145628563Y-117172000D01*
X145963437Y-117172000D01*
X146127654Y-117204665D01*
G37*
G36*
X123578536Y-118549854D02*
G01*
X123670305Y-118568108D01*
X123843194Y-118639721D01*
X123998790Y-118743687D01*
X124131113Y-118876010D01*
X124235079Y-119031606D01*
X124306692Y-119204495D01*
X124312226Y-119232317D01*
X124343200Y-119388032D01*
X124343200Y-119575168D01*
X124341309Y-119584674D01*
X124306692Y-119758705D01*
X124235079Y-119931594D01*
X124131113Y-120087190D01*
X123998790Y-120219513D01*
X123843194Y-120323479D01*
X123670305Y-120395092D01*
X123578536Y-120413346D01*
X123486768Y-120431600D01*
X123299632Y-120431600D01*
X123207864Y-120413346D01*
X123116095Y-120395092D01*
X122943206Y-120323479D01*
X122787610Y-120219513D01*
X122655287Y-120087190D01*
X122551321Y-119931594D01*
X122479708Y-119758705D01*
X122445091Y-119584674D01*
X122443200Y-119575168D01*
X122443200Y-119388032D01*
X122474174Y-119232317D01*
X122479708Y-119204495D01*
X122551321Y-119031606D01*
X122655287Y-118876010D01*
X122787610Y-118743687D01*
X122943206Y-118639721D01*
X123116095Y-118568108D01*
X123207864Y-118549854D01*
X123299632Y-118531600D01*
X123486768Y-118531600D01*
X123578536Y-118549854D01*
G37*
G36*
X103452536Y-118232760D02*
G01*
X103633474Y-118268750D01*
X103824562Y-118347902D01*
X103996536Y-118462811D01*
X104142789Y-118609064D01*
X104257698Y-118781038D01*
X104336850Y-118972126D01*
X104370072Y-119139150D01*
X104377200Y-119174983D01*
X104377200Y-119381817D01*
X104372173Y-119407087D01*
X104336850Y-119584674D01*
X104257698Y-119775762D01*
X104142789Y-119947736D01*
X103996536Y-120093989D01*
X103824562Y-120208898D01*
X103633474Y-120288050D01*
X103455887Y-120323373D01*
X103430617Y-120328400D01*
X103223783Y-120328400D01*
X103198513Y-120323373D01*
X103020926Y-120288050D01*
X102829838Y-120208898D01*
X102657864Y-120093989D01*
X102511611Y-119947736D01*
X102396702Y-119775762D01*
X102317550Y-119584674D01*
X102282227Y-119407087D01*
X102277200Y-119381817D01*
X102277200Y-119174983D01*
X102284328Y-119139150D01*
X102317550Y-118972126D01*
X102396702Y-118781038D01*
X102511611Y-118609064D01*
X102657864Y-118462811D01*
X102829838Y-118347902D01*
X103020926Y-118268750D01*
X103201864Y-118232760D01*
X103223783Y-118228400D01*
X103430617Y-118228400D01*
X103452536Y-118232760D01*
G37*
G36*
X140334000Y-119105000D02*
G01*
X137034000Y-119105000D01*
X137034000Y-113305000D01*
X140334000Y-113305000D01*
X140334000Y-119105000D01*
G37*
G36*
X130434000Y-119105000D02*
G01*
X127134000Y-119105000D01*
X127134000Y-113305000D01*
X130434000Y-113305000D01*
X130434000Y-119105000D01*
G37*
G36*
X120141729Y-116951870D02*
G01*
X120191578Y-116966991D01*
X120237510Y-116991542D01*
X120277774Y-117024586D01*
X120310818Y-117064850D01*
X120335369Y-117110782D01*
X120350490Y-117160631D01*
X120356200Y-117218604D01*
X120356200Y-118223716D01*
X120350490Y-118281689D01*
X120335369Y-118331538D01*
X120310818Y-118377470D01*
X120277774Y-118417734D01*
X120237510Y-118450778D01*
X120191578Y-118475329D01*
X120141729Y-118490450D01*
X120083756Y-118496160D01*
X118828644Y-118496160D01*
X118770671Y-118490450D01*
X118720822Y-118475329D01*
X118674890Y-118450778D01*
X118634626Y-118417734D01*
X118601582Y-118377470D01*
X118577031Y-118331538D01*
X118561910Y-118281689D01*
X118556200Y-118223716D01*
X118556200Y-117218604D01*
X118561910Y-117160631D01*
X118577031Y-117110782D01*
X118601582Y-117064850D01*
X118634626Y-117024586D01*
X118674890Y-116991542D01*
X118720822Y-116966991D01*
X118770671Y-116951870D01*
X118828644Y-116946160D01*
X120083756Y-116946160D01*
X120141729Y-116951870D01*
G37*
G36*
X103455887Y-115693427D02*
G01*
X103633474Y-115728750D01*
X103824562Y-115807902D01*
X103996536Y-115922811D01*
X104142789Y-116069064D01*
X104257698Y-116241038D01*
X104336850Y-116432126D01*
X104377200Y-116634984D01*
X104377200Y-116841816D01*
X104336850Y-117044674D01*
X104257698Y-117235762D01*
X104142789Y-117407736D01*
X103996536Y-117553989D01*
X103824562Y-117668898D01*
X103633474Y-117748050D01*
X103455887Y-117783373D01*
X103430617Y-117788400D01*
X103223783Y-117788400D01*
X103198513Y-117783373D01*
X103020926Y-117748050D01*
X102829838Y-117668898D01*
X102657864Y-117553989D01*
X102511611Y-117407736D01*
X102396702Y-117235762D01*
X102317550Y-117044674D01*
X102277200Y-116841816D01*
X102277200Y-116634984D01*
X102317550Y-116432126D01*
X102396702Y-116241038D01*
X102511611Y-116069064D01*
X102657864Y-115922811D01*
X102829838Y-115807902D01*
X103020926Y-115728750D01*
X103198513Y-115693427D01*
X103223783Y-115688400D01*
X103430617Y-115688400D01*
X103455887Y-115693427D01*
G37*
G36*
X120111249Y-114833950D02*
G01*
X120161098Y-114849071D01*
X120207030Y-114873622D01*
X120247294Y-114906666D01*
X120280338Y-114946930D01*
X120304889Y-114992862D01*
X120320010Y-115042711D01*
X120325720Y-115100684D01*
X120325720Y-116105796D01*
X120320010Y-116163769D01*
X120304889Y-116213618D01*
X120280338Y-116259550D01*
X120247294Y-116299814D01*
X120207030Y-116332858D01*
X120161098Y-116357409D01*
X120111249Y-116372530D01*
X120053276Y-116378240D01*
X118798164Y-116378240D01*
X118740191Y-116372530D01*
X118690342Y-116357409D01*
X118644410Y-116332858D01*
X118604146Y-116299814D01*
X118571102Y-116259550D01*
X118546551Y-116213618D01*
X118531430Y-116163769D01*
X118525720Y-116105796D01*
X118525720Y-115100684D01*
X118531430Y-115042711D01*
X118546551Y-114992862D01*
X118571102Y-114946930D01*
X118604146Y-114906666D01*
X118644410Y-114873622D01*
X118690342Y-114849071D01*
X118740191Y-114833950D01*
X118798164Y-114828240D01*
X120053276Y-114828240D01*
X120111249Y-114833950D01*
G37*
G36*
X147496000Y-115492000D02*
G01*
X144096000Y-115492000D01*
X144096000Y-112092000D01*
X147496000Y-112092000D01*
X147496000Y-115492000D01*
G37*
G36*
X123578536Y-113549854D02*
G01*
X123670305Y-113568108D01*
X123843194Y-113639721D01*
X123998790Y-113743687D01*
X124131113Y-113876010D01*
X124235079Y-114031606D01*
X124306692Y-114204495D01*
X124316022Y-114251400D01*
X124330019Y-114321765D01*
X124343200Y-114388033D01*
X124343200Y-114575167D01*
X124306692Y-114758705D01*
X124235079Y-114931594D01*
X124131113Y-115087190D01*
X123998790Y-115219513D01*
X123843194Y-115323479D01*
X123670305Y-115395092D01*
X123578536Y-115413346D01*
X123486768Y-115431600D01*
X123299632Y-115431600D01*
X123207864Y-115413346D01*
X123116095Y-115395092D01*
X122943206Y-115323479D01*
X122787610Y-115219513D01*
X122655287Y-115087190D01*
X122551321Y-114931594D01*
X122479708Y-114758705D01*
X122443200Y-114575167D01*
X122443200Y-114388033D01*
X122456382Y-114321765D01*
X122470378Y-114251400D01*
X122479708Y-114204495D01*
X122551321Y-114031606D01*
X122655287Y-113876010D01*
X122787610Y-113743687D01*
X122943206Y-113639721D01*
X123116095Y-113568108D01*
X123207864Y-113549854D01*
X123299632Y-113531600D01*
X123486768Y-113531600D01*
X123578536Y-113549854D01*
G37*
G36*
X103455887Y-113153427D02*
G01*
X103633474Y-113188750D01*
X103824562Y-113267902D01*
X103996536Y-113382811D01*
X104142789Y-113529064D01*
X104257698Y-113701038D01*
X104336850Y-113892126D01*
X104366965Y-114043527D01*
X104376667Y-114092301D01*
X104377200Y-114094984D01*
X104377200Y-114301816D01*
X104336850Y-114504674D01*
X104257698Y-114695762D01*
X104142789Y-114867736D01*
X103996536Y-115013989D01*
X103824562Y-115128898D01*
X103633474Y-115208050D01*
X103455887Y-115243373D01*
X103430617Y-115248400D01*
X103223783Y-115248400D01*
X103198513Y-115243373D01*
X103020926Y-115208050D01*
X102829838Y-115128898D01*
X102657864Y-115013989D01*
X102511611Y-114867736D01*
X102396702Y-114695762D01*
X102317550Y-114504674D01*
X102277200Y-114301816D01*
X102277200Y-114094984D01*
X102277734Y-114092301D01*
X102287435Y-114043527D01*
X102317550Y-113892126D01*
X102396702Y-113701038D01*
X102511611Y-113529064D01*
X102657864Y-113382811D01*
X102829838Y-113267902D01*
X103020926Y-113188750D01*
X103198513Y-113153427D01*
X103223783Y-113148400D01*
X103430617Y-113148400D01*
X103455887Y-113153427D01*
G37*
G36*
X120111249Y-112783950D02*
G01*
X120161098Y-112799071D01*
X120207030Y-112823622D01*
X120247294Y-112856666D01*
X120280338Y-112896930D01*
X120304889Y-112942862D01*
X120320010Y-112992711D01*
X120325720Y-113050684D01*
X120325720Y-114055796D01*
X120320010Y-114113769D01*
X120304889Y-114163618D01*
X120280338Y-114209550D01*
X120247294Y-114249814D01*
X120207030Y-114282858D01*
X120161098Y-114307409D01*
X120111249Y-114322530D01*
X120053276Y-114328240D01*
X118798164Y-114328240D01*
X118740191Y-114322530D01*
X118690342Y-114307409D01*
X118644410Y-114282858D01*
X118604146Y-114249814D01*
X118571102Y-114209550D01*
X118546551Y-114163618D01*
X118531430Y-114113769D01*
X118525720Y-114055796D01*
X118525720Y-113050684D01*
X118531430Y-112992711D01*
X118546551Y-112942862D01*
X118571102Y-112896930D01*
X118604146Y-112856666D01*
X118644410Y-112823622D01*
X118690342Y-112799071D01*
X118740191Y-112783950D01*
X118798164Y-112778240D01*
X120053276Y-112778240D01*
X120111249Y-112783950D01*
G37*
G36*
X103455887Y-110613427D02*
G01*
X103633474Y-110648750D01*
X103824562Y-110727902D01*
X103996536Y-110842811D01*
X104142789Y-110989064D01*
X104257698Y-111161038D01*
X104336850Y-111352126D01*
X104377200Y-111554984D01*
X104377200Y-111761816D01*
X104336850Y-111964674D01*
X104257698Y-112155762D01*
X104142789Y-112327736D01*
X103996536Y-112473989D01*
X103824562Y-112588898D01*
X103633474Y-112668050D01*
X103455887Y-112703373D01*
X103430617Y-112708400D01*
X103223783Y-112708400D01*
X103198513Y-112703373D01*
X103020926Y-112668050D01*
X102829838Y-112588898D01*
X102657864Y-112473989D01*
X102511611Y-112327736D01*
X102396702Y-112155762D01*
X102317550Y-111964674D01*
X102277200Y-111761816D01*
X102277200Y-111554984D01*
X102317550Y-111352126D01*
X102396702Y-111161038D01*
X102511611Y-110989064D01*
X102657864Y-110842811D01*
X102829838Y-110727902D01*
X103020926Y-110648750D01*
X103198513Y-110613427D01*
X103223783Y-110608400D01*
X103430617Y-110608400D01*
X103455887Y-110613427D01*
G37*
G36*
X146940687Y-108327427D02*
G01*
X147118274Y-108362750D01*
X147309362Y-108441902D01*
X147481336Y-108556811D01*
X147627589Y-108703064D01*
X147742498Y-108875038D01*
X147821650Y-109066126D01*
X147862000Y-109268984D01*
X147862000Y-109475816D01*
X147821650Y-109678674D01*
X147742498Y-109869762D01*
X147627589Y-110041736D01*
X147481336Y-110187989D01*
X147309362Y-110302898D01*
X147118274Y-110382050D01*
X146940687Y-110417373D01*
X146915417Y-110422400D01*
X146708583Y-110422400D01*
X146683313Y-110417373D01*
X146505726Y-110382050D01*
X146314638Y-110302898D01*
X146142664Y-110187989D01*
X145996411Y-110041736D01*
X145881502Y-109869762D01*
X145802350Y-109678674D01*
X145762000Y-109475816D01*
X145762000Y-109268984D01*
X145802350Y-109066126D01*
X145881502Y-108875038D01*
X145996411Y-108703064D01*
X146142664Y-108556811D01*
X146314638Y-108441902D01*
X146505726Y-108362750D01*
X146683313Y-108327427D01*
X146708583Y-108322400D01*
X146915417Y-108322400D01*
X146940687Y-108327427D01*
G37*
G36*
X150402000Y-110422400D02*
G01*
X148302000Y-110422400D01*
X148302000Y-108322400D01*
X150402000Y-108322400D01*
X150402000Y-110422400D01*
G37*
G36*
X141860687Y-108327427D02*
G01*
X142038274Y-108362750D01*
X142229362Y-108441902D01*
X142401336Y-108556811D01*
X142547589Y-108703064D01*
X142662498Y-108875038D01*
X142741650Y-109066126D01*
X142782000Y-109268984D01*
X142782000Y-109475816D01*
X142741650Y-109678674D01*
X142662498Y-109869762D01*
X142547589Y-110041736D01*
X142401336Y-110187989D01*
X142229362Y-110302898D01*
X142038274Y-110382050D01*
X141860687Y-110417373D01*
X141835417Y-110422400D01*
X141628583Y-110422400D01*
X141603313Y-110417373D01*
X141425726Y-110382050D01*
X141234638Y-110302898D01*
X141062664Y-110187989D01*
X140916411Y-110041736D01*
X140801502Y-109869762D01*
X140722350Y-109678674D01*
X140682000Y-109475816D01*
X140682000Y-109268984D01*
X140722350Y-109066126D01*
X140801502Y-108875038D01*
X140916411Y-108703064D01*
X141062664Y-108556811D01*
X141234638Y-108441902D01*
X141425726Y-108362750D01*
X141603313Y-108327427D01*
X141628583Y-108322400D01*
X141835417Y-108322400D01*
X141860687Y-108327427D01*
G37*
G36*
X144400687Y-108327427D02*
G01*
X144578274Y-108362750D01*
X144769362Y-108441902D01*
X144941336Y-108556811D01*
X145087589Y-108703064D01*
X145202498Y-108875038D01*
X145281650Y-109066126D01*
X145322000Y-109268984D01*
X145322000Y-109475816D01*
X145281650Y-109678674D01*
X145202498Y-109869762D01*
X145087589Y-110041736D01*
X144941336Y-110187989D01*
X144769362Y-110302898D01*
X144578274Y-110382050D01*
X144400687Y-110417373D01*
X144375417Y-110422400D01*
X144168583Y-110422400D01*
X144143313Y-110417373D01*
X143965726Y-110382050D01*
X143774638Y-110302898D01*
X143602664Y-110187989D01*
X143456411Y-110041736D01*
X143341502Y-109869762D01*
X143262350Y-109678674D01*
X143222000Y-109475816D01*
X143222000Y-109268984D01*
X143262350Y-109066126D01*
X143341502Y-108875038D01*
X143456411Y-108703064D01*
X143602664Y-108556811D01*
X143774638Y-108441902D01*
X143965726Y-108362750D01*
X144143313Y-108327427D01*
X144168583Y-108322400D01*
X144375417Y-108322400D01*
X144400687Y-108327427D01*
G37*
G36*
X103455887Y-108073427D02*
G01*
X103633474Y-108108750D01*
X103824562Y-108187902D01*
X103996536Y-108302811D01*
X104142789Y-108449064D01*
X104257698Y-108621038D01*
X104336850Y-108812126D01*
X104377200Y-109014984D01*
X104377200Y-109221816D01*
X104336850Y-109424674D01*
X104257698Y-109615762D01*
X104142789Y-109787736D01*
X103996536Y-109933989D01*
X103824562Y-110048898D01*
X103633474Y-110128050D01*
X103455887Y-110163373D01*
X103430617Y-110168400D01*
X103223783Y-110168400D01*
X103198513Y-110163373D01*
X103020926Y-110128050D01*
X102829838Y-110048898D01*
X102657864Y-109933989D01*
X102511611Y-109787736D01*
X102396702Y-109615762D01*
X102317550Y-109424674D01*
X102277200Y-109221816D01*
X102277200Y-109014984D01*
X102317550Y-108812126D01*
X102396702Y-108621038D01*
X102511611Y-108449064D01*
X102657864Y-108302811D01*
X102829838Y-108187902D01*
X103020926Y-108108750D01*
X103198513Y-108073427D01*
X103223783Y-108068400D01*
X103430617Y-108068400D01*
X103455887Y-108073427D01*
G37*
G36*
X112251200Y-110117600D02*
G01*
X110151200Y-110117600D01*
X110151200Y-108017600D01*
X112251200Y-108017600D01*
X112251200Y-110117600D01*
G37*
G36*
X113869887Y-108022627D02*
G01*
X114047474Y-108057950D01*
X114238562Y-108137102D01*
X114410536Y-108252011D01*
X114556789Y-108398264D01*
X114671698Y-108570238D01*
X114750850Y-108761326D01*
X114791200Y-108964184D01*
X114791200Y-109171016D01*
X114750850Y-109373874D01*
X114671698Y-109564962D01*
X114556789Y-109736936D01*
X114410536Y-109883189D01*
X114238562Y-109998098D01*
X114047474Y-110077250D01*
X113869887Y-110112573D01*
X113844617Y-110117600D01*
X113637783Y-110117600D01*
X113612513Y-110112573D01*
X113434926Y-110077250D01*
X113243838Y-109998098D01*
X113071864Y-109883189D01*
X112925611Y-109736936D01*
X112810702Y-109564962D01*
X112731550Y-109373874D01*
X112691200Y-109171016D01*
X112691200Y-108964184D01*
X112731550Y-108761326D01*
X112810702Y-108570238D01*
X112925611Y-108398264D01*
X113071864Y-108252011D01*
X113243838Y-108137102D01*
X113434926Y-108057950D01*
X113612513Y-108022627D01*
X113637783Y-108017600D01*
X113844617Y-108017600D01*
X113869887Y-108022627D01*
G37*
G36*
X116409887Y-108022627D02*
G01*
X116587474Y-108057950D01*
X116778562Y-108137102D01*
X116950536Y-108252011D01*
X117096789Y-108398264D01*
X117211698Y-108570238D01*
X117290850Y-108761326D01*
X117331200Y-108964184D01*
X117331200Y-109171016D01*
X117290850Y-109373874D01*
X117211698Y-109564962D01*
X117096789Y-109736936D01*
X116950536Y-109883189D01*
X116778562Y-109998098D01*
X116587474Y-110077250D01*
X116409887Y-110112573D01*
X116384617Y-110117600D01*
X116177783Y-110117600D01*
X116152513Y-110112573D01*
X115974926Y-110077250D01*
X115783838Y-109998098D01*
X115611864Y-109883189D01*
X115465611Y-109736936D01*
X115350702Y-109564962D01*
X115271550Y-109373874D01*
X115231200Y-109171016D01*
X115231200Y-108964184D01*
X115271550Y-108761326D01*
X115350702Y-108570238D01*
X115465611Y-108398264D01*
X115611864Y-108252011D01*
X115783838Y-108137102D01*
X115974926Y-108057950D01*
X116152513Y-108022627D01*
X116177783Y-108017600D01*
X116384617Y-108017600D01*
X116409887Y-108022627D01*
G37*
G36*
X118949887Y-108022627D02*
G01*
X119127474Y-108057950D01*
X119318562Y-108137102D01*
X119490536Y-108252011D01*
X119636789Y-108398264D01*
X119751698Y-108570238D01*
X119830850Y-108761326D01*
X119871200Y-108964184D01*
X119871200Y-109171016D01*
X119830850Y-109373874D01*
X119751698Y-109564962D01*
X119636789Y-109736936D01*
X119490536Y-109883189D01*
X119318562Y-109998098D01*
X119127474Y-110077250D01*
X118949887Y-110112573D01*
X118924617Y-110117600D01*
X118717783Y-110117600D01*
X118692513Y-110112573D01*
X118514926Y-110077250D01*
X118323838Y-109998098D01*
X118151864Y-109883189D01*
X118005611Y-109736936D01*
X117890702Y-109564962D01*
X117811550Y-109373874D01*
X117771200Y-109171016D01*
X117771200Y-108964184D01*
X117811550Y-108761326D01*
X117890702Y-108570238D01*
X118005611Y-108398264D01*
X118151864Y-108252011D01*
X118323838Y-108137102D01*
X118514926Y-108057950D01*
X118692513Y-108022627D01*
X118717783Y-108017600D01*
X118924617Y-108017600D01*
X118949887Y-108022627D01*
G37*
G36*
X121489887Y-108022627D02*
G01*
X121667474Y-108057950D01*
X121858562Y-108137102D01*
X122030536Y-108252011D01*
X122176789Y-108398264D01*
X122291698Y-108570238D01*
X122370850Y-108761326D01*
X122411200Y-108964184D01*
X122411200Y-109171016D01*
X122370850Y-109373874D01*
X122291698Y-109564962D01*
X122176789Y-109736936D01*
X122030536Y-109883189D01*
X121858562Y-109998098D01*
X121667474Y-110077250D01*
X121489887Y-110112573D01*
X121464617Y-110117600D01*
X121257783Y-110117600D01*
X121232513Y-110112573D01*
X121054926Y-110077250D01*
X120863838Y-109998098D01*
X120691864Y-109883189D01*
X120545611Y-109736936D01*
X120430702Y-109564962D01*
X120351550Y-109373874D01*
X120311200Y-109171016D01*
X120311200Y-108964184D01*
X120351550Y-108761326D01*
X120430702Y-108570238D01*
X120545611Y-108398264D01*
X120691864Y-108252011D01*
X120863838Y-108137102D01*
X121054926Y-108057950D01*
X121232513Y-108022627D01*
X121257783Y-108017600D01*
X121464617Y-108017600D01*
X121489887Y-108022627D01*
G37*
G36*
X124029887Y-108022627D02*
G01*
X124207474Y-108057950D01*
X124398562Y-108137102D01*
X124570536Y-108252011D01*
X124716789Y-108398264D01*
X124831698Y-108570238D01*
X124910850Y-108761326D01*
X124951200Y-108964184D01*
X124951200Y-109171016D01*
X124910850Y-109373874D01*
X124831698Y-109564962D01*
X124716789Y-109736936D01*
X124570536Y-109883189D01*
X124398562Y-109998098D01*
X124207474Y-110077250D01*
X124029887Y-110112573D01*
X124004617Y-110117600D01*
X123797783Y-110117600D01*
X123772513Y-110112573D01*
X123594926Y-110077250D01*
X123403838Y-109998098D01*
X123231864Y-109883189D01*
X123085611Y-109736936D01*
X122970702Y-109564962D01*
X122891550Y-109373874D01*
X122851200Y-109171016D01*
X122851200Y-108964184D01*
X122891550Y-108761326D01*
X122970702Y-108570238D01*
X123085611Y-108398264D01*
X123231864Y-108252011D01*
X123403838Y-108137102D01*
X123594926Y-108057950D01*
X123772513Y-108022627D01*
X123797783Y-108017600D01*
X124004617Y-108017600D01*
X124029887Y-108022627D01*
G37*
M02*
